orden,n_comp,fecha_emision,cod_cliente,figura,importe,bonif_sin_imp,imp_gravado,imp_exento,imp_iva,montib,gastadmi,boniflibro,bonifcosme,bonifpract,porclider,boniflider,bonifivadic,zona
1,"B0000301054644","2021-08-17",5066409,2,8330.37,2455.42,6884.60,0.00,1445.77,344.23000000000,"176.13",0.00,"1727.95","727.47","","0.00","0.00",703
2,"B0000301054645","2021-08-17",5724651,2,4940.38,733.98,4082.96,0.00,857.42,204.15000000000,"104.46",0.00,"353.99","379.99","","0.00","0.00",703
3,"B0000301054646","2021-08-17",5760909,10,11601.37,3403.36,8676.84,0.00,2924.53,433.84000000000,"245.29",0.00,"2378.91","1024.45","","0.00","1102.39",703
4,"B0000301054647","2021-08-17",8055378,10,10128.86,3644.86,7575.52,0.00,2553.33,378.78000000000,"214.16",0.00,"3221.87","422.99","","0.00","962.47",703
5,"B0000301054648","2021-08-17",10403205,2,4472.46,851.97,3696.25,0.00,776.21,0.00000000000,"94.56",0.00,"134.99","716.98","","0.00","0.00",703
6,"B0000301054649","2021-08-17",10948309,10,19438.66,5061.88,14538.47,0.00,4900.19,726.92000000000,"411.00",0.00,"2922.91","2138.97","","0.00","1847.11",703
7,"B0000301054650","2021-08-17",10948392,2,3491.69,1001.95,2885.70,0.00,606.00,144.28000000000,"73.83",0.00,"728.96","272.99","","0.00","0.00",703
8,"B0000301054651","2021-08-17",10948546,2,4183.87,934.47,3457.75,0.00,726.13,172.89000000000,"88.46",0.00,"359.98","574.48","","0.00","0.00",703
9,"B0000301054652","2021-08-17",11054115,2,5673.85,1445.96,4689.13,0.00,984.72,234.46000000000,"119.96",0.00,"857.98","587.98","","0.00","0.00",703
10,"B0000301054653","2021-08-17",11273070,10,12867.72,3473.88,9623.97,0.00,3243.76,481.20000000000,"272.07",0.00,"2126.92","1346.96","","0.00","1222.72",703
11,"B0000301054654","2021-08-17",11362286,2,8761.99,2482.91,7241.32,0.00,1520.68,362.07000000000,"185.26",0.00,"1723.93","758.97","","0.00","0.00",703
12,"B0000301054655","2021-08-17",11569972,2,3246.53,911.96,2683.08,0.00,563.45,134.15000000000,"68.64",0.00,"647.96","263.99","","0.00","0.00",703
13,"B0000301054656","2021-08-17",11969334,10,15252.58,3549.39,11407.64,0.00,3844.94,684.46000000000,"322.49",0.00,"1519.95","2029.44","","0.00","1449.34",703
14,"B0000301054657","2021-08-17",12119466,2,9703.87,3100.89,8019.73,0.00,1684.14,400.99000000000,"205.17",0.00,"2403.42","697.47","","0.00","0.00",703
15,"B0000301054658","2021-08-17",12358290,10,10664.69,2500.40,7976.29,0.00,2688.41,398.81000000000,"225.49",0.00,"1118.95","1381.45","","0.00","1013.39",703
16,"B0000301054659","2021-08-17",12485373,2,5078.27,1268.97,4196.92,0.00,881.35,209.85000000000,"107.37",0.00,"776.98","491.99","","0.00","0.00",703
17,"B0000301054660","2021-08-17",12500747,2,8707.37,2066.43,7196.17,0.00,1511.20,359.81000000000,"184.10",0.00,"930.97","1135.47","","0.00","0.00",703
18,"B0000301054661","2021-08-17",12744204,2,4634.36,1063.46,3830.05,0.00,804.31,191.50000000000,"97.99",0.00,"446.98","616.48","","0.00","0.00",703
19,"B0000301054662","2021-08-17",12836940,2,8995.45,2704.41,7434.26,0.00,1561.19,371.71000000000,"190.19",0.00,"1982.93","721.48","","0.00","0.00",703
20,"B0000301054663","2021-08-17",12892505,2,3964.76,498.99,3276.66,0.00,688.10,163.83000000000,"83.83",0.00,"155.99","342.99","","0.00","0.00",703
21,"B0000301054664","2021-08-17",13013440,2,4862.21,1030.47,4018.36,0.00,843.86,200.92000000000,"102.80",0.00,"578.98","451.48","","0.00","0.00",703
22,"B0000301054665","2021-08-17",13373749,2,5495.13,630.99,4541.43,0.00,953.70,227.07000000000,"116.19",0.00,"60.00","570.99","","0.00","0.00",703
23,"B0000301054666","2021-08-17",13493833,2,3726.70,511.98,3079.92,0.00,646.78,154.00000000000,"78.79",0.00,"235.99","275.99","","0.00","0.00",703
24,"B0000301054667","2021-08-17",13597531,2,9890.36,3598.39,8173.85,0.00,1716.51,408.69000000000,"209.11",0.00,"3197.91","400.48","","0.00","0.00",703
25,"B0000301054668","2021-08-17",13667521,2,4664.52,1193.97,3854.98,0.00,809.55,192.75000000000,"98.62",0.00,"659.99","533.98","","0.00","0.00",703
26,"B0000301054669","2021-08-17",13668773,2,2278.09,219.99,1882.72,0.00,395.37,94.14000000000,"48.17",0.00,"0.00","219.99","","0.00","0.00",703
27,"B0000301054670","2021-08-17",13721054,2,9372.89,2154.92,7746.19,0.00,1626.70,387.31000000000,"198.17",0.00,"870.97","1283.96","","0.00","0.00",703
28,"B0000301054671","2021-08-17",13763768,2,2851.24,548.99,2356.39,0.00,494.84,117.82000000000,"60.28",0.00,"429.99","119.00","","0.00","0.00",703
29,"B0000301054672","2021-08-17",13809113,2,4828.42,1713.43,3990.43,0.00,837.99,199.52000000000,"102.09",0.00,"1476.44","236.99","","0.00","0.00",703
30,"B0000301054673","2021-08-17",13809237,10,17430.99,4976.83,13036.90,0.00,4394.09,651.85000000000,"368.55",0.00,"3341.88","1634.94","","0.00","1656.34",703
31,"B0000301054674","2021-08-17",13880136,2,3130.07,815.96,2586.84,0.00,543.24,129.34000000000,"66.18",0.00,"467.97","347.99","","0.00","0.00",703
32,"B0000301054675","2021-08-17",13990195,2,2298.52,279.99,1899.60,0.00,398.92,94.98000000000,"48.60",0.00,"54.00","225.99","","0.00","0.00",703
33,"B0000301054676","2021-08-17",14011611,2,3486.63,1016.95,2881.51,0.00,605.12,144.08000000000,"73.72",0.00,"704.96","311.98","","0.00","0.00",703
34,"B0000301054677","2021-08-17",14039656,2,6919.23,1126.98,5718.37,0.00,1200.86,285.92000000000,"146.30",0.00,"673.98","453.00","","0.00","0.00",703
35,"B0000301054678","2021-08-17",14075849,2,3856.45,944.97,3187.15,0.00,669.30,159.36000000000,"81.54",0.00,"581.98","362.99","","0.00","0.00",703
36,"B0000301054679","2021-08-17",14133458,2,2186.18,419.98,1806.76,0.00,379.42,90.34000000000,"46.22",0.00,"327.99","92.00","","0.00","0.00",703
37,"B0000301054680","2021-08-17",20070748,2,2743.95,383.98,2267.73,0.00,476.22,113.39000000000,"58.02",0.00,"153.99","229.99","","0.00","0.00",703
38,"B0000301054681","2021-08-17",20070837,2,8802.38,2593.43,7274.69,0.00,1527.69,363.73000000000,"186.11",0.00,"1808.96","784.47","","0.00","0.00",703
39,"B0000301054682","2021-08-17",20116080,2,3868.70,902.97,3197.27,0.00,671.43,159.86000000000,"81.80",0.00,"398.98","503.98","","0.00","0.00",703
40,"B0000301054683","2021-08-17",20210388,2,9365.76,1931.94,7740.30,0.00,1625.46,387.01000000000,"198.02",0.00,"533.98","1397.96","","0.00","0.00",703
41,"B0000301054684","2021-08-17",20210574,2,2830.76,998.95,2339.47,0.00,491.29,116.97000000000,"59.85",0.00,"866.96","131.99","","0.00","0.00",703
42,"B0000301054685","2021-08-17",20238550,2,6296.45,1486.45,5203.68,0.00,1092.77,260.18000000000,"133.13",0.00,"662.97","823.47","","0.00","0.00",703
43,"B0000301054686","2021-08-17",20390530,2,3650.10,686.98,3016.61,0.00,633.49,150.83000000000,"77.18",0.00,"521.99","164.99","","0.00","0.00",703
44,"B0000301054687","2021-08-17",20390548,2,5464.44,710.98,4516.07,0.00,948.37,225.80000000000,"115.54",0.00,"209.99","500.99","","0.00","0.00",703
45,"B0000301054688","2021-08-17",20505760,2,2798.10,370.98,2312.48,0.00,485.62,115.62000000000,"59.16",0.00,"119.99","250.99","","0.00","0.00",703
46,"B0000301054689","2021-08-17",20538650,2,4210.96,457.99,3480.14,0.00,730.83,174.01000000000,"89.03",0.00,"0.00","457.99","","0.00","0.00",703
47,"B0000301054690","2021-08-17",20563353,10,21988.64,4945.91,16445.64,0.00,5543.00,822.28000000000,"464.91",0.00,"2080.94","2864.97","","0.00","2089.42",703
48,"B0000301054691","2021-08-17",20705107,2,8900.54,1957.46,7355.81,0.00,1544.72,367.79000000000,"188.19",0.00,"713.98","1243.48","","0.00","0.00",703
49,"B0000301054692","2021-08-17",20785224,2,7415.64,1280.97,6128.63,0.00,1287.01,306.43000000000,"156.79",0.00,"0.00","1280.97","","0.00","0.00",703
50,"B0000301054693","2021-08-17",20785267,10,11556.75,2677.45,8643.47,0.00,2913.28,432.17000000000,"244.35",0.00,"1157.97","1519.48","","0.00","1098.15",703
51,"B0000301054694","2021-08-17",20785364,2,2512.04,350.99,2076.06,0.00,435.97,103.80000000000,"53.11",0.00,"140.00","210.99","","0.00","0.00",703
52,"B0000301054695","2021-08-17",20785429,2,2880.98,459.99,2380.97,0.00,500.00,119.05000000000,"60.91",0.00,"263.99","195.99","","0.00","0.00",703
53,"B0000301054696","2021-08-17",20785453,2,5569.04,1738.42,4602.51,0.00,966.53,230.13000000000,"117.75",0.00,"1319.93","418.49","","0.00","0.00",703
54,"B0000301054697","2021-08-17",20828454,2,5272.36,968.97,4357.32,0.00,915.04,217.87000000000,"111.48",0.00,"173.99","794.98","","0.00","0.00",703
55,"B0000301054698","2021-08-17",20828489,2,4342.19,1459.45,3588.59,0.00,753.60,179.43000000000,"91.81",0.00,"1205.96","253.49","","0.00","0.00",703
56,"B0000301054699","2021-08-17",20866003,10,19436.09,3404.43,14536.55,0.00,4899.54,726.83000000000,"410.94",0.00,"243.99","3160.44","","0.00","1846.87",703
57,"B0000301054700","2021-08-17",20866011,10,13480.71,3443.90,10082.42,0.00,3398.28,504.12000000000,"285.03",0.00,"1895.93","1547.97","","0.00","1280.97",703
58,"B0000301054701","2021-08-17",20901500,2,4463.84,670.47,3689.12,0.00,774.72,184.46000000000,"94.38",0.00,"320.98","349.48","","0.00","0.00",703
59,"B0000301054702","2021-08-17",21046425,2,4913.20,870.46,4060.50,0.00,852.70,203.02000000000,"103.88",0.00,"676.96","193.49","","0.00","0.00",703
60,"B0000301054703","2021-08-17",21046581,2,3332.38,1397.96,2754.04,0.00,578.35,137.70000000000,"70.46",0.00,"1397.96","0.00","","0.00","0.00",703
61,"B0000301054704","2021-08-17",21110573,2,6534.48,2323.43,5400.40,0.00,1134.08,270.02000000000,"138.16",0.00,"2030.94","292.49","","0.00","0.00",703
62,"B0000301054705","2021-08-17",21140480,2,8819.19,2306.92,7288.59,0.00,1530.60,364.43000000000,"186.47",0.00,"1475.95","830.97","","0.00","0.00",703
63,"B0000301054706","2021-08-17",21140731,2,4368.77,1153.47,3610.56,0.00,758.22,180.53000000000,"92.37",0.00,"677.98","475.48","","0.00","0.00",703
64,"B0000301054707","2021-08-17",21200394,2,3101.67,373.99,2563.36,0.00,538.31,128.17000000000,"65.58",0.00,"66.00","307.99","","0.00","0.00",703
65,"B0000301054708","2021-08-17",21236496,2,7484.15,813.99,6185.25,0.00,1298.90,309.26000000000,"158.24",0.00,"0.00","813.99","","0.00","0.00",703
66,"B0000301054709","2021-08-17",21236518,10,15732.26,3929.88,11766.40,0.00,3965.86,588.32000000000,"332.63",0.00,"2060.93","1868.95","","0.00","1494.92",703
67,"B0000301054710","2021-08-17",21236526,2,2679.58,516.98,2214.52,0.00,465.05,110.73000000000,"56.66",0.00,"405.98","111.00","","0.00","0.00",703
68,"B0000301054711","2021-08-17",21260435,2,3032.04,621.98,2505.82,0.00,526.22,125.29000000000,"64.11",0.00,"525.99","96.00","","0.00","0.00",703
69,"B0000301054712","2021-08-17",21260524,2,8557.25,1993.45,7072.11,0.00,1485.14,353.61000000000,"180.93",0.00,"950.97","1042.48","","0.00","0.00",703
70,"B0000301054713","2021-08-17",21289280,10,12120.98,2834.91,9065.47,0.00,3055.52,453.27000000000,"256.28",0.00,"1259.94","1574.97","","0.00","1151.77",703
71,"B0000301054714","2021-08-17",21351287,2,3243.52,344.99,2680.59,0.00,562.92,134.03000000000,"68.58",0.00,"164.00","181.00","","0.00","0.00",703
72,"B0000301054715","2021-08-17",21351503,2,5846.02,1237.47,4831.42,0.00,1014.60,241.57000000000,"123.60",0.00,"386.99","850.48","","0.00","0.00",703
73,"B0000301054716","2021-08-17",21352518,2,2825.68,1043.96,2335.27,0.00,490.41,116.76000000000,"59.74",0.00,"944.96","99.00","","0.00","0.00",703
74,"B0000301054717","2021-08-17",21386340,2,3245.53,812.97,2682.26,0.00,563.27,134.11000000000,"68.62",0.00,"428.98","383.99","","0.00","0.00",703
75,"B0000301054718","2021-08-17",21386510,2,7132.48,1517.93,5894.61,0.00,1237.87,294.73000000000,"150.80",0.00,"455.98","1061.94","","0.00","0.00",703
76,"B0000301054719","2021-08-17",21386544,10,13071.89,4003.84,9776.66,0.00,3295.22,488.83000000000,"276.38",0.00,"3319.87","683.97","","0.00","1242.12",703
77,"B0000301054720","2021-08-17",21411093,10,10299.05,3038.42,7702.81,0.00,2596.23,385.14000000000,"217.76",0.00,"2346.93","691.49","","0.00","978.64",703
78,"B0000301054721","2021-08-17",21411212,2,9727.40,2797.91,8039.17,0.00,1688.23,401.96000000000,"205.67",0.00,"2722.91","75.00","","0.00","0.00",703
79,"B0000301054722","2021-08-17",21440476,10,17353.92,3742.38,12979.26,0.00,4374.66,648.96000000000,"366.92",0.00,"1265.97","2476.41","","0.00","1649.01",703
80,"B0000301054723","2021-08-17",21469865,2,2953.37,468.98,2440.80,0.00,512.57,122.04000000000,"62.44",0.00,"265.99","202.99","","0.00","0.00",703
81,"B0000301054724","2021-08-17",21471762,2,4647.64,1060.46,3841.02,0.00,806.61,192.05000000000,"98.27",0.00,"545.98","514.48","","0.00","0.00",703
82,"B0000301054725","2021-08-17",21471770,2,7337.43,1317.45,6063.99,0.00,1273.44,303.20000000000,"155.14",0.00,"456.48","860.97","","0.00","0.00",703
83,"B0000301054726","2021-08-17",21499357,2,4120.05,576.99,3405.00,0.00,715.05,170.25000000000,"87.11",0.00,"231.99","344.99","","0.00","0.00",703
84,"B0000301054727","2021-08-17",21499390,2,3473.33,809.97,2870.52,0.00,602.81,143.53000000000,"73.44",0.00,"542.98","266.99","","0.00","0.00",703
85,"B0000301054728","2021-08-17",21533555,10,10683.55,1681.94,7990.39,0.00,2693.16,399.52000000000,"225.89",0.00,"427.98","1253.95","","0.00","1015.18",703
86,"B0000301054729","2021-08-17",21583250,2,6174.41,1295.96,5102.82,0.00,1071.59,255.14000000000,"130.55",0.00,"389.98","905.98","","0.00","0.00",703
87,"B0000301054730","2021-08-17",21583358,2,7059.65,1609.46,5834.42,0.00,1225.23,291.72000000000,"149.26",0.00,"737.98","871.48","","0.00","0.00",703
88,"B0000301054731","2021-08-17",21584966,10,10055.38,1916.94,7520.57,0.00,2534.81,376.03000000000,"212.60",0.00,"305.98","1610.96","","0.00","955.49",703
89,"B0000301054732","2021-08-17",21639434,2,5101.73,1565.94,4216.31,0.00,885.43,210.82000000000,"107.87",0.00,"1310.95","254.99","","0.00","0.00",703
90,"B0000301054733","2021-08-17",21681163,2,2735.80,761.96,2260.99,0.00,474.81,113.05000000000,"57.84",0.00,"566.97","194.99","","0.00","0.00",703
91,"B0000301054734","2021-08-17",21681198,2,9099.77,2362.45,7520.47,0.00,1579.30,376.02000000000,"192.40",0.00,"1454.97","907.49","","0.00","0.00",703
92,"B0000301054735","2021-08-17",21681295,2,4807.48,1313.94,3973.13,0.00,834.36,198.66000000000,"101.65",0.00,"821.96","491.98","","0.00","0.00",703
93,"B0000301054736","2021-08-17",21714282,2,2270.92,246.99,1876.79,0.00,394.13,93.84000000000,"48.01",0.00,"0.00","246.99","","0.00","0.00",703
94,"B0000301054737","2021-08-17",21785481,2,5642.13,1166.96,4662.92,0.00,979.21,233.15000000000,"119.29",0.00,"326.99","839.97","","0.00","0.00",703
95,"B0000301054738","2021-08-17",21854920,2,2237.25,509.98,1848.97,0.00,388.28,92.45000000000,"47.30",0.00,"479.98","30.00","","0.00","0.00",703
96,"B0000301054739","2021-08-17",21869430,2,6170.78,1379.45,5099.82,0.00,1070.96,254.99000000000,"130.47",0.00,"587.48","791.97","","0.00","0.00",703
97,"B0000301054740","2021-08-17",21869987,2,4563.84,1222.45,3771.77,0.00,792.07,188.59000000000,"96.49",0.00,"812.97","409.48","","0.00","0.00",703
98,"B0000301054741","2021-08-17",21906106,2,8362.10,3154.42,6910.83,0.00,1451.27,345.54000000000,"176.80",0.00,"2906.93","247.49","","0.00","0.00",703
99,"B0000301054742","2021-08-17",21906114,10,11093.80,2710.43,8297.22,0.00,2796.58,414.86000000000,"234.56",0.00,"1349.96","1360.46","","0.00","1054.16",703
100,"B0000301054743","2021-08-17",21906300,2,3429.47,732.98,2834.27,0.00,595.20,141.71000000000,"72.51",0.00,"647.99","85.00","","0.00","0.00",703
101,"B0000301054744","2021-08-17",21964149,2,8143.44,1878.44,6730.12,0.00,1413.32,336.51000000000,"172.18",0.00,"925.97","952.46","","0.00","0.00",703
102,"B0000301054745","2021-08-17",21964157,2,2522.28,520.98,2084.53,0.00,437.75,104.23000000000,"53.33",0.00,"443.99","77.00","","0.00","0.00",703
103,"B0000301054746","2021-08-17",21964246,2,6583.62,1495.47,5441.01,0.00,1142.61,272.05000000000,"139.20",0.00,"608.98","886.48","","0.00","0.00",703
104,"B0000301054747","2021-08-17",21964254,10,21541.40,4093.38,16111.14,0.00,5430.26,805.56000000000,"455.46",0.00,"632.98","3460.40","","0.00","2046.92",703
105,"B0000301054748","2021-08-17",21964297,2,7904.54,2002.46,6532.68,0.00,1371.86,326.63000000000,"167.13",0.00,"1082.97","919.49","","0.00","0.00",703
106,"B0000301054749","2021-08-17",21964459,10,12604.66,2341.43,9427.22,0.00,3177.44,471.36000000000,"266.50",0.00,"494.98","1846.45","","0.00","1197.73",703
107,"B0000301054750","2021-08-17",22018115,2,4623.64,1313.96,3821.19,0.00,802.45,191.06000000000,"97.76",0.00,"1001.97","311.99","","0.00","0.00",703
108,"B0000301054751","2021-08-17",22018697,2,5770.40,1291.47,4768.92,0.00,1001.47,238.45000000000,"122.01",0.00,"500.99","790.48","","0.00","0.00",703
109,"B0000301054752","2021-08-17",22018921,2,6407.27,1437.94,5295.26,0.00,1112.01,264.76000000000,"135.47",0.00,"654.97","782.97","","0.00","0.00",703
110,"B0000301054753","2021-08-17",22019448,2,3062.72,371.99,2531.18,0.00,531.55,126.56000000000,"64.76",0.00,"70.00","301.99","","0.00","0.00",703
111,"B0000301054754","2021-08-17",22019880,2,9375.51,2062.44,7748.36,0.00,1627.15,387.42000000000,"198.23",0.00,"722.98","1339.46","","0.00","0.00",703
112,"B0000301054755","2021-08-17",22019960,2,3728.74,599.98,3081.60,0.00,647.14,154.08000000000,"78.84",0.00,"0.00","599.98","","0.00","0.00",703
113,"B0000301054756","2021-08-17",22020071,2,6542.71,1360.46,5407.20,0.00,1135.51,270.36000000000,"138.33",0.00,"494.98","865.48","","0.00","0.00",703
114,"B0000301054757","2021-08-17",22020101,2,2944.67,907.47,2433.62,0.00,511.06,121.68000000000,"62.26",0.00,"752.97","154.49","","0.00","0.00",703
115,"B0000301054758","2021-08-17",22100660,2,2561.08,602.98,2116.60,0.00,444.49,105.83000000000,"54.15",0.00,"583.98","19.00","","0.00","0.00",703
116,"B0000301054759","2021-08-17",22100709,2,8023.83,1825.42,6631.26,0.00,1392.57,331.56000000000,"169.65",0.00,"731.97","1093.45","","0.00","0.00",703
117,"B0000301054760","2021-08-17",22100717,2,4865.31,1567.43,4020.92,0.00,844.39,201.05000000000,"102.87",0.00,"1235.94","331.49","","0.00","0.00",703
118,"B0000301054761","2021-08-17",22100725,2,2500.84,501.98,2066.81,0.00,434.03,103.34000000000,"52.88",0.00,"413.99","88.00","","0.00","0.00",703
119,"B0000301054762","2021-08-17",22155589,2,3967.83,535.99,3279.20,0.00,688.63,163.96000000000,"83.89",0.00,"187.99","347.99","","0.00","0.00",703
120,"B0000301054763","2021-08-17",22155910,2,3558.14,836.97,2940.61,0.00,617.53,147.03000000000,"75.23",0.00,"377.99","458.98","","0.00","0.00",703
121,"B0000301054764","2021-08-17",22156089,2,7657.14,1594.43,6328.22,0.00,1328.93,316.41000000000,"161.90",0.00,"581.97","1012.47","","0.00","0.00",703
122,"B0000301054765","2021-08-17",22221565,2,3933.00,1649.92,3250.42,0.00,682.59,162.52000000000,"83.16",0.00,"1649.92","0.00","","0.00","0.00",703
123,"B0000301054766","2021-08-17",22221581,2,5840.88,1372.46,4827.17,0.00,1013.71,241.36000000000,"123.50",0.00,"617.98","754.48","","0.00","0.00",703
124,"B0000301054767","2021-08-17",22306889,2,3332.37,457.98,2754.03,0.00,578.35,137.70000000000,"70.46",0.00,"172.00","285.99","","0.00","0.00",703
125,"B0000301054768","2021-08-17",22307109,2,3797.22,412.99,3138.20,0.00,659.02,156.91000000000,"80.29",0.00,"0.00","412.99","","0.00","0.00",703
126,"B0000301054769","2021-08-17",22307230,2,4128.23,528.99,3411.76,0.00,716.47,170.59000000000,"87.28",0.00,"158.00","370.99","","0.00","0.00",703
127,"B0000301054770","2021-08-17",22348450,10,13912.70,4160.82,10405.52,0.00,3507.18,520.28000000000,"294.16",0.00,"3053.86","1106.96","","0.00","1322.02",703
128,"B0000301054771","2021-08-17",22348565,10,11313.46,2755.43,8461.51,0.00,2851.95,423.08000000000,"239.20",0.00,"1361.97","1393.46","","0.00","1075.04",703
129,"B0000301054772","2021-08-17",22387668,2,2275.00,222.99,1880.17,0.00,394.84,94.01000000000,"48.10",0.00,"0.00","222.99","","0.00","0.00",703
130,"B0000301054773","2021-08-17",22387749,2,4775.87,824.97,3947.00,0.00,828.87,197.35000000000,"100.98",0.00,"0.00","824.97","","0.00","0.00",703
131,"B0000301054774","2021-08-17",22387854,10,14572.13,4255.33,10898.71,0.00,3673.41,544.94000000000,"308.10",0.00,"3002.87","1252.46","","0.00","1384.68",703
132,"B0000301054775","2021-08-17",22392785,2,8905.53,2662.42,7359.94,0.00,1545.59,368.00000000000,"188.29",0.00,"1910.95","751.47","","0.00","0.00",703
133,"B0000301054776","2021-08-17",22392947,10,10048.72,2913.38,7515.59,0.00,2533.13,375.78000000000,"212.46",0.00,"2158.90","754.47","","0.00","954.86",703
134,"B0000301054777","2021-08-17",22394907,2,2256.64,310.99,1865.00,0.00,391.65,93.25000000000,"47.71",0.00,"118.00","192.99","","0.00","0.00",703
135,"B0000301054778","2021-08-17",22394958,2,3495.86,667.98,2889.14,0.00,606.72,144.46000000000,"73.91",0.00,"517.99","150.00","","0.00","0.00",703
136,"B0000301054779","2021-08-17",22395245,2,3968.84,774.98,3280.03,0.00,688.81,164.00000000000,"83.91",0.00,"617.98","157.00","","0.00","0.00",703
137,"B0000301054780","2021-08-17",22395393,2,3542.84,591.98,2927.96,0.00,614.87,146.40000000000,"74.91",0.00,"371.99","219.99","","0.00","0.00",703
138,"B0000301054781","2021-08-17",22395563,10,13612.46,3434.89,10180.96,0.00,3431.49,509.05000000000,"287.81",0.00,"1721.93","1712.96","","0.00","1293.49",703
139,"B0000301054782","2021-08-17",22395784,2,7724.08,2003.93,6383.54,0.00,1340.54,319.18000000000,"163.31",0.00,"1268.96","734.97","","0.00","0.00",703
140,"B0000301054783","2021-08-17",22396225,10,16598.47,5171.84,12414.25,0.00,4184.22,620.71000000000,"350.95",0.00,"4067.88","1103.96","","0.00","1577.23",703
141,"B0000301054784","2021-08-17",22396233,2,5190.13,1369.46,4289.36,0.00,900.77,214.47000000000,"109.74",0.00,"803.98","565.48","","0.00","0.00",703
142,"B0000301054785","2021-08-17",22397094,10,12057.66,2426.93,9018.10,0.00,3039.55,450.91000000000,"254.94",0.00,"584.98","1841.95","","0.00","1145.75",703
143,"B0000301054786","2021-08-17",22406220,2,7170.44,1220.96,5925.98,0.00,1244.46,296.30000000000,"151.61",0.00,"413.98","806.98","","0.00","0.00",703
144,"B0000301054787","2021-08-17",22406247,2,2946.73,835.47,2435.31,0.00,511.42,121.77000000000,"62.30",0.00,"554.98","280.49","","0.00","0.00",703
145,"B0000301054788","2021-08-17",22407952,2,4807.00,724.47,3972.73,0.00,834.27,198.64000000000,"101.64",0.00,"239.99","484.47","","0.00","0.00",703
146,"B0000301054789","2021-08-17",22451080,2,4515.40,479.98,3731.73,0.00,783.66,186.59000000000,"95.47",0.00,"279.99","200.00","","0.00","0.00",703
147,"B0000301054790","2021-08-17",22451200,2,8994.11,3035.93,7433.15,0.00,1560.96,371.66000000000,"190.17",0.00,"2519.94","515.99","","0.00","0.00",703
148,"B0000301054791","2021-08-17",22451455,2,4341.19,1120.47,3587.76,0.00,753.43,179.39000000000,"91.79",0.00,"629.98","490.48","","0.00","0.00",703
149,"B0000301054792","2021-08-17",22451471,2,4219.01,1769.91,3486.79,0.00,732.23,174.34000000000,"89.20",0.00,"1769.91","0.00","","0.00","0.00",703
150,"B0000301054793","2021-08-17",22451501,2,2354.77,294.99,1946.09,0.00,408.68,97.30000000000,"49.79",0.00,"70.00","225.00","","0.00","0.00",703
151,"B0000301054794","2021-08-17",22451595,2,5144.12,1174.47,4251.34,0.00,892.78,212.57000000000,"108.76",0.00,"770.98","403.48","","0.00","0.00",703
152,"B0000301054795","2021-08-17",22452141,2,5177.29,1241.96,4278.75,0.00,898.54,213.94000000000,"109.47",0.00,"590.98","650.97","","0.00","0.00",703
153,"B0000301054796","2021-08-17",22452630,2,5006.18,1279.44,4137.34,0.00,868.84,206.87000000000,"105.85",0.00,"689.97","589.48","","0.00","0.00",703
154,"B0000301054797","2021-08-17",22452761,2,4706.29,812.96,3889.49,0.00,816.79,194.47000000000,"99.51",0.00,"0.00","812.96","","0.00","0.00",703
155,"B0000301054798","2021-08-17",22498079,2,8186.33,1946.43,6765.56,0.00,1420.77,338.28000000000,"173.09",0.00,"939.97","1006.46","","0.00","0.00",703
156,"B0000301054799","2021-08-17",22498257,2,3355.82,614.96,2773.40,0.00,582.41,138.67000000000,"70.95",0.00,"203.98","410.98","","0.00","0.00",703
157,"B0000301054800","2021-08-17",22498982,10,21170.11,5786.82,15833.44,0.00,5336.66,791.67000000000,"447.61",0.00,"3545.88","2240.94","","0.00","2011.64",703
158,"B0000301054801","2021-08-17",22499202,2,8273.20,2461.43,6837.35,0.00,1435.84,341.87000000000,"174.92",0.00,"1754.96","706.47","","0.00","0.00",703
159,"B0000301054802","2021-08-17",22499210,10,55347.78,19630.44,41395.45,0.00,13952.34,2069.77000000000,"1170.23",0.00,"16864.55","2765.90","","0.00","5259.29",703
160,"B0000301054803","2021-08-17",22499300,10,12970.54,3853.44,9700.87,0.00,3269.68,485.04000000000,"274.24",0.00,"3131.96","721.48","","0.00","1232.50",703
161,"B0000301054804","2021-08-17",22502351,2,6669.87,1660.95,5512.29,0.00,1157.58,275.61000000000,"141.02",0.00,"898.97","761.98","","0.00","0.00",703
162,"B0000301054805","2021-08-17",22502475,2,2850.18,309.99,2355.52,0.00,494.66,117.78000000000,"60.26",0.00,"0.00","309.99","","0.00","0.00",703
163,"B0000301054806","2021-08-17",22502670,2,4076.61,1219.47,3369.10,0.00,707.51,168.45000000000,"86.19",0.00,"875.98","343.49","","0.00","0.00",703
164,"B0000301054807","2021-08-17",22503560,2,5268.73,952.46,4354.32,0.00,914.41,217.72000000000,"111.40",0.00,"71.99","880.47","","0.00","0.00",703
165,"B0000301054808","2021-08-17",22503714,2,4458.21,545.99,3684.47,0.00,773.74,184.22000000000,"94.26",0.00,"150.00","395.99","","0.00","0.00",703
166,"B0000301054809","2021-08-17",22505571,2,6233.61,1307.95,5151.74,0.00,1081.87,257.59000000000,"131.80",0.00,"467.98","839.97","","0.00","0.00",703
167,"B0000301054810","2021-08-17",22534830,2,2990.15,352.99,2471.19,0.00,518.95,123.56000000000,"63.22",0.00,"217.99","135.00","","0.00","0.00",703
168,"B0000301054811","2021-08-17",22535179,2,4287.56,1172.97,3543.43,0.00,744.12,177.17000000000,"90.65",0.00,"734.98","437.98","","0.00","0.00",703
169,"B0000301054812","2021-08-17",22535217,2,5833.17,1829.93,4820.80,0.00,1012.37,241.04000000000,"123.33",0.00,"1397.95","431.98","","0.00","0.00",703
170,"B0000301054813","2021-08-17",22535225,10,11755.14,2912.88,8791.85,0.00,2963.29,439.59000000000,"248.54",0.00,"1547.94","1364.95","","0.00","1117.00",703
171,"B0000301054814","2021-08-17",22535250,2,9229.89,2444.92,7628.01,0.00,1601.88,381.40000000000,"195.15",0.00,"1439.95","1004.97","","0.00","0.00",703
172,"B0000301054815","2021-08-17",22535268,2,7341.13,1073.98,6067.05,0.00,1274.08,303.35000000000,"155.22",0.00,"60.00","1013.98","","0.00","0.00",703
173,"B0000301054816","2021-08-17",22567232,2,7481.97,2135.92,6183.45,0.00,1298.52,309.17000000000,"158.19",0.00,"1403.95","731.97","","0.00","0.00",703
174,"B0000301054817","2021-08-17",22568786,2,5466.43,1628.94,4517.71,0.00,948.72,225.89000000000,"115.58",0.00,"1163.96","464.98","","0.00","0.00",703
175,"B0000301054818","2021-08-17",22575057,2,3880.37,1211.42,3206.92,0.00,673.45,160.35000000000,"82.04",0.00,"963.93","247.49","","0.00","0.00",703
176,"B0000301054819","2021-08-17",22575073,2,1743.84,342.99,1441.19,0.00,302.65,72.06000000000,"36.87",0.00,"275.99","67.00","","0.00","0.00",703
177,"B0000301054820","2021-08-17",22575316,2,3979.55,1144.46,3288.88,0.00,690.67,164.44000000000,"84.14",0.00,"776.98","367.48","","0.00","0.00",703
178,"B0000301054821","2021-08-17",22575677,2,3717.98,820.47,3072.71,0.00,645.27,153.64000000000,"78.61",0.00,"302.99","517.48","","0.00","0.00",703
179,"B0000301054822","2021-08-17",22575685,2,3051.41,382.98,2521.83,0.00,529.58,126.09000000000,"64.52",0.00,"141.99","240.99","","0.00","0.00",703
180,"B0000301054823","2021-08-17",22575766,2,4362.14,1079.97,3605.08,0.00,757.07,180.25000000000,"92.23",0.00,"554.98","524.98","","0.00","0.00",703
181,"B0000301054824","2021-08-17",22575790,2,2308.75,459.98,1908.06,0.00,400.69,95.40000000000,"48.81",0.00,"375.99","84.00","","0.00","0.00",703
182,"B0000301054825","2021-08-17",22576053,2,6366.51,1517.95,5261.58,0.00,1104.93,263.08000000000,"134.61",0.00,"710.97","806.98","","0.00","0.00",703
183,"B0000301054826","2021-08-17",22576410,2,3767.03,1462.44,3113.25,0.00,653.78,155.66000000000,"79.65",0.00,"1379.94","82.50","","0.00","0.00",703
184,"B0000301054827","2021-08-17",22577190,2,7109.08,1445.94,5875.27,0.00,1233.81,293.76000000000,"150.31",0.00,"422.98","1022.96","","0.00","0.00",703
185,"B0000301054828","2021-08-17",22577270,2,4707.39,1391.96,3890.41,0.00,816.99,194.52000000000,"99.53",0.00,"1103.97","287.98","","0.00","0.00",703
186,"B0000301054829","2021-08-17",22582428,2,8618.46,1843.43,7122.69,0.00,1495.77,356.13000000000,"182.22",0.00,"587.97","1255.46","","0.00","0.00",703
187,"B0000301054830","2021-08-17",22624708,2,4399.95,1232.97,3636.32,0.00,763.63,181.82000000000,"93.03",0.00,"803.98","428.99","","0.00","0.00",703
188,"B0000301054831","2021-08-17",22624910,2,3932.57,1270.46,3250.06,0.00,682.51,162.50000000000,"83.15",0.00,"1073.97","196.49","","0.00","0.00",703
189,"B0000301054832","2021-08-17",22625615,2,4630.83,1526.97,3827.13,0.00,803.70,191.36000000000,"97.91",0.00,"1235.98","290.99","","0.00","0.00",703
190,"B0000301054833","2021-08-17",22626255,2,4365.18,896.97,3607.59,0.00,757.59,180.38000000000,"92.29",0.00,"404.98","491.98","","0.00","0.00",703
191,"B0000301054834","2021-08-17",22627294,2,5710.60,1409.96,4719.51,0.00,991.10,235.98000000000,"120.74",0.00,"719.98","689.98","","0.00","0.00",703
192,"B0000301054835","2021-08-17",22628169,2,4691.08,887.97,3876.93,0.00,814.15,193.85000000000,"99.18",0.00,"131.99","755.98","","0.00","0.00",703
193,"B0000301054836","2021-08-17",22631712,2,4866.74,1265.94,4022.10,0.00,844.64,201.10000000000,"102.90",0.00,"722.96","542.98","","0.00","0.00",703
194,"B0000301054837","2021-08-17",22631763,2,3882.95,1058.95,3209.05,0.00,673.90,160.45000000000,"82.10",0.00,"659.97","398.98","","0.00","0.00",703
195,"B0000301054838","2021-08-17",22634690,2,3454.98,507.98,2855.35,0.00,599.62,142.77000000000,"73.05",0.00,"271.99","235.99","","0.00","0.00",703
196,"B0000301054839","2021-08-17",22634754,2,7600.47,2319.91,6281.38,0.00,1319.09,314.07000000000,"160.70",0.00,"1911.93","407.99","","0.00","0.00",703
197,"B0000301054840","2021-08-17",22671161,2,6852.16,2192.41,5662.95,0.00,1189.22,283.15000000000,"144.88",0.00,"1682.43","509.98","","0.00","0.00",703
198,"B0000301054841","2021-08-17",22677526,2,3704.75,1333.46,3061.77,0.00,642.97,153.09000000000,"78.33",0.00,"1178.96","154.49","","0.00","0.00",703
199,"B0000301054842","2021-08-17",22677615,2,3488.70,1094.96,2883.22,0.00,605.48,144.16000000000,"73.76",0.00,"836.97","257.99","","0.00","0.00",703
200,"B0000301054843","2021-08-17",22677666,2,1674.34,230.99,1383.76,0.00,290.59,69.19000000000,"35.40",0.00,"87.99","142.99","","0.00","0.00",703
201,"B0000301054844","2021-08-17",22677674,2,8229.81,1523.95,6801.50,0.00,1428.31,340.07000000000,"174.01",0.00,"173.99","1349.96","","0.00","0.00",703
202,"B0000301054845","2021-08-17",22677771,2,4729.94,859.98,3909.04,0.00,820.90,195.45000000000,"100.01",0.00,"621.98","238.00","","0.00","0.00",703
203,"B0000301054846","2021-08-17",22677780,2,4658.45,1099.98,3849.96,0.00,808.49,192.50000000000,"98.50",0.00,"1067.98","32.00","","0.00","0.00",703
204,"B0000301054847","2021-08-17",22677879,2,4320.77,1150.46,3570.89,0.00,749.89,178.54000000000,"91.36",0.00,"746.98","403.49","","0.00","0.00",703
205,"B0000301054848","2021-08-17",22677950,2,3651.62,895.47,3017.87,0.00,633.75,150.89000000000,"77.21",0.00,"449.99","445.48","","0.00","0.00",703
206,"B0000301054849","2021-08-17",22677968,2,2665.28,430.99,2202.71,0.00,462.57,110.14000000000,"56.35",0.00,"373.99","57.00","","0.00","0.00",703
207,"B0000301054850","2021-08-17",22677984,2,9835.21,1732.45,8128.27,0.00,1706.94,406.41000000000,"207.95",0.00,"57.00","1675.45","","0.00","0.00",703
208,"B0000301054851","2021-08-17",22678000,2,3817.65,642.98,3155.08,0.00,662.57,157.75000000000,"80.72",0.00,"409.99","232.99","","0.00","0.00",703
209,"B0000301054852","2021-08-17",22678018,2,7193.39,1618.45,5944.95,0.00,1248.44,297.25000000000,"152.09",0.00,"638.98","979.47","","0.00","0.00",703
210,"B0000301054853","2021-08-17",22678034,10,10017.99,1783.44,7492.60,0.00,2525.38,374.63000000000,"211.81",0.00,"90.00","1693.44","","0.00","951.94",703
211,"B0000301054854","2021-08-17",22678980,2,5069.10,557.98,4189.34,0.00,879.76,209.47000000000,"107.18",0.00,"291.99","265.99","","0.00","0.00",703
212,"B0000301054855","2021-08-17",22679480,10,35944.06,8174.76,26883.11,0.00,9060.95,1344.16000000000,"759.98",0.00,"3341.89","4832.87","","0.00","3415.50",703
213,"B0000301054856","2021-08-17",22679537,10,118019.41,38392.58,88268.51,0.00,29750.90,4413.43000000000,"2495.32",0.00,"31830.24","6562.34","","0.00","11214.51",703
214,"B0000301054857","2021-08-17",22682015,2,2822.06,562.47,2332.28,0.00,489.78,116.61000000000,"59.67",0.00,"161.99","400.48","","0.00","0.00",703
215,"B0000301054858","2021-08-17",22682031,2,3837.98,662.97,3171.88,0.00,666.10,158.59000000000,"81.15",0.00,"0.00","662.97","","0.00","0.00",703
216,"B0000301054859","2021-08-17",22684778,2,3796.60,1333.43,3137.69,0.00,658.91,156.88000000000,"80.27",0.00,"1151.94","181.49","","0.00","0.00",703
217,"B0000301054860","2021-08-17",22684824,2,3693.02,774.98,3052.08,0.00,640.94,152.60000000000,"78.08",0.00,"671.99","103.00","","0.00","0.00",703
218,"B0000301054861","2021-08-17",22684948,2,2579.47,494.98,2131.80,0.00,447.68,106.59000000000,"54.54",0.00,"385.99","109.00","","0.00","0.00",703
219,"B0000301054862","2021-08-17",22699848,2,4655.33,1352.96,3847.38,0.00,807.95,192.37000000000,"98.43",0.00,"932.97","419.99","","0.00","0.00",703
220,"B0000301054863","2021-08-17",22699864,2,2779.66,758.96,2297.24,0.00,482.42,114.86000000000,"58.77",0.00,"473.98","284.98","","0.00","0.00",703
221,"B0000301054864","2021-08-17",22704469,10,10280.57,2856.42,7688.99,0.00,2591.57,384.45000000000,"217.37",0.00,"1888.96","967.46","","0.00","976.89",703
222,"B0000301054865","2021-08-17",22709533,2,6394.56,1900.44,5284.76,0.00,1109.80,264.24000000000,"135.20",0.00,"1352.96","547.48","","0.00","0.00",703
223,"B0000301054866","2021-08-17",22709568,2,6711.76,2169.93,5546.91,0.00,1164.85,277.35000000000,"141.91",0.00,"1692.95","476.98","","0.00","0.00",703
224,"B0000301054867","2021-08-17",22709576,2,2332.24,316.99,1927.47,0.00,404.77,96.37000000000,"49.31",0.00,"113.99","202.99","","0.00","0.00",703
225,"B0000301054868","2021-08-17",22709584,2,8000.43,2278.42,6611.93,0.00,1388.51,330.60000000000,"169.16",0.00,"1523.94","754.48","","0.00","0.00",703
226,"B0000301054869","2021-08-17",22709592,2,5689.63,1150.46,4702.17,0.00,987.46,235.11000000000,"120.30",0.00,"284.99","865.47","","0.00","0.00",703
227,"B0000301054870","2021-08-17",22709606,2,4111.87,724.98,3398.24,0.00,713.63,169.91000000000,"86.94",0.00,"499.99","225.00","","0.00","0.00",703
228,"B0000301054871","2021-08-17",22715851,2,3492.26,931.46,2886.16,0.00,606.09,144.31000000000,"73.84",0.00,"557.97","373.49","","0.00","0.00",703
229,"B0000301054872","2021-08-17",22717935,2,4076.01,1289.94,3368.60,0.00,707.41,168.43000000000,"86.18",0.00,"950.96","338.98","","0.00","0.00",703
230,"B0000301054873","2021-08-17",22717943,2,6982.95,1984.44,5771.03,0.00,1211.92,288.55000000000,"147.64",0.00,"1322.97","661.47","","0.00","0.00",703
231,"B0000301054874","2021-08-17",22718052,2,5420.39,1583.92,4479.66,0.00,940.73,223.98000000000,"114.60",0.00,"1100.94","482.98","","0.00","0.00",703
232,"B0000301054875","2021-08-17",22718249,2,6288.82,2363.94,5197.37,0.00,1091.45,259.87000000000,"132.97",0.00,"2171.95","191.99","","0.00","0.00",703
233,"B0000301054876","2021-08-17",22718346,2,1941.99,298.99,1604.95,0.00,337.04,80.25000000000,"41.06",0.00,"157.99","140.99","","0.00","0.00",703
234,"B0000301054877","2021-08-17",22718818,2,2388.92,841.46,1974.31,0.00,414.61,98.72000000000,"50.51",0.00,"728.96","112.50","","0.00","0.00",703
235,"B0000301054878","2021-08-17",22718842,2,3137.25,473.98,2592.77,0.00,544.48,129.64000000000,"66.33",0.00,"261.98","212.00","","0.00","0.00",703
236,"B0000301054879","2021-08-17",22718958,2,5055.21,1141.45,4177.86,0.00,877.35,208.89000000000,"106.88",0.00,"455.98","685.47","","0.00","0.00",703
237,"B0000301054880","2021-08-17",22718982,2,4526.07,829.47,3740.55,0.00,785.52,187.03000000000,"95.70",0.00,"81.00","748.47","","0.00","0.00",703
238,"B0000301054881","2021-08-17",22719164,10,12547.02,3287.91,9384.11,0.00,3162.91,469.21000000000,"265.29",0.00,"2042.93","1244.97","","0.00","1192.25",703
239,"B0000301054882","2021-08-17",22719199,2,3634.78,1031.97,3003.95,0.00,630.83,150.20000000000,"76.85",0.00,"686.98","344.99","","0.00","0.00",703
240,"B0000301054883","2021-08-17",22719300,2,2830.81,998.96,2339.51,0.00,491.30,116.98000000000,"59.85",0.00,"941.96","57.00","","0.00","0.00",703
241,"B0000301054884","2021-08-17",22719318,2,5162.48,1526.44,4266.51,0.00,895.97,213.33000000000,"109.15",0.00,"1061.46","464.98","","0.00","0.00",703
242,"B0000301054885","2021-08-17",22719334,2,5846.49,1616.96,4831.81,0.00,1014.68,241.59000000000,"123.61",0.00,"1031.98","584.98","","0.00","0.00",703
243,"B0000301054886","2021-08-17",22719776,2,4122.55,1024.46,3407.07,0.00,715.48,170.35000000000,"87.16",0.00,"596.98","427.48","","0.00","0.00",703
244,"B0000301054887","2021-08-17",22721185,2,2895.63,625.47,2393.08,0.00,502.55,119.65000000000,"61.22",0.00,"212.99","412.48","","0.00","0.00",703
245,"B0000301054888","2021-08-17",22721274,2,6866.07,2528.94,5674.44,0.00,1191.63,283.72000000000,"145.17",0.00,"2429.95","99.00","","0.00","0.00",703
246,"B0000301054889","2021-08-17",22723668,2,8529.62,2710.42,7049.27,0.00,1480.35,352.46000000000,"180.34",0.00,"2162.94","547.48","","0.00","0.00",703
247,"B0000301054890","2021-08-17",22754890,2,6456.88,1579.46,5336.27,0.00,1120.62,266.81000000000,"136.52",0.00,"848.98","730.48","","0.00","0.00",703
248,"B0000301054891","2021-08-17",22754911,10,10799.67,2668.43,8077.24,0.00,2722.43,403.86000000000,"228.34",0.00,"1364.95","1303.48","","0.00","1026.21",703
249,"B0000301054892","2021-08-17",22754938,2,3651.11,1190.96,3017.45,0.00,633.66,150.87000000000,"77.20",0.00,"986.97","203.99","","0.00","0.00",703
250,"B0000301054893","2021-08-17",22760946,2,3785.94,923.97,3128.88,0.00,657.06,156.44000000000,"80.05",0.00,"458.98","464.98","","0.00","0.00",703
251,"B0000301054894","2021-08-17",22760997,2,5477.16,1423.45,4526.58,0.00,950.58,226.33000000000,"115.81",0.00,"914.97","508.48","","0.00","0.00",703
252,"B0000301054895","2021-08-17",22761080,2,4056.15,859.47,3352.19,0.00,703.96,167.61000000000,"85.76",0.00,"299.99","559.48","","0.00","0.00",703
253,"B0000301054896","2021-08-17",22761217,2,9235.11,2364.94,7632.32,0.00,1602.79,381.62000000000,"195.26",0.00,"1412.46","952.48","","0.00","0.00",703
254,"B0000301054897","2021-08-17",22763325,2,6401.20,1463.95,5290.25,0.00,1110.95,264.51000000000,"135.34",0.00,"608.98","854.97","","0.00","0.00",703
255,"B0000301054898","2021-08-17",22764216,2,4181.30,1226.96,3455.62,0.00,725.68,172.78000000000,"88.41",0.00,"857.98","368.99","","0.00","0.00",703
256,"B0000301054899","2021-08-17",22764984,2,5336.68,965.95,4410.48,0.00,926.20,220.52000000000,"112.84",0.00,"734.96","230.99","","0.00","0.00",703
257,"B0000301054900","2021-08-17",22788115,2,8012.23,2426.93,6621.68,0.00,1390.55,331.08000000000,"169.41",0.00,"1766.95","659.98","","0.00","0.00",703
258,"B0000301054901","2021-08-17",22788123,2,3008.12,475.49,2486.05,0.00,522.07,124.30000000000,"63.60",0.00,"0.00","475.49","","0.00","0.00",703
259,"B0000301054902","2021-08-17",22788131,2,5695.26,1214.96,4706.83,0.00,988.43,235.34000000000,"120.42",0.00,"392.98","821.97","","0.00","0.00",703
260,"B0000301054903","2021-08-17",22788204,2,3481.55,751.98,2877.31,0.00,604.24,143.87000000000,"73.61",0.00,"671.98","80.00","","0.00","0.00",703
261,"B0000301054904","2021-08-17",22794298,2,4051.55,1283.96,3348.39,0.00,703.16,167.42000000000,"85.66",0.00,"992.97","290.99","","0.00","0.00",703
262,"B0000301054905","2021-08-17",22794344,2,6188.73,1181.97,5114.66,0.00,1074.08,255.73000000000,"130.85",0.00,"191.99","989.97","","0.00","0.00",703
263,"B0000301054906","2021-08-17",22794409,2,5252.41,1318.45,4340.84,0.00,911.58,217.04000000000,"111.05",0.00,"698.97","619.48","","0.00","0.00",703
264,"B0000301054907","2021-08-17",22794468,2,5986.50,2189.94,4947.52,0.00,1038.98,247.38000000000,"126.57",0.00,"1964.95","224.99","","0.00","0.00",703
265,"B0000301054908","2021-08-17",22794565,2,2728.63,488.98,2255.06,0.00,473.56,112.75000000000,"57.69",0.00,"345.99","143.00","","0.00","0.00",703
266,"B0000301054909","2021-08-17",22827013,2,4926.04,977.96,4071.11,0.00,854.93,203.56000000000,"104.15",0.00,"215.99","761.97","","0.00","0.00",703
267,"B0000301054910","2021-08-17",22827145,10,11596.85,2527.92,8673.46,0.00,2923.39,433.67000000000,"245.20",0.00,"925.98","1601.95","","0.00","1101.96",703
268,"B0000301054911","2021-08-17",22827250,2,4140.42,1061.95,3421.83,0.00,718.59,171.09000000000,"87.54",0.00,"641.97","419.98","","0.00","0.00",703
269,"B0000301054912","2021-08-17",22827315,2,2875.74,534.98,2376.64,0.00,499.09,118.83000000000,"60.80",0.00,"399.99","134.99","","0.00","0.00",703
270,"B0000301054913","2021-08-17",22827404,10,12433.06,2729.42,9298.88,0.00,3134.19,464.94000000000,"262.88",0.00,"1296.95","1432.47","","0.00","1181.42",703
271,"B0000301054914","2021-08-17",22827528,10,15688.30,3662.89,11733.52,0.00,3954.78,586.68000000000,"331.70",0.00,"1589.95","2072.94","","0.00","1490.74",703
272,"B0000301054915","2021-08-17",22829334,2,5748.41,2132.93,4750.75,0.00,997.66,237.54000000000,"121.54",0.00,"1937.93","195.00","","0.00","0.00",703
273,"B0000301054916","2021-08-17",22829385,10,10514.59,3127.41,7864.02,0.00,2650.57,393.20000000000,"222.31",0.00,"2228.94","898.47","","0.00","999.12",703
274,"B0000301054917","2021-08-17",22829407,10,10506.37,2275.43,7857.87,0.00,2648.50,392.89000000000,"222.14",0.00,"782.97","1492.46","","0.00","998.34",703
275,"B0000301054918","2021-08-17",22829466,2,3343.64,646.98,2763.34,0.00,580.30,138.17000000000,"70.70",0.00,"509.99","137.00","","0.00","0.00",703
276,"B0000301054919","2021-08-17",22829601,2,5988.01,2338.44,4948.77,0.00,1039.24,247.44000000000,"126.61",0.00,"2216.95","121.50","","0.00","0.00",703
277,"B0000301054920","2021-08-17",22829628,2,9327.97,2558.91,7709.06,0.00,1618.90,385.45000000000,"197.22",0.00,"1610.93","947.97","","0.00","0.00",703
278,"B0000301054921","2021-08-17",22829830,10,11431.33,3539.87,8549.66,0.00,2881.66,427.48000000000,"241.70",0.00,"2630.90","908.96","","0.00","1086.23",703
279,"B0000301054922","2021-08-17",22829946,10,15582.14,3461.91,11654.12,0.00,3928.02,582.71000000000,"329.46",0.00,"1466.97","1994.94","","0.00","1480.66",703
280,"B0000301054923","2021-08-17",22830022,2,6196.90,1943.96,5121.40,0.00,1075.49,256.07000000000,"131.02",0.00,"1484.97","458.98","","0.00","0.00",703
281,"B0000301054924","2021-08-17",22830065,2,6004.28,1632.44,4962.21,0.00,1042.06,248.11000000000,"126.95",0.00,"954.47","677.97","","0.00","0.00",703
282,"B0000301054925","2021-08-17",22862595,2,8861.17,2345.93,7323.28,0.00,1537.89,366.16000000000,"187.35",0.00,"1385.95","959.97","","0.00","0.00",703
283,"B0000301054926","2021-08-17",22863346,2,6371.01,1363.44,5265.30,0.00,1105.71,263.26000000000,"134.70",0.00,"446.98","916.47","","0.00","0.00",703
284,"B0000301054927","2021-08-17",22863397,2,2845.11,354.99,2351.33,0.00,493.78,117.57000000000,"60.15",0.00,"82.00","272.99","","0.00","0.00",703
285,"B0000301054928","2021-08-17",22871357,2,3468.76,754.47,2866.74,0.00,602.02,143.34000000000,"73.34",0.00,"263.98","490.48","","0.00","0.00",703
286,"B0000301054929","2021-08-17",22872876,2,6878.74,1786.43,5684.91,0.00,1193.83,284.25000000000,"145.44",0.00,"1016.96","769.47","","0.00","0.00",703
287,"B0000301054930","2021-08-17",22903160,2,2023.73,368.98,1672.50,0.00,351.23,83.63000000000,"42.79",0.00,"267.99","101.00","","0.00","0.00",703
288,"B0000301054931","2021-08-17",22903178,2,8467.86,2180.93,6998.23,0.00,1469.63,349.91000000000,"179.04",0.00,"1220.96","959.97","","0.00","0.00",703
289,"B0000301054932","2021-08-17",22903194,2,3011.61,481.98,2488.94,0.00,522.68,124.45000000000,"63.68",0.00,"277.99","204.00","","0.00","0.00",703
290,"B0000301054933","2021-08-17",22903682,2,7376.81,2108.93,6096.54,0.00,1280.27,304.83000000000,"155.97",0.00,"1418.96","689.98","","0.00","0.00",703
291,"B0000301054934","2021-08-17",22903690,2,4980.31,575.00,4115.95,0.00,864.35,205.80000000000,"105.30",0.00,"60.00","515.00","","0.00","0.00",703
292,"B0000301054935","2021-08-17",22903755,2,2761.27,356.98,2282.04,0.00,479.23,114.10000000000,"58.38",0.00,"48.00","308.99","","0.00","0.00",703
293,"B0000301054936","2021-08-17",22903860,2,4470.91,1213.46,3694.97,0.00,775.94,184.75000000000,"94.53",0.00,"749.98","463.48","","0.00","0.00",703
294,"B0000301054937","2021-08-17",22905260,2,4232.89,1276.45,3498.26,0.00,734.63,174.91000000000,"89.50",0.00,"926.96","349.49","","0.00","0.00",703
295,"B0000301054938","2021-08-17",22905316,2,3249.66,538.99,2685.67,0.00,563.99,134.28000000000,"68.71",0.00,"333.99","205.00","","0.00","0.00",703
296,"B0000301054939","2021-08-17",22905332,2,3947.90,1315.46,3262.73,0.00,685.17,163.14000000000,"83.47",0.00,"1196.96","118.50","","0.00","0.00",703
297,"B0000301054940","2021-08-17",22905510,2,3995.32,1238.93,3301.92,0.00,693.40,165.10000000000,"84.47",0.00,"1115.94","122.99","","0.00","0.00",703
298,"B0000301054941","2021-08-17",22908242,10,26803.56,6292.32,20046.79,0.00,6756.77,1002.34000000000,"566.72",0.00,"2825.92","3466.40","","0.00","2546.94",703
299,"B0000301054942","2021-08-17",22908471,2,2840.99,998.96,2347.93,0.00,493.06,117.40000000000,"60.07",0.00,"863.96","135.00","","0.00","0.00",703
300,"B0000301054943","2021-08-17",22908560,10,10766.55,2000.97,8052.47,0.00,2714.08,402.62000000000,"227.64",0.00,"239.99","1760.98","","0.00","1023.07",703
301,"B0000301054944","2021-08-17",22910727,2,5648.32,1310.96,4668.04,0.00,980.29,233.40000000000,"119.42",0.00,"569.98","740.98","","0.00","0.00",703
302,"B0000301054945","2021-08-17",22911979,10,11669.00,3247.41,8727.42,0.00,2941.58,436.37000000000,"246.72",0.00,"2168.94","1078.47","","0.00","1108.82",703
303,"B0000301054946","2021-08-17",22941398,2,4092.46,863.98,3382.20,0.00,710.26,169.11000000000,"86.53",0.00,"803.98","60.00","","0.00","0.00",703
304,"B0000301054947","2021-08-17",22941479,2,2308.77,429.99,1908.07,0.00,400.69,95.40000000000,"48.81",0.00,"371.99","58.00","","0.00","0.00",703
305,"B0000301054948","2021-08-17",22941517,10,16040.33,3948.40,11996.80,0.00,4043.52,599.84000000000,"339.15",0.00,"2041.94","1906.45","","0.00","1524.19",703
306,"B0000301054949","2021-08-17",22941630,2,8851.91,2374.91,7315.63,0.00,1536.28,365.78000000000,"187.16",0.00,"1464.44","910.47","","0.00","0.00",703
307,"B0000301054950","2021-08-17",22941754,2,9799.04,2417.94,8098.38,0.00,1700.66,404.92000000000,"207.18",0.00,"1307.96","1109.98","","0.00","0.00",703
308,"B0000301054951","2021-08-17",22942513,2,3261.87,866.97,2695.76,0.00,566.11,134.79000000000,"68.97",0.00,"590.98","275.99","","0.00","0.00",703
309,"B0000301054952","2021-08-17",22943609,2,5169.67,1429.44,4272.46,0.00,897.22,213.62000000000,"109.30",0.00,"986.96","442.48","","0.00","0.00",703
310,"B0000301054953","2021-08-17",22943617,2,2501.82,470.98,2067.62,0.00,434.20,103.38000000000,"52.90",0.00,"407.99","63.00","","0.00","0.00",703
311,"B0000301054954","2021-08-17",22947205,2,4835.09,956.96,3995.94,0.00,839.15,199.80000000000,"102.23",0.00,"281.98","674.98","","0.00","0.00",703
312,"B0000301054955","2021-08-17",22947213,2,4052.59,837.97,3349.25,0.00,703.34,167.46000000000,"85.69",0.00,"787.98","50.00","","0.00","0.00",703
313,"B0000301054956","2021-08-17",22947698,2,6654.59,2375.92,5499.66,0.00,1154.93,274.98000000000,"140.70",0.00,"2159.93","215.99","","0.00","0.00",703
314,"B0000301054957","2021-08-17",22951350,2,4856.55,1235.95,4013.68,0.00,842.87,200.68000000000,"102.68",0.00,"749.97","485.98","","0.00","0.00",703
315,"B0000301054958","2021-08-17",22951385,2,3207.75,659.98,2651.03,0.00,556.72,132.55000000000,"67.82",0.00,"609.98","50.00","","0.00","0.00",703
316,"B0000301054959","2021-08-17",22952306,10,17688.00,5325.35,13229.12,0.00,4458.88,661.46000000000,"373.98",0.00,"3898.91","1426.44","","0.00","1680.76",703
317,"B0000301054960","2021-08-17",22952314,2,5033.83,1672.45,4160.19,0.00,873.64,208.01000000000,"106.43",0.00,"1439.96","232.49","","0.00","0.00",703
318,"B0000301054961","2021-08-17",22953604,2,5020.04,1415.95,4148.79,0.00,871.25,207.44000000000,"106.14",0.00,"1007.96","407.99","","0.00","0.00",703
319,"B0000301054962","2021-08-17",22953655,2,9690.26,3364.43,8008.48,0.00,1681.78,400.42000000000,"204.88",0.00,"2948.94","415.49","","0.00","0.00",703
320,"B0000301054963","2021-08-17",22954490,2,2769.51,488.98,2288.85,0.00,480.66,114.44000000000,"58.56",0.00,"387.98","101.00","","0.00","0.00",703
321,"B0000301054964","2021-08-17",22955704,2,4307.99,682.98,3560.32,0.00,747.67,178.02000000000,"91.09",0.00,"435.98","247.00","","0.00","0.00",703
322,"B0000301054965","2021-08-17",22955828,2,2748.50,769.46,2271.49,0.00,477.01,113.57000000000,"58.11",0.00,"575.96","193.49","","0.00","0.00",703
323,"B0000301054966","2021-08-17",22955836,2,3518.34,465.99,2907.72,0.00,610.62,145.39000000000,"74.39",0.00,"200.00","265.99","","0.00","0.00",703
324,"B0000301054967","2021-08-17",22955844,2,2949.35,293.00,2437.48,0.00,511.87,121.87000000000,"62.36",0.00,"0.00","293.00","","0.00","0.00",703
325,"B0000301054968","2021-08-17",22955909,2,7471.84,2645.92,6175.07,0.00,1296.77,308.75000000000,"157.98",0.00,"2378.93","266.99","","0.00","0.00",703
326,"B0000301054969","2021-08-17",22979832,2,6921.72,1714.44,5720.43,0.00,1201.29,286.02000000000,"146.35",0.00,"956.97","757.47","","0.00","0.00",703
327,"B0000301054970","2021-08-17",22979921,2,5335.73,1646.94,4409.69,0.00,926.04,220.48000000000,"112.81",0.00,"1307.95","338.99","","0.00","0.00",703
328,"B0000301054971","2021-08-17",22980210,2,3890.21,1421.96,3215.05,0.00,675.16,160.75000000000,"82.25",0.00,"1349.96","72.00","","0.00","0.00",703
329,"B0000301054972","2021-08-17",22980229,2,5202.96,1826.96,4299.97,0.00,902.99,215.00000000000,"110.01",0.00,"1652.96","173.99","","0.00","0.00",703
330,"B0000301054973","2021-08-17",22980407,2,6020.22,1406.96,4975.39,0.00,1044.83,248.77000000000,"127.29",0.00,"698.97","707.98","","0.00","0.00",703
331,"B0000301054974","2021-08-17",22980415,2,4549.65,1246.46,3760.04,0.00,789.61,188.00000000000,"96.19",0.00,"857.97","388.49","","0.00","0.00",703
332,"B0000301054975","2021-08-17",22980431,2,5219.81,1450.47,4313.89,0.00,905.92,215.69000000000,"110.36",0.00,"1007.98","442.48","","0.00","0.00",703
333,"B0000301054976","2021-08-17",22980504,2,2310.35,718.47,1909.38,0.00,400.97,95.47000000000,"48.85",0.00,"617.98","100.50","","0.00","0.00",703
334,"B0000301054977","2021-08-17",22980512,2,5206.01,1253.96,4302.49,0.00,903.52,215.12000000000,"110.07",0.00,"677.98","575.98","","0.00","0.00",703
335,"B0000301054978","2021-08-17",22980520,2,5214.71,1225.46,4309.67,0.00,905.03,215.48000000000,"110.26",0.00,"626.98","598.48","","0.00","0.00",703
336,"B0000301054979","2021-08-17",22980539,2,2604.07,830.97,2152.12,0.00,451.95,107.61000000000,"55.06",0.00,"722.98","108.00","","0.00","0.00",703
337,"B0000301054980","2021-08-17",22985425,2,3447.33,685.47,2849.04,0.00,598.30,142.45000000000,"72.89",0.00,"227.99","457.48","","0.00","0.00",703
338,"B0000301054981","2021-08-17",22985476,10,15829.23,3584.87,11838.92,0.00,3990.31,591.95000000000,"334.68",0.00,"1520.96","2063.91","","0.00","1504.13",703
339,"B0000301054982","2021-08-17",22985557,2,3570.50,1304.98,2950.82,0.00,619.67,147.54000000000,"75.49",0.00,"1244.98","60.00","","0.00","0.00",703
340,"B0000301054983","2021-08-17",22985573,2,3025.95,1097.96,2500.78,0.00,525.16,125.04000000000,"63.98",0.00,"1052.96","45.00","","0.00","0.00",703
341,"B0000301054984","2021-08-17",22985581,2,9919.52,2609.91,8197.95,0.00,1721.57,409.90000000000,"209.73",0.00,"1598.96","1010.96","","0.00","0.00",703
342,"B0000301054985","2021-08-17",22985654,2,2287.87,490.48,1890.80,0.00,397.07,94.54000000000,"48.37",0.00,"236.99","253.49","","0.00","0.00",703
343,"B0000301054986","2021-08-17",22985670,2,3515.76,1138.43,2905.59,0.00,610.17,145.28000000000,"74.33",0.00,"977.94","160.49","","0.00","0.00",703
