"orden","n_comp","fecha_emision","cod_cliente","figura","importe","bonif_sin_imp","imp_gravado","imp_exento","imp_iva","montib","gastadmi","boniflibro","bonifcosme","bonifpract","porclider","boniflider","bonifivadic","zona"
1,"B0000301054644","2021-08-17",506640,2,8330.37,2455.42,6884.6,0.0,1445.77,344.23,"176.13",0.0,"1727.95","727.47","","0.00",0.0,703
2,"B0000301054645","2021-08-17",572465,2,4940.38,733.98,4082.96,0.0,857.42,204.15,"104.46",0.0,"353.99","379.99","","0.00",0.0,703
3,"B0000301054646","2021-08-17",576090,10,11601.37,3403.36,8676.84,0.0,2924.53,433.84,"245.29",0.0,"2378.91","1024.45","","0.00",1102.39,703
4,"B0000301054647","2021-08-17",805537,10,10128.86,3644.86,7575.52,0.0,2553.33,378.78,"214.16",0.0,"3221.87","422.99","","0.00",962.47,703
5,"B0000301054648","2021-08-17",1040320,2,4472.46,851.97,3696.25,0.0,776.21,0.0,"94.56",0.0,"134.99","716.98","","0.00",0.0,703
6,"B0000301054649","2021-08-17",1094830,10,19438.66,5061.88,14538.47,0.0,4900.19,726.92,"411.00",0.0,"2922.91","2138.97","","0.00",1847.11,703
7,"B0000301054650","2021-08-17",1094839,2,3491.69,1001.95,2885.7,0.0,606.0,144.28,"73.83",0.0,"728.96","272.99","","0.00",0.0,703
8,"B0000301054651","2021-08-17",1094854,2,4183.87,934.47,3457.75,0.0,726.13,172.89,"88.46",0.0,"359.98","574.48","","0.00",0.0,703
9,"B0000301054652","2021-08-17",1105411,2,5673.85,1445.96,4689.13,0.0,984.72,234.46,"119.96",0.0,"857.98","587.98","","0.00",0.0,703
10,"B0000301054653","2021-08-17",1127307,10,12867.72,3473.88,9623.97,0.0,3243.76,481.2,"272.07",0.0,"2126.92","1346.96","","0.00",1222.72,703
11,"B0000301054654","2021-08-17",1136228,2,8761.99,2482.91,7241.32,0.0,1520.68,362.07,"185.26",0.0,"1723.93","758.97","","0.00",0.0,703
12,"B0000301054655","2021-08-17",1156997,2,3246.53,911.96,2683.08,0.0,563.45,134.15,"68.64",0.0,"647.96","263.99","","0.00",0.0,703
13,"B0000301054656","2021-08-17",1196933,10,15252.58,3549.39,11407.64,0.0,3844.94,684.46,"322.49",0.0,"1519.95","2029.44","","0.00",1449.34,703
14,"B0000301054657","2021-08-17",1211946,2,9703.87,3100.89,8019.73,0.0,1684.14,400.99,"205.17",0.0,"2403.42","697.47","","0.00",0.0,703
15,"B0000301054658","2021-08-17",1235829,10,10664.69,2500.4,7976.29,0.0,2688.41,398.81,"225.49",0.0,"1118.95","1381.45","","0.00",1013.39,703
16,"B0000301054659","2021-08-17",1248537,2,5078.27,1268.97,4196.92,0.0,881.35,209.85,"107.37",0.0,"776.98","491.99","","0.00",0.0,703
17,"B0000301054660","2021-08-17",1250074,2,8707.37,2066.43,7196.17,0.0,1511.2,359.81,"184.10",0.0,"930.97","1135.47","","0.00",0.0,703
18,"B0000301054661","2021-08-17",1274420,2,4634.36,1063.46,3830.05,0.0,804.31,191.5,"97.99",0.0,"446.98","616.48","","0.00",0.0,703
19,"B0000301054662","2021-08-17",1283694,2,8995.45,2704.41,7434.26,0.0,1561.19,371.71,"190.19",0.0,"1982.93","721.48","","0.00",0.0,703
20,"B0000301054663","2021-08-17",1289250,2,3964.76,498.99,3276.66,0.0,688.1,163.83,"83.83",0.0,"155.99","342.99","","0.00",0.0,703
21,"B0000301054664","2021-08-17",1301344,2,4862.21,1030.47,4018.36,0.0,843.86,200.92,"102.80",0.0,"578.98","451.48","","0.00",0.0,703
22,"B0000301054665","2021-08-17",1337374,2,5495.13,630.99,4541.43,0.0,953.7,227.07,"116.19",0.0,"60.00","570.99","","0.00",0.0,703
23,"B0000301054666","2021-08-17",1349383,2,3726.7,511.98,3079.92,0.0,646.78,154.0,"78.79",0.0,"235.99","275.99","","0.00",0.0,703
24,"B0000301054667","2021-08-17",1359753,2,9890.36,3598.39,8173.85,0.0,1716.51,408.69,"209.11",0.0,"3197.91","400.48","","0.00",0.0,703
25,"B0000301054668","2021-08-17",1366752,2,4664.52,1193.97,3854.98,0.0,809.55,192.75,"98.62",0.0,"659.99","533.98","","0.00",0.0,703
26,"B0000301054669","2021-08-17",1366877,2,2278.09,219.99,1882.72,0.0,395.37,94.14,"48.17",0.0,"0.00","219.99","","0.00",0.0,703
27,"B0000301054670","2021-08-17",1372105,2,9372.89,2154.92,7746.19,0.0,1626.7,387.31,"198.17",0.0,"870.97","1283.96","","0.00",0.0,703
28,"B0000301054671","2021-08-17",1376376,2,2851.24,548.99,2356.39,0.0,494.84,117.82,"60.28",0.0,"429.99","119.00","","0.00",0.0,703
29,"B0000301054672","2021-08-17",1380911,2,4828.42,1713.43,3990.43,0.0,837.99,199.52,"102.09",0.0,"1476.44","236.99","","0.00",0.0,703
30,"B0000301054673","2021-08-17",1380923,10,17430.99,4976.83,13036.9,0.0,4394.09,651.85,"368.55",0.0,"3341.88","1634.94","","0.00",1656.34,703
31,"B0000301054674","2021-08-17",1388013,2,3130.07,815.96,2586.84,0.0,543.24,129.34,"66.18",0.0,"467.97","347.99","","0.00",0.0,703
32,"B0000301054675","2021-08-17",1399019,2,2298.52,279.99,1899.6,0.0,398.92,94.98,"48.60",0.0,"54.00","225.99","","0.00",0.0,703
33,"B0000301054676","2021-08-17",1401161,2,3486.63,1016.95,2881.51,0.0,605.12,144.08,"73.72",0.0,"704.96","311.98","","0.00",0.0,703
34,"B0000301054677","2021-08-17",1403965,2,6919.23,1126.98,5718.37,0.0,1200.86,285.92,"146.30",0.0,"673.98","453.00","","0.00",0.0,703
35,"B0000301054678","2021-08-17",1407584,2,3856.45,944.97,3187.15,0.0,669.3,159.36,"81.54",0.0,"581.98","362.99","","0.00",0.0,703
36,"B0000301054679","2021-08-17",1413345,2,2186.18,419.98,1806.76,0.0,379.42,90.34,"46.22",0.0,"327.99","92.00","","0.00",0.0,703
37,"B0000301054680","2021-08-17",2007074,2,2743.95,383.98,2267.73,0.0,476.22,113.39,"58.02",0.0,"153.99","229.99","","0.00",0.0,703
38,"B0000301054681","2021-08-17",2007083,2,8802.38,2593.43,7274.69,0.0,1527.69,363.73,"186.11",0.0,"1808.96","784.47","","0.00",0.0,703
39,"B0000301054682","2021-08-17",2011608,2,3868.7,902.97,3197.27,0.0,671.43,159.86,"81.80",0.0,"398.98","503.98","","0.00",0.0,703
40,"B0000301054683","2021-08-17",2021038,2,9365.76,1931.94,7740.3,0.0,1625.46,387.01,"198.02",0.0,"533.98","1397.96","","0.00",0.0,703
41,"B0000301054684","2021-08-17",2021057,2,2830.76,998.95,2339.47,0.0,491.29,116.97,"59.85",0.0,"866.96","131.99","","0.00",0.0,703
42,"B0000301054685","2021-08-17",2023855,2,6296.45,1486.45,5203.68,0.0,1092.77,260.18,"133.13",0.0,"662.97","823.47","","0.00",0.0,703
43,"B0000301054686","2021-08-17",2039053,2,3650.1,686.98,3016.61,0.0,633.49,150.83,"77.18",0.0,"521.99","164.99","","0.00",0.0,703
44,"B0000301054687","2021-08-17",2039054,2,5464.44,710.98,4516.07,0.0,948.37,225.8,"115.54",0.0,"209.99","500.99","","0.00",0.0,703
45,"B0000301054688","2021-08-17",2050576,2,2798.1,370.98,2312.48,0.0,485.62,115.62,"59.16",0.0,"119.99","250.99","","0.00",0.0,703
46,"B0000301054689","2021-08-17",2053865,2,4210.96,457.99,3480.14,0.0,730.83,174.01,"89.03",0.0,"0.00","457.99","","0.00",0.0,703
47,"B0000301054690","2021-08-17",2056335,10,21988.64,4945.91,16445.64,0.0,5543.0,822.28,"464.91",0.0,"2080.94","2864.97","","0.00",2089.42,703
48,"B0000301054691","2021-08-17",2070510,2,8900.54,1957.46,7355.81,0.0,1544.72,367.79,"188.19",0.0,"713.98","1243.48","","0.00",0.0,703
49,"B0000301054692","2021-08-17",2078522,2,7415.64,1280.97,6128.63,0.0,1287.01,306.43,"156.79",0.0,"0.00","1280.97","","0.00",0.0,703
50,"B0000301054693","2021-08-17",2078526,10,11556.75,2677.45,8643.47,0.0,2913.28,432.17,"244.35",0.0,"1157.97","1519.48","","0.00",1098.15,703
51,"B0000301054694","2021-08-17",2078536,2,2512.04,350.99,2076.06,0.0,435.97,103.8,"53.11",0.0,"140.00","210.99","","0.00",0.0,703
52,"B0000301054695","2021-08-17",2078542,2,2880.98,459.99,2380.97,0.0,500.0,119.05,"60.91",0.0,"263.99","195.99","","0.00",0.0,703
53,"B0000301054696","2021-08-17",2078545,2,5569.04,1738.42,4602.51,0.0,966.53,230.13,"117.75",0.0,"1319.93","418.49","","0.00",0.0,703
54,"B0000301054697","2021-08-17",2082845,2,5272.36,968.97,4357.32,0.0,915.04,217.87,"111.48",0.0,"173.99","794.98","","0.00",0.0,703
55,"B0000301054698","2021-08-17",2082848,2,4342.19,1459.45,3588.59,0.0,753.6,179.43,"91.81",0.0,"1205.96","253.49","","0.00",0.0,703
56,"B0000301054699","2021-08-17",2086600,10,19436.09,3404.43,14536.55,0.0,4899.54,726.83,"410.94",0.0,"243.99","3160.44","","0.00",1846.87,703
57,"B0000301054700","2021-08-17",2086601,10,13480.71,3443.9,10082.42,0.0,3398.28,504.12,"285.03",0.0,"1895.93","1547.97","","0.00",1280.97,703
58,"B0000301054701","2021-08-17",2090150,2,4463.84,670.47,3689.12,0.0,774.72,184.46,"94.38",0.0,"320.98","349.48","","0.00",0.0,703
59,"B0000301054702","2021-08-17",2104642,2,4913.2,870.46,4060.5,0.0,852.7,203.02,"103.88",0.0,"676.96","193.49","","0.00",0.0,703
60,"B0000301054703","2021-08-17",2104658,2,3332.38,1397.96,2754.04,0.0,578.35,137.7,"70.46",0.0,"1397.96","0.00","","0.00",0.0,703
61,"B0000301054704","2021-08-17",2111057,2,6534.48,2323.43,5400.4,0.0,1134.08,270.02,"138.16",0.0,"2030.94","292.49","","0.00",0.0,703
62,"B0000301054705","2021-08-17",2114048,2,8819.19,2306.92,7288.59,0.0,1530.6,364.43,"186.47",0.0,"1475.95","830.97","","0.00",0.0,703
63,"B0000301054706","2021-08-17",2114073,2,4368.77,1153.47,3610.56,0.0,758.22,180.53,"92.37",0.0,"677.98","475.48","","0.00",0.0,703
64,"B0000301054707","2021-08-17",2120039,2,3101.67,373.99,2563.36,0.0,538.31,128.17,"65.58",0.0,"66.00","307.99","","0.00",0.0,703
65,"B0000301054708","2021-08-17",2123649,2,7484.15,813.99,6185.25,0.0,1298.9,309.26,"158.24",0.0,"0.00","813.99","","0.00",0.0,703
66,"B0000301054709","2021-08-17",2123651,10,15732.26,3929.88,11766.4,0.0,3965.86,588.32,"332.63",0.0,"2060.93","1868.95","","0.00",1494.92,703
67,"B0000301054710","2021-08-17",2123652,2,2679.58,516.98,2214.52,0.0,465.05,110.73,"56.66",0.0,"405.98","111.00","","0.00",0.0,703
68,"B0000301054711","2021-08-17",2126043,2,3032.04,621.98,2505.82,0.0,526.22,125.29,"64.11",0.0,"525.99","96.00","","0.00",0.0,703
69,"B0000301054712","2021-08-17",2126052,2,8557.25,1993.45,7072.11,0.0,1485.14,353.61,"180.93",0.0,"950.97","1042.48","","0.00",0.0,703
70,"B0000301054713","2021-08-17",2128928,10,12120.98,2834.91,9065.47,0.0,3055.52,453.27,"256.28",0.0,"1259.94","1574.97","","0.00",1151.77,703
71,"B0000301054714","2021-08-17",2135128,2,3243.52,344.99,2680.59,0.0,562.92,134.03,"68.58",0.0,"164.00","181.00","","0.00",0.0,703
72,"B0000301054715","2021-08-17",2135150,2,5846.02,1237.47,4831.42,0.0,1014.6,241.57,"123.60",0.0,"386.99","850.48","","0.00",0.0,703
73,"B0000301054716","2021-08-17",2135251,2,2825.68,1043.96,2335.27,0.0,490.41,116.76,"59.74",0.0,"944.96","99.00","","0.00",0.0,703
74,"B0000301054717","2021-08-17",2138634,2,3245.53,812.97,2682.26,0.0,563.27,134.11,"68.62",0.0,"428.98","383.99","","0.00",0.0,703
75,"B0000301054718","2021-08-17",2138651,2,7132.48,1517.93,5894.61,0.0,1237.87,294.73,"150.80",0.0,"455.98","1061.94","","0.00",0.0,703
76,"B0000301054719","2021-08-17",2138654,10,13071.89,4003.84,9776.66,0.0,3295.22,488.83,"276.38",0.0,"3319.87","683.97","","0.00",1242.12,703
77,"B0000301054720","2021-08-17",2141109,10,10299.05,3038.42,7702.81,0.0,2596.23,385.14,"217.76",0.0,"2346.93","691.49","","0.00",978.64,703
78,"B0000301054721","2021-08-17",2141121,2,9727.4,2797.91,8039.17,0.0,1688.23,401.96,"205.67",0.0,"2722.91","75.00","","0.00",0.0,703
79,"B0000301054722","2021-08-17",2144047,10,17353.92,3742.38,12979.26,0.0,4374.66,648.96,"366.92",0.0,"1265.97","2476.41","","0.00",1649.01,703
80,"B0000301054723","2021-08-17",2146986,2,2953.37,468.98,2440.8,0.0,512.57,122.04,"62.44",0.0,"265.99","202.99","","0.00",0.0,703
81,"B0000301054724","2021-08-17",2147176,2,4647.64,1060.46,3841.02,0.0,806.61,192.05,"98.27",0.0,"545.98","514.48","","0.00",0.0,703
82,"B0000301054725","2021-08-17",2147177,2,7337.43,1317.45,6063.99,0.0,1273.44,303.2,"155.14",0.0,"456.48","860.97","","0.00",0.0,703
83,"B0000301054726","2021-08-17",2149935,2,4120.05,576.99,3405.0,0.0,715.05,170.25,"87.11",0.0,"231.99","344.99","","0.00",0.0,703
84,"B0000301054727","2021-08-17",2149939,2,3473.33,809.97,2870.52,0.0,602.81,143.53,"73.44",0.0,"542.98","266.99","","0.00",0.0,703
85,"B0000301054728","2021-08-17",2153355,10,10683.55,1681.94,7990.39,0.0,2693.16,399.52,"225.89",0.0,"427.98","1253.95","","0.00",1015.18,703
86,"B0000301054729","2021-08-17",2158325,2,6174.41,1295.96,5102.82,0.0,1071.59,255.14,"130.55",0.0,"389.98","905.98","","0.00",0.0,703
87,"B0000301054730","2021-08-17",2158335,2,7059.65,1609.46,5834.42,0.0,1225.23,291.72,"149.26",0.0,"737.98","871.48","","0.00",0.0,703
88,"B0000301054731","2021-08-17",2158496,10,10055.38,1916.94,7520.57,0.0,2534.81,376.03,"212.60",0.0,"305.98","1610.96","","0.00",955.49,703
89,"B0000301054732","2021-08-17",2163943,2,5101.73,1565.94,4216.31,0.0,885.43,210.82,"107.87",0.0,"1310.95","254.99","","0.00",0.0,703
90,"B0000301054733","2021-08-17",2168116,2,2735.8,761.96,2260.99,0.0,474.81,113.05,"57.84",0.0,"566.97","194.99","","0.00",0.0,703
91,"B0000301054734","2021-08-17",2168119,2,9099.77,2362.45,7520.47,0.0,1579.3,376.02,"192.40",0.0,"1454.97","907.49","","0.00",0.0,703
92,"B0000301054735","2021-08-17",2168129,2,4807.48,1313.94,3973.13,0.0,834.36,198.66,"101.65",0.0,"821.96","491.98","","0.00",0.0,703
93,"B0000301054736","2021-08-17",2171428,2,2270.92,246.99,1876.79,0.0,394.13,93.84,"48.01",0.0,"0.00","246.99","","0.00",0.0,703
94,"B0000301054737","2021-08-17",2178548,2,5642.13,1166.96,4662.92,0.0,979.21,233.15,"119.29",0.0,"326.99","839.97","","0.00",0.0,703
95,"B0000301054738","2021-08-17",2185492,2,2237.25,509.98,1848.97,0.0,388.28,92.45,"47.30",0.0,"479.98","30.00","","0.00",0.0,703
96,"B0000301054739","2021-08-17",2186943,2,6170.78,1379.45,5099.82,0.0,1070.96,254.99,"130.47",0.0,"587.48","791.97","","0.00",0.0,703
97,"B0000301054740","2021-08-17",2186998,2,4563.84,1222.45,3771.77,0.0,792.07,188.59,"96.49",0.0,"812.97","409.48","","0.00",0.0,703
98,"B0000301054741","2021-08-17",2190610,2,8362.1,3154.42,6910.83,0.0,1451.27,345.54,"176.80",0.0,"2906.93","247.49","","0.00",0.0,703
99,"B0000301054742","2021-08-17",2190611,10,11093.8,2710.43,8297.22,0.0,2796.58,414.86,"234.56",0.0,"1349.96","1360.46","","0.00",1054.16,703
100,"B0000301054743","2021-08-17",2190630,2,3429.47,732.98,2834.27,0.0,595.2,141.71,"72.51",0.0,"647.99","85.00","","0.00",0.0,703
101,"B0000301054744","2021-08-17",2196414,2,8143.44,1878.44,6730.12,0.0,1413.32,336.51,"172.18",0.0,"925.97","952.46","","0.00",0.0,703
102,"B0000301054745","2021-08-17",2196415,2,2522.28,520.98,2084.53,0.0,437.75,104.23,"53.33",0.0,"443.99","77.00","","0.00",0.0,703
103,"B0000301054746","2021-08-17",2196424,2,6583.62,1495.47,5441.01,0.0,1142.61,272.05,"139.20",0.0,"608.98","886.48","","0.00",0.0,703
104,"B0000301054747","2021-08-17",2196425,10,21541.4,4093.38,16111.14,0.0,5430.26,805.56,"455.46",0.0,"632.98","3460.40","","0.00",2046.92,703
105,"B0000301054748","2021-08-17",2196429,2,7904.54,2002.46,6532.68,0.0,1371.86,326.63,"167.13",0.0,"1082.97","919.49","","0.00",0.0,703
106,"B0000301054749","2021-08-17",2196445,10,12604.66,2341.43,9427.22,0.0,3177.44,471.36,"266.50",0.0,"494.98","1846.45","","0.00",1197.73,703
107,"B0000301054750","2021-08-17",2201811,2,4623.64,1313.96,3821.19,0.0,802.45,191.06,"97.76",0.0,"1001.97","311.99","","0.00",0.0,703
108,"B0000301054751","2021-08-17",2201869,2,5770.4,1291.47,4768.92,0.0,1001.47,238.45,"122.01",0.0,"500.99","790.48","","0.00",0.0,703
109,"B0000301054752","2021-08-17",2201892,2,6407.27,1437.94,5295.26,0.0,1112.01,264.76,"135.47",0.0,"654.97","782.97","","0.00",0.0,703
110,"B0000301054753","2021-08-17",2201944,2,3062.72,371.99,2531.18,0.0,531.55,126.56,"64.76",0.0,"70.00","301.99","","0.00",0.0,703
111,"B0000301054754","2021-08-17",2201988,2,9375.51,2062.44,7748.36,0.0,1627.15,387.42,"198.23",0.0,"722.98","1339.46","","0.00",0.0,703
112,"B0000301054755","2021-08-17",2201996,2,3728.74,599.98,3081.6,0.0,647.14,154.08,"78.84",0.0,"0.00","599.98","","0.00",0.0,703
113,"B0000301054756","2021-08-17",2202007,2,6542.71,1360.46,5407.2,0.0,1135.51,270.36,"138.33",0.0,"494.98","865.48","","0.00",0.0,703
114,"B0000301054757","2021-08-17",2202010,2,2944.67,907.47,2433.62,0.0,511.06,121.68,"62.26",0.0,"752.97","154.49","","0.00",0.0,703
115,"B0000301054758","2021-08-17",2210066,2,2561.08,602.98,2116.6,0.0,444.49,105.83,"54.15",0.0,"583.98","19.00","","0.00",0.0,703
116,"B0000301054759","2021-08-17",2210070,2,8023.83,1825.42,6631.26,0.0,1392.57,331.56,"169.65",0.0,"731.97","1093.45","","0.00",0.0,703
117,"B0000301054760","2021-08-17",2210071,2,4865.31,1567.43,4020.92,0.0,844.39,201.05,"102.87",0.0,"1235.94","331.49","","0.00",0.0,703
118,"B0000301054761","2021-08-17",2210072,2,2500.84,501.98,2066.81,0.0,434.03,103.34,"52.88",0.0,"413.99","88.00","","0.00",0.0,703
119,"B0000301054762","2021-08-17",2215558,2,3967.83,535.99,3279.2,0.0,688.63,163.96,"83.89",0.0,"187.99","347.99","","0.00",0.0,703
120,"B0000301054763","2021-08-17",2215591,2,3558.14,836.97,2940.61,0.0,617.53,147.03,"75.23",0.0,"377.99","458.98","","0.00",0.0,703
121,"B0000301054764","2021-08-17",2215608,2,7657.14,1594.43,6328.22,0.0,1328.93,316.41,"161.90",0.0,"581.97","1012.47","","0.00",0.0,703
122,"B0000301054765","2021-08-17",2222156,2,3933.0,1649.92,3250.42,0.0,682.59,162.52,"83.16",0.0,"1649.92","0.00","","0.00",0.0,703
123,"B0000301054766","2021-08-17",2222158,2,5840.88,1372.46,4827.17,0.0,1013.71,241.36,"123.50",0.0,"617.98","754.48","","0.00",0.0,703
124,"B0000301054767","2021-08-17",2230688,2,3332.37,457.98,2754.03,0.0,578.35,137.7,"70.46",0.0,"172.00","285.99","","0.00",0.0,703
125,"B0000301054768","2021-08-17",2230710,2,3797.22,412.99,3138.2,0.0,659.02,156.91,"80.29",0.0,"0.00","412.99","","0.00",0.0,703
126,"B0000301054769","2021-08-17",2230723,2,4128.23,528.99,3411.76,0.0,716.47,170.59,"87.28",0.0,"158.00","370.99","","0.00",0.0,703
127,"B0000301054770","2021-08-17",2234845,10,13912.7,4160.82,10405.52,0.0,3507.18,520.28,"294.16",0.0,"3053.86","1106.96","","0.00",1322.02,703
128,"B0000301054771","2021-08-17",2234856,10,11313.46,2755.43,8461.51,0.0,2851.95,423.08,"239.20",0.0,"1361.97","1393.46","","0.00",1075.04,703
129,"B0000301054772","2021-08-17",2238766,2,2275.0,222.99,1880.17,0.0,394.84,94.01,"48.10",0.0,"0.00","222.99","","0.00",0.0,703
130,"B0000301054773","2021-08-17",2238774,2,4775.87,824.97,3947.0,0.0,828.87,197.35,"100.98",0.0,"0.00","824.97","","0.00",0.0,703
131,"B0000301054774","2021-08-17",2238785,10,14572.13,4255.33,10898.71,0.0,3673.41,544.94,"308.10",0.0,"3002.87","1252.46","","0.00",1384.68,703
132,"B0000301054775","2021-08-17",2239278,2,8905.53,2662.42,7359.94,0.0,1545.59,368.0,"188.29",0.0,"1910.95","751.47","","0.00",0.0,703
133,"B0000301054776","2021-08-17",2239294,10,10048.72,2913.38,7515.59,0.0,2533.13,375.78,"212.46",0.0,"2158.90","754.47","","0.00",954.86,703
134,"B0000301054777","2021-08-17",2239490,2,2256.64,310.99,1865.0,0.0,391.65,93.25,"47.71",0.0,"118.00","192.99","","0.00",0.0,703
135,"B0000301054778","2021-08-17",2239495,2,3495.86,667.98,2889.14,0.0,606.72,144.46,"73.91",0.0,"517.99","150.00","","0.00",0.0,703
136,"B0000301054779","2021-08-17",2239524,2,3968.84,774.98,3280.03,0.0,688.81,164.0,"83.91",0.0,"617.98","157.00","","0.00",0.0,703
137,"B0000301054780","2021-08-17",2239539,2,3542.84,591.98,2927.96,0.0,614.87,146.4,"74.91",0.0,"371.99","219.99","","0.00",0.0,703
138,"B0000301054781","2021-08-17",2239556,10,13612.46,3434.89,10180.96,0.0,3431.49,509.05,"287.81",0.0,"1721.93","1712.96","","0.00",1293.49,703
139,"B0000301054782","2021-08-17",2239578,2,7724.08,2003.93,6383.54,0.0,1340.54,319.18,"163.31",0.0,"1268.96","734.97","","0.00",0.0,703
140,"B0000301054783","2021-08-17",2239622,10,16598.47,5171.84,12414.25,0.0,4184.22,620.71,"350.95",0.0,"4067.88","1103.96","","0.00",1577.23,703
141,"B0000301054784","2021-08-17",2239623,2,5190.13,1369.46,4289.36,0.0,900.77,214.47,"109.74",0.0,"803.98","565.48","","0.00",0.0,703
142,"B0000301054785","2021-08-17",2239709,10,12057.66,2426.93,9018.1,0.0,3039.55,450.91,"254.94",0.0,"584.98","1841.95","","0.00",1145.75,703
143,"B0000301054786","2021-08-17",2240622,2,7170.44,1220.96,5925.98,0.0,1244.46,296.3,"151.61",0.0,"413.98","806.98","","0.00",0.0,703
144,"B0000301054787","2021-08-17",2240624,2,2946.73,835.47,2435.31,0.0,511.42,121.77,"62.30",0.0,"554.98","280.49","","0.00",0.0,703
145,"B0000301054788","2021-08-17",2240795,2,4807.0,724.47,3972.73,0.0,834.27,198.64,"101.64",0.0,"239.99","484.47","","0.00",0.0,703
146,"B0000301054789","2021-08-17",2245108,2,4515.4,479.98,3731.73,0.0,783.66,186.59,"95.47",0.0,"279.99","200.00","","0.00",0.0,703
147,"B0000301054790","2021-08-17",2245120,2,8994.11,3035.93,7433.15,0.0,1560.96,371.66,"190.17",0.0,"2519.94","515.99","","0.00",0.0,703
148,"B0000301054791","2021-08-17",2245145,2,4341.19,1120.47,3587.76,0.0,753.43,179.39,"91.79",0.0,"629.98","490.48","","0.00",0.0,703
149,"B0000301054792","2021-08-17",2245147,2,4219.01,1769.91,3486.79,0.0,732.23,174.34,"89.20",0.0,"1769.91","0.00","","0.00",0.0,703
150,"B0000301054793","2021-08-17",2245150,2,2354.77,294.99,1946.09,0.0,408.68,97.3,"49.79",0.0,"70.00","225.00","","0.00",0.0,703
151,"B0000301054794","2021-08-17",2245159,2,5144.12,1174.47,4251.34,0.0,892.78,212.57,"108.76",0.0,"770.98","403.48","","0.00",0.0,703
152,"B0000301054795","2021-08-17",2245214,2,5177.29,1241.96,4278.75,0.0,898.54,213.94,"109.47",0.0,"590.98","650.97","","0.00",0.0,703
153,"B0000301054796","2021-08-17",2245263,2,5006.18,1279.44,4137.34,0.0,868.84,206.87,"105.85",0.0,"689.97","589.48","","0.00",0.0,703
154,"B0000301054797","2021-08-17",2245276,2,4706.29,812.96,3889.49,0.0,816.79,194.47,"99.51",0.0,"0.00","812.96","","0.00",0.0,703
155,"B0000301054798","2021-08-17",2249807,2,8186.33,1946.43,6765.56,0.0,1420.77,338.28,"173.09",0.0,"939.97","1006.46","","0.00",0.0,703
156,"B0000301054799","2021-08-17",2249825,2,3355.82,614.96,2773.4,0.0,582.41,138.67,"70.95",0.0,"203.98","410.98","","0.00",0.0,703
161,"B0000301054804","2021-08-17",2250235,2,6669.87,1660.95,5512.29,0.0,1157.58,275.61,"141.02",0.0,"898.97","761.98","","0.00",0.0,703
162,"B0000301054805","2021-08-17",2250247,2,2850.18,309.99,2355.52,0.0,494.66,117.78,"60.26",0.0,"0.00","309.99","","0.00",0.0,703
163,"B0000301054806","2021-08-17",2250267,2,4076.61,1219.47,3369.1,0.0,707.51,168.45,"86.19",0.0,"875.98","343.49","","0.00",0.0,703
164,"B0000301054807","2021-08-17",2250356,2,5268.73,952.46,4354.32,0.0,914.41,217.72,"111.40",0.0,"71.99","880.47","","0.00",0.0,703
165,"B0000301054808","2021-08-17",2250371,2,4458.21,545.99,3684.47,0.0,773.74,184.22,"94.26",0.0,"150.00","395.99","","0.00",0.0,703
166,"B0000301054809","2021-08-17",2250557,2,6233.61,1307.95,5151.74,0.0,1081.87,257.59,"131.80",0.0,"467.98","839.97","","0.00",0.0,703
167,"B0000301054810","2021-08-17",2253483,2,2990.15,352.99,2471.19,0.0,518.95,123.56,"63.22",0.0,"217.99","135.00","","0.00",0.0,703
168,"B0000301054811","2021-08-17",2253517,2,4287.56,1172.97,3543.43,0.0,744.12,177.17,"90.65",0.0,"734.98","437.98","","0.00",0.0,703
170,"B0000301054813","2021-08-17",2253522,10,11755.14,2912.88,8791.85,0.0,2963.29,439.59,"248.54",0.0,"1547.94","1364.95","","0.00",1117.0,703
171,"B0000301054814","2021-08-17",2253525,2,9229.89,2444.92,7628.01,0.0,1601.88,381.4,"195.15",0.0,"1439.95","1004.97","","0.00",0.0,703
172,"B0000301054815","2021-08-17",2253526,2,7341.13,1073.98,6067.05,0.0,1274.08,303.35,"155.22",0.0,"60.00","1013.98","","0.00",0.0,703
174,"B0000301054817","2021-08-17",2256878,2,5466.43,1628.94,4517.71,0.0,948.72,225.89,"115.58",0.0,"1163.96","464.98","","0.00",0.0,703
175,"B0000301054818","2021-08-17",2257505,2,3880.37,1211.42,3206.92,0.0,673.45,160.35,"82.04",0.0,"963.93","247.49","","0.00",0.0,703
176,"B0000301054819","2021-08-17",2257507,2,1743.84,342.99,1441.19,0.0,302.65,72.06,"36.87",0.0,"275.99","67.00","","0.00",0.0,703
177,"B0000301054820","2021-08-17",2257531,2,3979.55,1144.46,3288.88,0.0,690.67,164.44,"84.14",0.0,"776.98","367.48","","0.00",0.0,703
178,"B0000301054821","2021-08-17",2257567,2,3717.98,820.47,3072.71,0.0,645.27,153.64,"78.61",0.0,"302.99","517.48","","0.00",0.0,703
179,"B0000301054822","2021-08-17",2257568,2,3051.41,382.98,2521.83,0.0,529.58,126.09,"64.52",0.0,"141.99","240.99","","0.00",0.0,703
180,"B0000301054823","2021-08-17",2257576,2,4362.14,1079.97,3605.08,0.0,757.07,180.25,"92.23",0.0,"554.98","524.98","","0.00",0.0,703
181,"B0000301054824","2021-08-17",2257579,2,2308.75,459.98,1908.06,0.0,400.69,95.4,"48.81",0.0,"375.99","84.00","","0.00",0.0,703
182,"B0000301054825","2021-08-17",2257605,2,6366.51,1517.95,5261.58,0.0,1104.93,263.08,"134.61",0.0,"710.97","806.98","","0.00",0.0,703
183,"B0000301054826","2021-08-17",2257641,2,3767.03,1462.44,3113.25,0.0,653.78,155.66,"79.65",0.0,"1379.94","82.50","","0.00",0.0,703
184,"B0000301054827","2021-08-17",2257719,2,7109.08,1445.94,5875.27,0.0,1233.81,293.76,"150.31",0.0,"422.98","1022.96","","0.00",0.0,703
185,"B0000301054828","2021-08-17",2257727,2,4707.39,1391.96,3890.41,0.0,816.99,194.52,"99.53",0.0,"1103.97","287.98","","0.00",0.0,703
186,"B0000301054829","2021-08-17",2258242,2,8618.46,1843.43,7122.69,0.0,1495.77,356.13,"182.22",0.0,"587.97","1255.46","","0.00",0.0,703
187,"B0000301054830","2021-08-17",2262470,2,4399.95,1232.97,3636.32,0.0,763.63,181.82,"93.03",0.0,"803.98","428.99","","0.00",0.0,703
188,"B0000301054831","2021-08-17",2262491,2,3932.57,1270.46,3250.06,0.0,682.51,162.5,"83.15",0.0,"1073.97","196.49","","0.00",0.0,703
189,"B0000301054832","2021-08-17",2262561,2,4630.83,1526.97,3827.13,0.0,803.7,191.36,"97.91",0.0,"1235.98","290.99","","0.00",0.0,703
190,"B0000301054833","2021-08-17",2262625,2,4365.18,896.97,3607.59,0.0,757.59,180.38,"92.29",0.0,"404.98","491.98","","0.00",0.0,703
191,"B0000301054834","2021-08-17",2262729,2,5710.6,1409.96,4719.51,0.0,991.1,235.98,"120.74",0.0,"719.98","689.98","","0.00",0.0,703
192,"B0000301054835","2021-08-17",2262816,2,4691.08,887.97,3876.93,0.0,814.15,193.85,"99.18",0.0,"131.99","755.98","","0.00",0.0,703
193,"B0000301054836","2021-08-17",2263171,2,4866.74,1265.94,4022.1,0.0,844.64,201.1,"102.90",0.0,"722.96","542.98","","0.00",0.0,703
194,"B0000301054837","2021-08-17",2263176,2,3882.95,1058.95,3209.05,0.0,673.9,160.45,"82.10",0.0,"659.97","398.98","","0.00",0.0,703
195,"B0000301054838","2021-08-17",2263469,2,3454.98,507.98,2855.35,0.0,599.62,142.77,"73.05",0.0,"271.99","235.99","","0.00",0.0,703
196,"B0000301054839","2021-08-17",2263475,2,7600.47,2319.91,6281.38,0.0,1319.09,314.07,"160.70",0.0,"1911.93","407.99","","0.00",0.0,703
197,"B0000301054840","2021-08-17",2267116,2,6852.16,2192.41,5662.95,0.0,1189.22,283.15,"144.88",0.0,"1682.43","509.98","","0.00",0.0,703
198,"B0000301054841","2021-08-17",2267752,2,3704.75,1333.46,3061.77,0.0,642.97,153.09,"78.33",0.0,"1178.96","154.49","","0.00",0.0,703
199,"B0000301054842","2021-08-17",2267761,2,3488.7,1094.96,2883.22,0.0,605.48,144.16,"73.76",0.0,"836.97","257.99","","0.00",0.0,703
200,"B0000301054843","2021-08-17",2267766,2,1674.34,230.99,1383.76,0.0,290.59,69.19,"35.40",0.0,"87.99","142.99","","0.00",0.0,703
201,"B0000301054844","2021-08-17",2267767,2,8229.81,1523.95,6801.5,0.0,1428.31,340.07,"174.01",0.0,"173.99","1349.96","","0.00",0.0,703
202,"B0000301054845","2021-08-17",2267777,2,4729.94,859.98,3909.04,0.0,820.9,195.45,"100.01",0.0,"621.98","238.00","","0.00",0.0,703
203,"B0000301054846","2021-08-17",2267778,2,4658.45,1099.98,3849.96,0.0,808.49,192.5,"98.50",0.0,"1067.98","32.00","","0.00",0.0,703
204,"B0000301054847","2021-08-17",2267787,2,4320.77,1150.46,3570.89,0.0,749.89,178.54,"91.36",0.0,"746.98","403.49","","0.00",0.0,703
205,"B0000301054848","2021-08-17",2267795,2,3651.62,895.47,3017.87,0.0,633.75,150.89,"77.21",0.0,"449.99","445.48","","0.00",0.0,703
206,"B0000301054849","2021-08-17",2267796,2,2665.28,430.99,2202.71,0.0,462.57,110.14,"56.35",0.0,"373.99","57.00","","0.00",0.0,703
207,"B0000301054850","2021-08-17",2267798,2,9835.21,1732.45,8128.27,0.0,1706.94,406.41,"207.95",0.0,"57.00","1675.45","","0.00",0.0,703
208,"B0000301054851","2021-08-17",2267800,2,3817.65,642.98,3155.08,0.0,662.57,157.75,"80.72",0.0,"409.99","232.99","","0.00",0.0,703
209,"B0000301054852","2021-08-17",2267801,2,7193.39,1618.45,5944.95,0.0,1248.44,297.25,"152.09",0.0,"638.98","979.47","","0.00",0.0,703
210,"B0000301054853","2021-08-17",2267803,10,10017.99,1783.44,7492.6,0.0,2525.38,374.63,"211.81",0.0,"90.00","1693.44","","0.00",951.94,703
211,"B0000301054854","2021-08-17",2267898,2,5069.1,557.98,4189.34,0.0,879.76,209.47,"107.18",0.0,"291.99","265.99","","0.00",0.0,703
214,"B0000301054857","2021-08-17",2268201,2,2822.06,562.47,2332.28,0.0,489.78,116.61,"59.67",0.0,"161.99","400.48","","0.00",0.0,703
215,"B0000301054858","2021-08-17",2268203,2,3837.98,662.97,3171.88,0.0,666.1,158.59,"81.15",0.0,"0.00","662.97","","0.00",0.0,703
216,"B0000301054859","2021-08-17",2268477,2,3796.6,1333.43,3137.69,0.0,658.91,156.88,"80.27",0.0,"1151.94","181.49","","0.00",0.0,703
217,"B0000301054860","2021-08-17",2268482,2,3693.02,774.98,3052.08,0.0,640.94,152.6,"78.08",0.0,"671.99","103.00","","0.00",0.0,703
218,"B0000301054861","2021-08-17",2268494,2,2579.47,494.98,2131.8,0.0,447.68,106.59,"54.54",0.0,"385.99","109.00","","0.00",0.0,703
219,"B0000301054862","2021-08-17",2269984,2,4655.33,1352.96,3847.38,0.0,807.95,192.37,"98.43",0.0,"932.97","419.99","","0.00",0.0,703
220,"B0000301054863","2021-08-17",2269986,2,2779.66,758.96,2297.24,0.0,482.42,114.86,"58.77",0.0,"473.98","284.98","","0.00",0.0,703
221,"B0000301054864","2021-08-17",2270446,10,10280.57,2856.42,7688.99,0.0,2591.57,384.45,"217.37",0.0,"1888.96","967.46","","0.00",976.89,703
222,"B0000301054865","2021-08-17",2270953,2,6394.56,1900.44,5284.76,0.0,1109.8,264.24,"135.20",0.0,"1352.96","547.48","","0.00",0.0,703
223,"B0000301054866","2021-08-17",2270956,2,6711.76,2169.93,5546.91,0.0,1164.85,277.35,"141.91",0.0,"1692.95","476.98","","0.00",0.0,703
224,"B0000301054867","2021-08-17",2270957,2,2332.24,316.99,1927.47,0.0,404.77,96.37,"49.31",0.0,"113.99","202.99","","0.00",0.0,703
225,"B0000301054868","2021-08-17",2270958,2,8000.43,2278.42,6611.93,0.0,1388.51,330.6,"169.16",0.0,"1523.94","754.48","","0.00",0.0,703
226,"B0000301054869","2021-08-17",2270959,2,5689.63,1150.46,4702.17,0.0,987.46,235.11,"120.30",0.0,"284.99","865.47","","0.00",0.0,703
227,"B0000301054870","2021-08-17",2270960,2,4111.87,724.98,3398.24,0.0,713.63,169.91,"86.94",0.0,"499.99","225.00","","0.00",0.0,703
228,"B0000301054871","2021-08-17",2271585,2,3492.26,931.46,2886.16,0.0,606.09,144.31,"73.84",0.0,"557.97","373.49","","0.00",0.0,703
229,"B0000301054872","2021-08-17",2271793,2,4076.01,1289.94,3368.6,0.0,707.41,168.43,"86.18",0.0,"950.96","338.98","","0.00",0.0,703
230,"B0000301054873","2021-08-17",2271794,2,6982.95,1984.44,5771.03,0.0,1211.92,288.55,"147.64",0.0,"1322.97","661.47","","0.00",0.0,703
231,"B0000301054874","2021-08-17",2271805,2,5420.39,1583.92,4479.66,0.0,940.73,223.98,"114.60",0.0,"1100.94","482.98","","0.00",0.0,703
232,"B0000301054875","2021-08-17",2271824,2,6288.82,2363.94,5197.37,0.0,1091.45,259.87,"132.97",0.0,"2171.95","191.99","","0.00",0.0,703
233,"B0000301054876","2021-08-17",2271834,2,1941.99,298.99,1604.95,0.0,337.04,80.25,"41.06",0.0,"157.99","140.99","","0.00",0.0,703
234,"B0000301054877","2021-08-17",2271881,2,2388.92,841.46,1974.31,0.0,414.61,98.72,"50.51",0.0,"728.96","112.50","","0.00",0.0,703
235,"B0000301054878","2021-08-17",2271884,2,3137.25,473.98,2592.77,0.0,544.48,129.64,"66.33",0.0,"261.98","212.00","","0.00",0.0,703
236,"B0000301054879","2021-08-17",2271895,2,5055.21,1141.45,4177.86,0.0,877.35,208.89,"106.88",0.0,"455.98","685.47","","0.00",0.0,703
237,"B0000301054880","2021-08-17",2271898,2,4526.07,829.47,3740.55,0.0,785.52,187.03,"95.70",0.0,"81.00","748.47","","0.00",0.0,703
238,"B0000301054881","2021-08-17",2271916,10,12547.02,3287.91,9384.11,0.0,3162.91,469.21,"265.29",0.0,"2042.93","1244.97","","0.00",1192.25,703
239,"B0000301054882","2021-08-17",2271919,2,3634.78,1031.97,3003.95,0.0,630.83,150.2,"76.85",0.0,"686.98","344.99","","0.00",0.0,703
240,"B0000301054883","2021-08-17",2271930,2,2830.81,998.96,2339.51,0.0,491.3,116.98,"59.85",0.0,"941.96","57.00","","0.00",0.0,703
241,"B0000301054884","2021-08-17",2271931,2,5162.48,1526.44,4266.51,0.0,895.97,213.33,"109.15",0.0,"1061.46","464.98","","0.00",0.0,703
242,"B0000301054885","2021-08-17",2271933,2,5846.49,1616.96,4831.81,0.0,1014.68,241.59,"123.61",0.0,"1031.98","584.98","","0.00",0.0,703
243,"B0000301054886","2021-08-17",2271977,2,4122.55,1024.46,3407.07,0.0,715.48,170.35,"87.16",0.0,"596.98","427.48","","0.00",0.0,703
244,"B0000301054887","2021-08-17",2272118,2,2895.63,625.47,2393.08,0.0,502.55,119.65,"61.22",0.0,"212.99","412.48","","0.00",0.0,703
245,"B0000301054888","2021-08-17",2272127,2,6866.07,2528.94,5674.44,0.0,1191.63,283.72,"145.17",0.0,"2429.95","99.00","","0.00",0.0,703
246,"B0000301054889","2021-08-17",2272366,2,8529.62,2710.42,7049.27,0.0,1480.35,352.46,"180.34",0.0,"2162.94","547.48","","0.00",0.0,703
247,"B0000301054890","2021-08-17",2275489,2,6456.88,1579.46,5336.27,0.0,1120.62,266.81,"136.52",0.0,"848.98","730.48","","0.00",0.0,703
248,"B0000301054891","2021-08-17",2275491,10,10799.67,2668.43,8077.24,0.0,2722.43,403.86,"228.34",0.0,"1364.95","1303.48","","0.00",1026.21,703
249,"B0000301054892","2021-08-17",2275493,2,3651.11,1190.96,3017.45,0.0,633.66,150.87,"77.20",0.0,"986.97","203.99","","0.00",0.0,703
250,"B0000301054893","2021-08-17",2276094,2,3785.94,923.97,3128.88,0.0,657.06,156.44,"80.05",0.0,"458.98","464.98","","0.00",0.0,703
251,"B0000301054894","2021-08-17",2276099,2,5477.16,1423.45,4526.58,0.0,950.58,226.33,"115.81",0.0,"914.97","508.48","","0.00",0.0,703
252,"B0000301054895","2021-08-17",2276108,2,4056.15,859.47,3352.19,0.0,703.96,167.61,"85.76",0.0,"299.99","559.48","","0.00",0.0,703
253,"B0000301054896","2021-08-17",2276121,2,9235.11,2364.94,7632.32,0.0,1602.79,381.62,"195.26",0.0,"1412.46","952.48","","0.00",0.0,703
255,"B0000301054898","2021-08-17",2276421,2,4181.3,1226.96,3455.62,0.0,725.68,172.78,"88.41",0.0,"857.98","368.99","","0.00",0.0,703
256,"B0000301054899","2021-08-17",2276498,2,5336.68,965.95,4410.48,0.0,926.2,220.52,"112.84",0.0,"734.96","230.99","","0.00",0.0,703
257,"B0000301054900","2021-08-17",2278811,2,8012.23,2426.93,6621.68,0.0,1390.55,331.08,"169.41",0.0,"1766.95","659.98","","0.00",0.0,703
258,"B0000301054901","2021-08-17",2278812,2,3008.12,475.49,2486.05,0.0,522.07,124.3,"63.60",0.0,"0.00","475.49","","0.00",0.0,703
259,"B0000301054902","2021-08-17",2278813,2,5695.26,1214.96,4706.83,0.0,988.43,235.34,"120.42",0.0,"392.98","821.97","","0.00",0.0,703
260,"B0000301054903","2021-08-17",2278820,2,3481.55,751.98,2877.31,0.0,604.24,143.87,"73.61",0.0,"671.98","80.00","","0.00",0.0,703
261,"B0000301054904","2021-08-17",2279429,2,4051.55,1283.96,3348.39,0.0,703.16,167.42,"85.66",0.0,"992.97","290.99","","0.00",0.0,703
262,"B0000301054905","2021-08-17",2279434,2,6188.73,1181.97,5114.66,0.0,1074.08,255.73,"130.85",0.0,"191.99","989.97","","0.00",0.0,703
263,"B0000301054906","2021-08-17",2279440,2,5252.41,1318.45,4340.84,0.0,911.58,217.04,"111.05",0.0,"698.97","619.48","","0.00",0.0,703
265,"B0000301054908","2021-08-17",2279456,2,2728.63,488.98,2255.06,0.0,473.56,112.75,"57.69",0.0,"345.99","143.00","","0.00",0.0,703
266,"B0000301054909","2021-08-17",2282701,2,4926.04,977.96,4071.11,0.0,854.93,203.56,"104.15",0.0,"215.99","761.97","","0.00",0.0,703
267,"B0000301054910","2021-08-17",2282714,10,11596.85,2527.92,8673.46,0.0,2923.39,433.67,"245.20",0.0,"925.98","1601.95","","0.00",1101.96,703
268,"B0000301054911","2021-08-17",2282725,2,4140.42,1061.95,3421.83,0.0,718.59,171.09,"87.54",0.0,"641.97","419.98","","0.00",0.0,703
269,"B0000301054912","2021-08-17",2282731,2,2875.74,534.98,2376.64,0.0,499.09,118.83,"60.80",0.0,"399.99","134.99","","0.00",0.0,703
270,"B0000301054913","2021-08-17",2282740,10,12433.06,2729.42,9298.88,0.0,3134.19,464.94,"262.88",0.0,"1296.95","1432.47","","0.00",1181.42,703
271,"B0000301054914","2021-08-17",2282752,10,15688.3,3662.89,11733.52,0.0,3954.78,586.68,"331.70",0.0,"1589.95","2072.94","","0.00",1490.74,703
272,"B0000301054915","2021-08-17",2282933,2,5748.41,2132.93,4750.75,0.0,997.66,237.54,"121.54",0.0,"1937.93","195.00","","0.00",0.0,703
273,"B0000301054916","2021-08-17",2282938,10,10514.59,3127.41,7864.02,0.0,2650.57,393.2,"222.31",0.0,"2228.94","898.47","","0.00",999.12,703
274,"B0000301054917","2021-08-17",2282940,10,10506.37,2275.43,7857.87,0.0,2648.5,392.89,"222.14",0.0,"782.97","1492.46","","0.00",998.34,703
277,"B0000301054920","2021-08-17",2282962,2,9327.97,2558.91,7709.06,0.0,1618.9,385.45,"197.22",0.0,"1610.93","947.97","","0.00",0.0,703
278,"B0000301054921","2021-08-17",2282983,10,11431.33,3539.87,8549.66,0.0,2881.66,427.48,"241.70",0.0,"2630.90","908.96","","0.00",1086.23,703
279,"B0000301054922","2021-08-17",2282994,10,15582.14,3461.91,11654.12,0.0,3928.02,582.71,"329.46",0.0,"1466.97","1994.94","","0.00",1480.66,703
280,"B0000301054923","2021-08-17",2283002,2,6196.9,1943.96,5121.4,0.0,1075.49,256.07,"131.02",0.0,"1484.97","458.98","","0.00",0.0,703
281,"B0000301054924","2021-08-17",2283006,2,6004.28,1632.44,4962.21,0.0,1042.06,248.11,"126.95",0.0,"954.47","677.97","","0.00",0.0,703
283,"B0000301054926","2021-08-17",2286334,2,6371.01,1363.44,5265.3,0.0,1105.71,263.26,"134.70",0.0,"446.98","916.47","","0.00",0.0,703
284,"B0000301054927","2021-08-17",2286339,2,2845.11,354.99,2351.33,0.0,493.78,117.57,"60.15",0.0,"82.00","272.99","","0.00",0.0,703
285,"B0000301054928","2021-08-17",2287135,2,3468.76,754.47,2866.74,0.0,602.02,143.34,"73.34",0.0,"263.98","490.48","","0.00",0.0,703
286,"B0000301054929","2021-08-17",2287287,2,6878.74,1786.43,5684.91,0.0,1193.83,284.25,"145.44",0.0,"1016.96","769.47","","0.00",0.0,703
287,"B0000301054930","2021-08-17",2290316,2,2023.73,368.98,1672.5,0.0,351.23,83.63,"42.79",0.0,"267.99","101.00","","0.00",0.0,703
288,"B0000301054931","2021-08-17",2290317,2,8467.86,2180.93,6998.23,0.0,1469.63,349.91,"179.04",0.0,"1220.96","959.97","","0.00",0.0,703
289,"B0000301054932","2021-08-17",2290319,2,3011.61,481.98,2488.94,0.0,522.68,124.45,"63.68",0.0,"277.99","204.00","","0.00",0.0,703
290,"B0000301054933","2021-08-17",2290368,2,7376.81,2108.93,6096.54,0.0,1280.27,304.83,"155.97",0.0,"1418.96","689.98","","0.00",0.0,703
291,"B0000301054934","2021-08-17",2290369,2,4980.31,575.0,4115.95,0.0,864.35,205.8,"105.30",0.0,"60.00","515.00","","0.00",0.0,703
292,"B0000301054935","2021-08-17",2290375,2,2761.27,356.98,2282.04,0.0,479.23,114.1,"58.38",0.0,"48.00","308.99","","0.00",0.0,703
293,"B0000301054936","2021-08-17",2290386,2,4470.91,1213.46,3694.97,0.0,775.94,184.75,"94.53",0.0,"749.98","463.48","","0.00",0.0,703
294,"B0000301054937","2021-08-17",2290526,2,4232.89,1276.45,3498.26,0.0,734.63,174.91,"89.50",0.0,"926.96","349.49","","0.00",0.0,703
295,"B0000301054938","2021-08-17",2290531,2,3249.66,538.99,2685.67,0.0,563.99,134.28,"68.71",0.0,"333.99","205.00","","0.00",0.0,703
296,"B0000301054939","2021-08-17",2290533,2,3947.9,1315.46,3262.73,0.0,685.17,163.14,"83.47",0.0,"1196.96","118.50","","0.00",0.0,703
297,"B0000301054940","2021-08-17",2290551,2,3995.32,1238.93,3301.92,0.0,693.4,165.1,"84.47",0.0,"1115.94","122.99","","0.00",0.0,703
299,"B0000301054942","2021-08-17",2290847,2,2840.99,998.96,2347.93,0.0,493.06,117.4,"60.07",0.0,"863.96","135.00","","0.00",0.0,703
300,"B0000301054943","2021-08-17",2290856,10,10766.55,2000.97,8052.47,0.0,2714.08,402.62,"227.64",0.0,"239.99","1760.98","","0.00",1023.07,703
301,"B0000301054944","2021-08-17",2291072,2,5648.32,1310.96,4668.04,0.0,980.29,233.4,"119.42",0.0,"569.98","740.98","","0.00",0.0,703
302,"B0000301054945","2021-08-17",2291197,10,11669.0,3247.41,8727.42,0.0,2941.58,436.37,"246.72",0.0,"2168.94","1078.47","","0.00",1108.82,703
304,"B0000301054947","2021-08-17",2294147,2,2308.77,429.99,1908.07,0.0,400.69,95.4,"48.81",0.0,"371.99","58.00","","0.00",0.0,703
305,"B0000301054948","2021-08-17",2294151,10,16040.33,3948.4,11996.8,0.0,4043.52,599.84,"339.15",0.0,"2041.94","1906.45","","0.00",1524.19,703
306,"B0000301054949","2021-08-17",2294163,2,8851.91,2374.91,7315.63,0.0,1536.28,365.78,"187.16",0.0,"1464.44","910.47","","0.00",0.0,703
307,"B0000301054950","2021-08-17",2294175,2,9799.04,2417.94,8098.38,0.0,1700.66,404.92,"207.18",0.0,"1307.96","1109.98","","0.00",0.0,703
308,"B0000301054951","2021-08-17",2294251,2,3261.87,866.97,2695.76,0.0,566.11,134.79,"68.97",0.0,"590.98","275.99","","0.00",0.0,703
309,"B0000301054952","2021-08-17",2294360,2,5169.67,1429.44,4272.46,0.0,897.22,213.62,"109.30",0.0,"986.96","442.48","","0.00",0.0,703
310,"B0000301054953","2021-08-17",2294361,2,2501.82,470.98,2067.62,0.0,434.2,103.38,"52.90",0.0,"407.99","63.00","","0.00",0.0,703
311,"B0000301054954","2021-08-17",2294720,2,4835.09,956.96,3995.94,0.0,839.15,199.8,"102.23",0.0,"281.98","674.98","","0.00",0.0,703
312,"B0000301054955","2021-08-17",2294721,2,4052.59,837.97,3349.25,0.0,703.34,167.46,"85.69",0.0,"787.98","50.00","","0.00",0.0,703
313,"B0000301054956","2021-08-17",2294769,2,6654.59,2375.92,5499.66,0.0,1154.93,274.98,"140.70",0.0,"2159.93","215.99","","0.00",0.0,703
314,"B0000301054957","2021-08-17",2295135,2,4856.55,1235.95,4013.68,0.0,842.87,200.68,"102.68",0.0,"749.97","485.98","","0.00",0.0,703
315,"B0000301054958","2021-08-17",2295138,2,3207.75,659.98,2651.03,0.0,556.72,132.55,"67.82",0.0,"609.98","50.00","","0.00",0.0,703
320,"B0000301054963","2021-08-17",2295449,2,2769.51,488.98,2288.85,0.0,480.66,114.44,"58.56",0.0,"387.98","101.00","","0.00",0.0,703
321,"B0000301054964","2021-08-17",2295570,2,4307.99,682.98,3560.32,0.0,747.67,178.02,"91.09",0.0,"435.98","247.00","","0.00",0.0,703
322,"B0000301054965","2021-08-17",2295582,2,2748.5,769.46,2271.49,0.0,477.01,113.57,"58.11",0.0,"575.96","193.49","","0.00",0.0,703
323,"B0000301054966","2021-08-17",2295583,2,3518.34,465.99,2907.72,0.0,610.62,145.39,"74.39",0.0,"200.00","265.99","","0.00",0.0,703
324,"B0000301054967","2021-08-17",2295584,2,2949.35,293.0,2437.48,0.0,511.87,121.87,"62.36",0.0,"0.00","293.00","","0.00",0.0,703
326,"B0000301054969","2021-08-17",2297983,2,6921.72,1714.44,5720.43,0.0,1201.29,286.02,"146.35",0.0,"956.97","757.47","","0.00",0.0,703
327,"B0000301054970","2021-08-17",2297992,2,5335.73,1646.94,4409.69,0.0,926.04,220.48,"112.81",0.0,"1307.95","338.99","","0.00",0.0,703
328,"B0000301054971","2021-08-17",2298021,2,3890.21,1421.96,3215.05,0.0,675.16,160.75,"82.25",0.0,"1349.96","72.00","","0.00",0.0,703
329,"B0000301054972","2021-08-17",2298022,2,5202.96,1826.96,4299.97,0.0,902.99,215.0,"110.01",0.0,"1652.96","173.99","","0.00",0.0,703
330,"B0000301054973","2021-08-17",2298040,2,6020.22,1406.96,4975.39,0.0,1044.83,248.77,"127.29",0.0,"698.97","707.98","","0.00",0.0,703
331,"B0000301054974","2021-08-17",2298041,2,4549.65,1246.46,3760.04,0.0,789.61,188.0,"96.19",0.0,"857.97","388.49","","0.00",0.0,703
332,"B0000301054975","2021-08-17",2298043,2,5219.81,1450.47,4313.89,0.0,905.92,215.69,"110.36",0.0,"1007.98","442.48","","0.00",0.0,703
333,"B0000301054976","2021-08-17",2298050,2,2310.35,718.47,1909.38,0.0,400.97,95.47,"48.85",0.0,"617.98","100.50","","0.00",0.0,703
334,"B0000301054977","2021-08-17",2298051,2,5206.01,1253.96,4302.49,0.0,903.52,215.12,"110.07",0.0,"677.98","575.98","","0.00",0.0,703
335,"B0000301054978","2021-08-17",2298052,2,5214.71,1225.46,4309.67,0.0,905.03,215.48,"110.26",0.0,"626.98","598.48","","0.00",0.0,703
336,"B0000301054979","2021-08-17",2298053,2,2604.07,830.97,2152.12,0.0,451.95,107.61,"55.06",0.0,"722.98","108.00","","0.00",0.0,703
337,"B0000301054980","2021-08-17",2298542,2,3447.33,685.47,2849.04,0.0,598.3,142.45,"72.89",0.0,"227.99","457.48","","0.00",0.0,703
339,"B0000301054982","2021-08-17",2298555,2,3570.5,1304.98,2950.82,0.0,619.67,147.54,"75.49",0.0,"1244.98","60.00","","0.00",0.0,703
340,"B0000301054983","2021-08-17",2298557,2,3025.95,1097.96,2500.78,0.0,525.16,125.04,"63.98",0.0,"1052.96","45.00","","0.00",0.0,703
341,"B0000301054984","2021-08-17",2298558,2,9919.52,2609.91,8197.95,0.0,1721.57,409.9,"209.73",0.0,"1598.96","1010.96","","0.00",0.0,703
342,"B0000301054985","2021-08-17",2298565,2,2287.87,490.48,1890.8,0.0,397.07,94.54,"48.37",0.0,"236.99","253.49","","0.00",0.0,703
343,"B0000301054986","2021-08-17",2298567,2,3515.76,1138.43,2905.59,0.0,610.17,145.28,"74.33",0.0,"977.94","160.49","","0.00",0.0,703
