"codcliente","fecalta","rasoc","tipdoc","docnro","domic","altura","piso","dpto","local","ecall","calle1","calle2","partido","codpost","telefono","prov","cat_Iva","nucuit","nucuil","conyuge","profesio","iva_d","iva_I","alic_perc","zona"
"506640","2020-10-17","MEDINA CRISTINA DEL CARME",96,27223022,"25 D MAYO 243",243,"0","","","FORMOSA 25 D MAYO","","","",4550,0,"09",2,"23-00000000-0",0,"","","N","S","57","703"
"572465","2019-12-23","GUAIMAS NANCY SALOME",96,25090554,"JUJUY MZA 19 1",1,"0","","","ISLAS MALVINAS ESQUINA JUJUY","","","",4533,0,"09",2,"23-00000000-0",0,"","","N","S","57","703"
"576090","2019-12-23","SAAVEDRA LILIANA DEL CARM",96,12701737,"RIVADAVIA 730",730,"0","","","BELGRANO Y DORREGO","","","",4530,0,"09",10,"23-00000000-0",0,"","","N","C","57","703"
"805537","2019-12-26","OBEID SAMIRAH FUDA",96,30998905,"PJE. SEVILLA 1243",1243,"0","","","SANTA FE","","","",4400,0,"09",10,"23-00000000-0",0,"","","N","C","57","703"
"1040320","2021-05-11","ESTRADA NINFA BEATRIZ",96,25829303,"AV.9 DE JULIO 795",795,"0","","","GORRITI TUCUMAN","","","",4512,0,"06",2,"23-00000000-0",0,"","","N","S","62","703"
"1094830","2019-12-23","ENRIQUE RODRIGUEZ ANA MAR",96,17913276,"LOPEZ Y PLANES 740",740,"0","","","IRIGOYEN Y MORENO","","","",4530,0,"09",10,"23-00000000-0",0,"","","N","C","57","703"
"1094839","2019-12-23","TOLOSA CRISTINA SUSANA",96,28756743,"LAMADRID 775",775,"0","","","BELGRANO Y DORREGO","","","",4530,0,"09",2,"23-00000000-0",0,"","","N","S","57","703"
"1094854","2019-12-23","GUIDA LILIANA ALICIA",96,13810017,"BOLIVIA 29",29,"0","","","ARENALES Y ESPANA","","","",4530,0,"09",2,"23-00000000-0",0,"","","N","S","57","703"
"1105411","2019-12-23","RISSO MARIA EUGENIA",96,32232417,"M.K 16 DE ABRIL CASA 5",5,"0","","","C.RUIZ Y C.ZABALA","","","",4500,0,"09",2,"23-00000000-0",0,"","","N","S","57","703"
"1127307","2019-12-23","PALACIOS BERTA MARIA",96,32916946,"BELGRANO 745",745,"0","","","","","","",4500,0,"09",10,"23-00000000-0",0,"","","N","C","57","703"
"1136228","2019-12-23","MARQUEZ SANQUINO OTILIA",96,92958091,"9 DE JULIO",0,"0","","","VENEZUELA","","","",4531,0,"09",2,"23-00000000-0",0,"","","N","S","57","703"
"1156997","2019-12-23","BOLIVAR ESTHER VALENTINA",96,6343489,"PIZARRO 122",122,"0","","","","","","",4530,0,"09",2,"23-00000000-0",0,"","","N","S","57","703"
"1196933","2019-12-26","DIAZ KARINA ELIZABETH",96,32135165,"MZA.96 17",17,"0","","","CONSTITUYENTES Y L.BURELA","","","",4500,0,"06",10,"23-00000000-0",0,"","","N","C","62","703"
"1211946","2019-12-23","FARIAS ESTHER DEL VALLE",96,24864544,"9 DE JULIO 529",529,"0","","","PELLEGRINI Y 25 DE MAYO","","","",4530,0,"09",2,"23-00000000-0",0,"","","N","S","57","703"
"1235829","2019-12-23","ARCE CRISTINA YENI",96,17680287,"ANT.ARGENTINA 555",555,"0","","","","","","",4530,0,"09",10,"23-00000000-0",0,"","","N","C","57","703"
"1248537","2019-12-23","ROCA PALMA PILAR",96,94088783,"LOPEZ Y PLANES 241",241,"1","3E","","LAMADRID URIBURU","","","",3200,0,"09",2,"23-00000000-0",0,"","","N","S","57","703"
"1250074","2019-12-23","PEREZ CLAUDIA ELIZABET",96,25685299,"LAPRIDA 39",39,"0","","","ARENALES Y ESPANA","","","",5000,0,"09",2,"23-00000000-0",0,"","","N","S","57","703"
"1274420","2019-12-23","CHAVEZ ANA DEL VALLE",96,14836783,"TERESA DE CALCUTA 19",19,"0","","","9 DE JULIO 25 DE MAYO","","","",4500,0,"09",2,"23-00000000-0",0,"","","N","S","57","703"
"1283694","2019-12-23","VERGARA GLADYS HAYDEE",96,11197619,"PJE.SIRIA 341",341,"0","","","20 DE FEBRERO Y LA MADRID","","","",1800,0,"09",2,"23-00000000-0",0,"","","N","S","57","703"
"1289250","2019-12-26","SANCHEZ VANESA ALEJANDRA",96,38740029,"RIVADAVIA MZA.5A 17",17,"0","","","BATALLA DE SALTA","","","",3500,0,"09",2,"23-00000000-0",0,"","","N","S","57","703"
"1301344","2019-12-23","NIEVES ELIZABETH DEL VALL",96,29816277,"AV.CONSTITUYENTE 1240",1240,"0","","","NAHUEL HUAPI Y ACONQUIJA","","","",3500,0,"09",2,"23-00000000-0",0,"","","N","S","57","703"
"1337374","2019-12-23","MINONES IRIS MABEL",96,11792588,"LISANDRO DE LA TORRE 1253",1253,"0","","","L.ALEM Y RIVADAVIA","","","",3500,0,"09",2,"23-00000000-0",0,"","","N","S","57","703"
"1349383","2019-12-23","CALLA SUSANA MARGARITA",96,25205524,"YPF 1044",1044,"0","","","CHACO Y N.ROLDAN","","","",3500,0,"09",2,"23-00000000-0",0,"","","N","S","57","703"
"1359753","2019-12-23","HOYOS GRISELDA BEATRIZ",96,23647383,"PJE. LAS MALVINAS 1764",1764,"0","","","","","","",4530,0,"09",2,"23-00000000-0",0,"","","N","S","57","703"
"1366752","2020-06-11","YANAMARI REBECA ROCIO",96,39674965,"BERUTTI 51",51,"0","","","LOS ANDES Y LA RIOJA","","","",4530,0,"09",2,"23-00000000-0",0,"","","N","S","57","703"
"1366877","2021-07-30","1TORRES ANDREA YANINA DEL",96,38342236,"AVDA SARMIENTO 2",2,"0","","","","","","",4566,0,"09",2,"23-00000000-0",0,"","","N","S","57","703"
"1372105","2021-05-10","RAMOS ANA MARIA MAGDALENA",96,29720151,"MZA30 A 8",8,"0","","","","","","",4560,0,"09",2,"23-00000000-0",0,"","","N","S","57","703"
"1376376","2020-12-01","RIVERO JESICA ESTEFANIA C",96,35783934,"MZA 60F 18",18,"0","","","","","","",4560,0,"09",2,"23-00000000-0",0,"","","N","S","57","703"
"1380911","2019-12-23","VELIZ FERNANDA MAIRA",96,36135528,"M.108 A CASA 21",21,"0","","","","","","",4530,0,"09",2,"23-00000000-0",0,"","","N","S","57","703"
"1380923","2021-01-28","BARRAZA NANCY PATRICIA",96,26635194,"MZA A 9",9,"0","","","","","","",4560,0,"09",10,"23-00000000-0",0,"","","N","C","57","703"
"1388013","2020-05-12","DUARTE CINTIA MARIBEL",96,31392715,"PASAJE LAS HERAS 237",237,"0","","","","","","",1601,0,"09",2,"23-00000000-0",0,"","","N","S","57","703"
"1399019","2019-12-23","TORREJON MARIA ELENA",96,22424363,"MENDOZA 1034",1034,"0","","","","","","",4500,0,"09",2,"23-00000000-0",0,"","","N","S","57","703"
"1401161","2019-12-23","ALVAREZ TATIANA MARISEL",96,26930120,"M.2 PJ.SANTA RITA C. 4",4,"0","","","IGUAZU Y PJ.SAN AGUSTIN","","","",4530,0,"09",2,"23-00000000-0",0,"","","N","S","57","703"
"1403965","2019-12-23","HERRERA ANDREA DEL MILAGR",96,24179921,"PRINGLES 646",646,"0","","","","","","",4530,0,"09",2,"23-00000000-0",0,"","","N","S","57","703"
"1407584","2020-11-09","ABREGU NATALIA CAROLINA",96,28810267,"AV JUAN XXII 222",222,"0","","","15 DE SEPTIEMBRE","","","",4562,0,"09",2,"23-00000000-0",0,"","","N","S","57","703"
"1413345","2019-12-23","APARICIO CARINA ALEJANDRA",96,26930276,"EGUES 1030",1030,"0","","","","","","",4530,0,"09",2,"23-00000000-0",0,"","","N","S","57","703"
"2007074","2020-06-11","RODRIGUEZ GENOVEVA ELISA",96,11494508,"MORO DIAZ 840",840,"0","","","MARIANO MORENO RIVADAVIA","","","",4530,0,"09",2,"23-00000000-0",0,"","","N","S","57","703"
"2007083","2019-12-23","REYES LILIANA DEL VALLE",96,27245567,"24 DE SEPTIEMBRE 279",279,"0","","","","","","",4530,0,"09",2,"23-00000000-0",0,"","","N","S","57","703"
"2011608","2019-12-23","CUELLO ROSANA IVANA DE LO",96,27913267,"BUENOS AIRES 841",841,"0","","","CHUBUT PJE.CATAMARCA","","","",4531,0,"09",2,"23-00000000-0",0,"","","N","S","57","703"
"2021038","2019-12-23","CHAVEZ REGINA",96,14303351,"M.6 B SAAVEDRA CASA 13",13,"0","","","","","","",4500,0,"09",2,"23-00000000-0",0,"","","N","S","57","703"
"2021057","2020-05-12","LOPEZ ANA ROSALIA",96,31020666,"MZ.9 CASA 22 S N",0,"0","","","","","","",4531,0,"09",2,"23-00000000-0",0,"","","N","S","57","703"
"2023855","2019-12-23","AGUILERA NORA MABEL",96,10907881,"CORRIENTES 98",98,"0","","","9 DE JULIO","","","",4530,0,"09",2,"23-00000000-0",0,"","","N","S","57","703"
"2039053","2019-12-26","GOMEZ JUDITH BELEN",96,41274500,"PJE BOHUID 189",189,"0","","","","","","",9999,0,"09",2,"23-00000000-0",0,"","","N","S","57","703"
"2039054","2019-12-23","RUIZ MONICA HAIDEE",96,20127812,"SALTA 826",826,"0","","","CHUBUT PJE CATAMARCA","","","",9999,0,"09",2,"23-00000000-0",0,"","","N","S","57","703"
"2050576","2019-12-23","IBANEZ DELLY SILVIA",96,23935838,"PUEYRREDON 840",840,"0","","","","","","",5000,0,"09",2,"23-00000000-0",0,"","","N","S","57","703"
"2053865","2019-12-23","GALLARDO ROMINA DEL ROSAR",96,36666022,"SAN MARTIN 463",463,"0","","","RIVADAVIA BELGRANO","","","",4500,0,"09",2,"23-00000000-0",0,"","","N","S","57","703"
"2056335","2019-12-23","LUNA SOFIA MARIANELA",96,41940028,"AVENIDA BOLIVIA S N",0,"0","","","","","","",5750,0,"09",10,"23-00000000-0",0,"","","N","C","57","703"
"2070510","2019-12-23","VISCARRA NORMA ESTER",96,26975336,"CORRIENTES 5",5,"0","","","","","","",4500,0,"09",2,"23-00000000-0",0,"","","N","S","57","703"
"2078522","2019-12-23","MORALES JESICA ESTHER",96,31167839,"MZA 18 10",10,"0","","","","","","",9999,0,"09",2,"23-00000000-0",0,"","","N","S","57","703"
"2078526","2019-12-23","RENFIGIO CARINA PAOLA",96,24858611,"MZA.35 32",32,"0","","","","","","",4533,0,"09",10,"23-00000000-0",0,"","","N","C","57","703"
"2078536","2019-12-23","VIDAL PAULA ALEJANDRA",96,39364411,"MZA.100 B 20",20,"0","","266 VIV","PJE PARQUE NACIONAL EL REY","","","266 VIV",4530,0,"09",2,"23-00000000-0",0,"","","N","S","57","703"
"2078542","2019-12-23","VERGARA MARIA JOSE",96,32170659,"MZA.102 B 21",21,"0","","","BELISARIO ROLDAN FRAY LUIS BEL","","","",4530,0,"09",2,"23-00000000-0",0,"","","N","S","57","703"
"2078545","2019-12-23","ARJONA ARAMAYO JOHANNA LO",96,37418438,"PJE.ROQUE SAENZ PENA 1061",1061,"0","","","AV.CONSTITUYENTE","","","",4530,0,"09",2,"23-00000000-0",0,"","","N","S","57","703"
"2082845","2021-07-30","GARECA CARMEN CECILIA",96,35778810,"SANTOS VEGA Y FORMOSA",0,"0","","","RUTA 34 J.DOMINGO PERON","","","",4530,0,"09",2,"23-00000000-0",0,"","","N","S","57","703"
"2082848","2019-12-23","CABRERA NATALIA GABRIELA",96,25165076,"MONOBLOCK 18",18,"0","PB2","","LAPRIDA","","","",4530,0,"09",2,"23-00000000-0",0,"","","N","S","57","703"
"2086600","2019-12-23","JAIME TERESA CECILIA",96,23557310,"O HIGGINS 398",398,"0","","","BUSTAMANTE MITRE","","","",4530,0,"09",10,"23-00000000-0",0,"","","N","C","57","703"
"2086601","2019-12-23","HINOJOSA DEBORA PRISCILA",96,40788922,"MARTIN FIERRO",0,"0","","","PERITO MORENO LUIS BELTRAN","","","",4530,0,"09",10,"23-00000000-0",0,"","","N","C","57","703"
"2090150","2019-12-23","CORONADO SOFIA REBECA",96,37088604,"MZA.97C 13",13,"0","","","LAVALLE","","","",4550,0,"09",2,"23-00000000-0",0,"","","N","S","57","703"
"2104642","2019-12-23","CORBALAN NADIA DANIELA",96,36280047,"MZA 9 30",30,"0","","","","","","",9999,0,"09",2,"23-00000000-0",0,"","","N","S","57","703"
"2104658","2019-12-23","LOPEZ GABRIELA LORENA",96,29612989,"ALVARADO 420",420,"0","","","25 DE MAYO LAMADRID","","","",4530,0,"09",2,"23-00000000-0",0,"","","N","S","57","703"
"2111057","2019-12-23","DIAZ VERONICA SOLEDAD",96,44270264,"COLON 1570",1570,"0","","","ALMAFUERTE J.INGENIEROS","","","",4530,0,"09",2,"23-00000000-0",0,"","","N","S","57","703"
"2114048","2019-12-23","ALBORNOZ ANGELA LETICIA",96,5747509,"AV. ORTIZ ELISEA 430",430,"0","","","","","","",4530,0,"09",2,"23-00000000-0",0,"","","N","S","57","703"
"2114073","2019-12-23","MORENO ANDREA PAOLA",96,32170626,"ITALIA 650",650,"0","","","PJE. GUIRALDES AV. PALACIOS","","","",4530,0,"09",2,"23-00000000-0",0,"","","N","S","57","703"
"2120039","2019-12-23","SIVILA CARINA DEL VALLE",96,38343909,"AV.CONSTITUYENTES 879",879,"0","","","","","","",4550,0,"09",2,"23-00000000-0",0,"","","N","S","57","703"
"2123649","2019-12-23","FERNANDEZ DANIELA CAROLIN",96,37721712,"MZA.53 B 7",7,"0","","","PJ.ARISTIDES SAAVEDRA Y PARAGU","","","",4530,0,"09",2,"23-00000000-0",0,"","","N","S","57","703"
"2123651","2019-12-23","AGUILAR ESTER FABIOLA",96,31196831,"MZA B 7",7,"0","","","","","","",4530,0,"09",10,"23-00000000-0",0,"","","N","C","57","703"
"2123652","2019-12-23","ACHO ELIANA DANIELA",96,41486213,"ESQUIU 948",948,"0","","","MORO DIAZ NATALIA ROLDAN","","","",4530,0,"09",2,"23-00000000-0",0,"","","N","S","57","703"
"2126043","2019-12-23","PARINDARI ADRIANA EULOGIA",96,21853735,"MZA 35 34",34,"0","","","","","","",4534,0,"09",2,"23-00000000-0",0,"","","N","S","57","703"
"2126052","2019-12-23","PONCE MICAELA AYELEN",96,41178643,"MZA 14B 10",10,"0","","","","","","",4534,0,"09",2,"23-00000000-0",0,"","","N","S","57","703"
"2128928","2019-12-23","LEON TANIA AYELEN",96,39539219,"MORO DIAZ 198",198,"0","","","SAN LUIS 17 DE OCTUBRE","","","",4550,0,"09",10,"23-00000000-0",0,"","","N","C","57","703"
"2135128","2019-12-26","SEGOVIA SILVIA MARCELA",96,23048260,"MZA.91 3",3,"0","","","LOS ANDES","","","",4530,0,"09",2,"23-00000000-0",0,"","","N","S","57","703"
"2135150","2019-12-26","RIVERA MERCEDES FERNANDA",96,30643722,"PJE SIRIA 29",29,"0","","","","","","",4530,0,"09",2,"23-00000000-0",0,"","","N","S","57","703"
"2135251","2019-12-26","TORRES GABRIELA PAOLA",96,29737171,"MZA. D 3",3,"0","","","","","","",4530,0,"09",2,"23-00000000-0",0,"","","N","S","57","703"
"2138634","2019-12-26","MIRANDA NORMA INES",96,14977161,"ESPANA 337",337,"0","","","","","","",4530,0,"09",2,"23-00000000-0",0,"","","N","S","57","703"
"2138651","2019-12-26","CUELLAR CARLA BELEN",96,40630394,"AV.CONSTITUYENTES 336",336,"0","","","","","","",4530,0,"09",2,"23-00000000-0",0,"","","N","S","57","703"
"2138654","2019-12-26","BEJARANO SUSANA ALBA",96,31394039,"MZA.1 F 6",6,"0","","","","","","",4530,0,"09",10,"23-00000000-0",0,"","","N","C","57","703"
"2141109","2019-12-26","LOBOS ANDREA INES",96,34204924,"PASAJE SANTA ANA 6",6,"0","","","","","","",4550,0,"09",10,"23-00000000-0",0,"","","N","C","57","703"
"2141121","2019-12-26","MOYA SUSANA DEL VALLE",96,26345325,"LAPRIDA 724",724,"0","","","CORDOBA","","","",4530,0,"09",2,"23-00000000-0",0,"","","N","S","57","703"
"2144047","2019-12-26","ESPINOZA MARILYN ANTONELL",96,41369927,"GUEMES 1970",1970,"0","","","","","","",4530,0,"09",10,"23-00000000-0",0,"","","N","C","57","703"
"2146986","2019-12-26","LUCEMA BEATRIZ HAYDEE",96,26923568,"MZA 23B 1",1,"0","","","","","","",4530,0,"09",2,"23-00000000-0",0,"","","N","S","57","703"
"2147176","2019-12-26","LOZANO LUCIANA ANAH ",96,38214258,"GUEMES 163",163,"0","","","SAN MARTIN URIBURU","","","",4530,0,"09",2,"23-00000000-0",0,"","","N","S","57","703"
"2147177","2019-12-26","CAZON MARIA LEONOR",96,12843289,"9 DE JULIO 29",29,"0","","","PASAJE 4","","","",4550,0,"09",2,"23-00000000-0",0,"","","N","S","57","703"
"2149935","2019-12-26","ARENAS CARLA ROCIO",96,28756598,"DORREGO 947",947,"0","","","ESQUIU RIVADAVIA","","","",4530,0,"09",2,"23-00000000-0",0,"","","N","S","57","703"
"2149939","2019-12-26","SABAN GERMANA",96,13520728,"20 DE FEBRERO 873",873,"0","","","BUENOS AIRES ISLAS MALVINAS","","","",4550,0,"09",2,"23-00000000-0",0,"","","N","S","57","703"
"2153355","2019-12-26","MARAZ NOELIA BELEN",96,35556507,"G EMES 1700",1700,"0","","","LOS CEDROS","","","",4530,0,"09",10,"23-00000000-0",0,"","","N","C","57","703"
"2158325","2019-12-26","LUNA ROMINA PAOLA",96,34388397,"PJE LAS CANAS MZA 4 9",9,"0","","","","","","",4530,0,"09",2,"23-00000000-0",0,"","","N","S","57","703"
"2158335","2019-12-26","JUAREZ ADRIANA SOLEDAD",96,28698048,"MZA 18A 17",17,"0","","","","","","",4534,0,"09",2,"23-00000000-0",0,"","","N","S","57","703"
"2158496","2019-12-26","TEJERINA MICAELA MACARENA",96,38343829,"PASAJE ISLAS MALVINAS 1838",1838,"0","","","","","","",4530,0,"09",10,"23-00000000-0",0,"","","N","C","57","703"
"2163943","2019-12-26","MIRANDA VIVIANA PAOLA DE ",96,39891339,"SAAVEDRA MZA 21B 7",7,"0","","","","","","",4550,0,"09",2,"23-00000000-0",0,"","","N","S","57","703"
"2168116","2019-12-26","GONZALEZ ARACELI",96,42488348,"JOSE INGENIERO",0,"0","","","PERITO MORENO PASAJE SAN LOREN","","","",4530,0,"09",2,"23-00000000-0",0,"","","N","S","57","703"
"2168119","2019-12-26","PORRAS MARIA AGUSTINA",96,40875118,"LAS PALTAS MZA 22D 1",1,"0","","","","","","",4530,0,"09",2,"23-00000000-0",0,"","","N","S","57","703"
"2168129","2019-12-26","ALTAMIRANO ELIZABETH LILI",96,32170657,"PRINGLES 880",880,"0","","","","","","",4530,0,"09",2,"23-00000000-0",0,"","","N","S","57","703"
"2171428","2020-02-10","GARMENIA BRENDA REBECA",96,35073773,"ENRIQUE BUIZTAS",0,"0","","","RUTA 34 CALLE DEL CEMENTERIO","","","",4550,0,"09",2,"23-00000000-0",0,"","","N","S","57","703"
"2178548","2020-02-28","ESPINOSA MARCELA CELINA",96,37420028,"MZA25A 9",9,"0","","","20 DE FEBRERO","","","",4550,0,"09",2,"23-00000000-0",0,"","","N","S","57","703"
"2185492","2020-04-27","CALLADO JESICA MARISOL",96,35073890,"12 DE OCTUBRE 370",370,"0","","","12 D OCTUBRE MARTIN FIERRO","","","",4550,0,"09",2,"23-00000000-0",0,"","","N","S","57","703"
"2186943","2020-05-12","GODOY ANALIA ALEJANDRA",96,31949003,"MANZANA 5",5,"0","","",". .","","","",4550,0,"09",2,"23-00000000-0",0,"","","N","S","57","703"
"2186998","2020-05-12","OLMEDO VERONICA MARISA",96,33584870,"9 DE JULIO 558",558,"0","","","","","","",4550,0,"09",2,"23-00000000-0",0,"","","N","S","57","703"
"2190610","2020-06-11","TEJERINA ADELA MARIA",96,12539746,"SAN MARTIN",0,"0","","","","","","",4530,0,"09",2,"23-00000000-0",0,"","","N","S","57","703"
"2190611","2020-06-11","RUEDA NOELIA YANINA",96,36939749,"SAN MARTIN 1",1,"0","","","","","","",4530,0,"09",10,"23-00000000-0",0,"","","N","C","57","703"
"2190630","2020-06-11","LOPEZ MARISEL IRMA",96,43338441,"PASAJE SUIPACHA MZAA2 2",2,"0","","","","","","",4530,0,"09",2,"23-00000000-0",0,"","","N","S","57","703"
"2196414","2020-07-22","RUEDA AGUSTINA",96,18836177,"20 FEBRERO 1462",1462,"0","","","BUENS AIRES 20 FEBRERO","","","",4550,0,"09",2,"23-00000000-0",0,"","","N","S","57","703"
"2196415","2020-07-22","ORTIZ INGRIS YOLANDA",96,42552125,"BUENS AIRES 325",325,"0","","","JUAN D PERON BUENS AIRES","","","",4550,0,"09",2,"23-00000000-0",0,"","","N","S","57","703"
"2196424","2020-07-22","NAVARRETE MARIA CELESTE",96,30674796,"ALMAFUERTE 568",568,"0","","","","","","",4530,0,"09",2,"23-00000000-0",0,"","","N","S","57","703"
"2196425","2020-07-22","CIVILA MILAGRO DEL VALLE",96,22424305,"ALBERDI 253",253,"0","","","","","","",4530,0,"09",10,"23-00000000-0",0,"","","N","C","57","703"
"2196429","2020-07-22","VALDIVIEZO EMILSE ELINA",96,32232410,"AVENIDA G EMES 458",458,"0","","","","","","",4533,0,"09",2,"23-00000000-0",0,"","","N","S","57","703"
"2196445","2020-07-22","CORBALAN SARA MACARENA",96,42257713,"MZA95 A 14",14,"0","","","","","","",4530,0,"09",10,"23-00000000-0",0,"","","N","C","57","703"
"2201811","2020-07-22","ARGUELLO VERONICA DE LOS ",96,32170811,"MANZANA 6A 9",9,"0","","","PEDRO ORTIZ DE ZARATE PJE PEAT","","","",4530,0,"09",2,"23-00000000-0",0,"","","N","S","57","703"
"2201869","2020-07-22","LOPEZ GUADALUPE LEONELA",96,42669735,"ACONQUIJA 148",148,"0","","","","","","",4530,0,"09",2,"23-00000000-0",0,"","","N","S","57","703"
"2201892","2020-07-22","CAMACHO CARMEN ROSA",96,10009663,"MZA 9A 13",13,"0","","","","","","",4530,0,"09",2,"23-00000000-0",0,"","","N","S","57","703"
"2201944","2020-07-22","ROJAS MIRIAN",96,18197892,"25 MAYO 1698",1698,"0","","","PASA 3 MARCELA VAYEJO","","","",4550,0,"09",2,"23-00000000-0",0,"","","N","S","57","703"
"2201988","2020-07-22","ZURUGUAY REBECA MAGDALENA",96,33141528,"SANTOS VEGA 755",755,"0","","","ENRIQUE WISTA BUENS AIRE","","","",4550,0,"09",2,"23-00000000-0",0,"","","N","S","57","703"
"2201996","2020-07-22","FLORES GISELA MARIEL",96,38034415,"SANTA ANA 52",52,"0","","","BS AS ENRIQUE WISTA","","","",4550,0,"09",2,"23-00000000-0",0,"","","N","S","57","703"
"2202007","2020-07-22","VALENZUELA SANDRA ANTONIA",96,37064350,"PJE LAS TIPAS 1442",1442,"0","","","","","","",4530,0,"09",2,"23-00000000-0",0,"","","N","S","57","703"
"2202010","2020-07-22","SANCHEZ CLAUDIA ALEJANDRA",96,28698438,"MZA 24 35",35,"0","","","","","","",4534,0,"09",2,"23-00000000-0",0,"","","N","S","57","703"
"2210066","2020-08-03","TEJERINA AYELEN GABRIELA",96,43374098,"MZA 22B 2",2,"0","","","","","","",4530,0,"09",2,"23-00000000-0",0,"","","N","S","57","703"
"2210070","2020-08-03","PARADA GABRIELA ELIZABETH",96,37716077,"PASAJE CASTELLANOS 263",263,"0","","","","","","",4530,0,"09",2,"23-00000000-0",0,"","","N","S","57","703"
"2210071","2020-08-03","NINA LORENA DEL VALLE",96,25800981,"MZA 60F 7",7,"0","","","","","","",4560,0,"09",2,"23-00000000-0",0,"","","N","S","57","703"
"2210072","2020-08-03","VILLAFUERTE CAMILA DE LOS",96,42707204,"PASAJE CASTILLA MZA 104B 4",4,"0","","","","","","",4530,0,"09",2,"23-00000000-0",0,"","","N","S","57","703"
"2215558","2020-08-21","PALMA TERESITA DEL MILAGR",96,22013964,"100 VIVIENDA 2014",2014,"0","","",". .","","","",4550,0,"09",2,"23-00000000-0",0,"","","N","S","57","703"
"2215591","2020-08-21","ROBLES GLORIA",96,6675257,"9D JULIO 1690",1690,"0","","","MALVINA PARAGUAY","","","",4550,0,"09",2,"23-00000000-0",0,"","","N","S","57","703"
"2215608","2020-08-21","OSORES MARIA DEL HUERTO",96,31714026,"SAAVEDRA 58A 20",20,"0","","","","","","",4530,0,"09",2,"23-00000000-0",0,"","","N","S","57","703"
"2222156","2020-09-23","ARECO MERY ALEJANDRA",96,22869841,"SAN MARTIN 804",804,"0","","","","","","",4530,0,"09",2,"23-00000000-0",0,"","","N","S","57","703"
"2222158","2020-09-23","PEREZ SANDRA MABEL",96,24200957,"SARMIENTO 175",175,"0","","","AVENIDA SALTA SARMIENTO","","","",4550,0,"09",2,"23-00000000-0",0,"","","N","S","57","703"
"2230688","2020-09-27","CANAVIDES TAMARA AILEN",96,42815320,"LUIS BURELA 654",654,"0","","","","","","",4530,0,"09",2,"23-00000000-0",0,"","","N","S","57","703"
"2230710","2020-09-27","DOMINGUEZ NELIDA MIRTA",96,33808633,"MZA 12 7",7,"0","","","","","","",4530,0,"09",2,"23-00000000-0",0,"","","N","S","57","703"
"2230723","2020-09-27","ACOSTA REINA GUADALUPE",96,42018855,"MZA D 7",7,"0","","",". .","","","",4550,0,"09",2,"23-00000000-0",0,"","","N","S","57","703"
"2234845","2020-10-17","NIEVES ADRIANA ZULEMA",96,36135877,"MZA B 49",49,"0","","","","","","",4530,0,"09",10,"23-00000000-0",0,"","","N","C","57","703"
"2234856","2020-10-17","CORRO MARIA CRISTINA",96,34640709,"LOPEZ Y PLANES 319",319,"0","","","","","","",4530,0,"09",10,"23-00000000-0",0,"","","N","C","57","703"
"2238766","2020-11-09","CUEVAS VERONICA DANIELA",96,32434523,"CORNEJO 376",376,"0","","","","","","",4560,0,"09",2,"23-00000000-0",0,"","","N","S","57","703"
"2238774","2020-11-09","HOYOS MARIANELA GISEL",96,32684220,"SAN MARTIN 335",335,"0","","","","","","",4560,0,"09",2,"23-00000000-0",0,"","","N","S","57","703"
"2238785","2020-11-09","PASCUA NOELIA ISABEL NOEM",96,37424597,"AV VIRGEN DE LA PENA MZA 20",20,"0","","","CHANARES ARAYANES","","","",4560,0,"09",10,"23-00000000-0",0,"","","N","C","57","703"
"2239278","2020-11-09","COLQUE PATINO MAGALI ESTE",96,42550358,"MZA 1 1",1,"0","","","","","","",4562,0,"09",2,"23-00000000-0",0,"","","N","S","57","703"
"2239294","2020-11-09","PINERO MARTINEZ PAULA CEC",96,37302712,"MZA G 12",12,"0","","","LOS MATOS","","","",4560,0,"09",10,"23-00000000-0",0,"","","N","C","57","703"
"2239490","2020-11-09","BARRIOS DANIELA CECILIA",96,30731361,"SAN JUAN 10",10,"0","","","CATAMARCA","","","",4562,0,"09",2,"23-00000000-0",0,"","","N","S","57","703"
"2239495","2020-11-09","ORDONEZ ROMINA NATALIA",96,34357516,"ITUZAINGO 720",720,"0","","","PARAGUAY","","","",4560,0,"09",2,"23-00000000-0",0,"","","N","S","57","703"
"2239524","2020-11-09","TORRELIO JUSTINA",96,18713119,"SAN ANTONIO 28",28,"0","","","SAN MIGUEL","","","",4560,0,"09",2,"23-00000000-0",0,"","","N","S","57","703"
"2239539","2020-11-09","FUENZALIDA VIVIANA ELIZAB",96,17281774,"MARIANO MORENO 988",988,"0","","","","","","",4560,0,"09",2,"23-00000000-0",0,"","","N","S","57","703"
"2239556","2020-11-09","AMAYA SILVANA CAROLINA",96,27493611,"MZA 17B 17",17,"0","","","","","","",4562,0,"09",10,"23-00000000-0",0,"","","N","C","57","703"
"2239578","2020-11-09","ARGOTA ROXANA SOLEDAD",96,31345188,"LAS PALTAS MZA 22 12",12,"0","","","URIBURU 20 DE FEBRERO","","","",4530,0,"09",2,"23-00000000-0",0,"","","N","S","57","703"
"2239622","2020-11-09","FRIAS MARLENE SOLEDAD",96,37190390,"MZA A 16",16,"0","","","JUAN DOMINGO PERON PJE SAN FRA","","","",4560,0,"09",10,"23-00000000-0",0,"","","N","C","57","703"
"2239623","2020-12-01","ORTIZ CORINA",96,24062573,"PASAJE 5",5,"0","","",". .","","","",4560,0,"09",2,"23-00000000-0",0,"","","N","S","57","703"
"2239709","2020-11-09","CORDOBA CARLA VANESA DEL ",96,31311402,"SAN GENARO 250",250,"0","","","","","","",4560,0,"09",10,"23-00000000-0",0,"","","N","C","57","703"
"2240622","2020-11-09","ARIAS LUCIA EVANGELINA",96,41180507,"9 D JULIO 1378 1378",1378,"0","","",". .","","","",4550,0,"09",2,"23-00000000-0",0,"","","N","S","57","703"
"2240624","2020-11-09","ARRAYA LORENA ALICIA",96,40523151,"LOS SAUCES 571",571,"0","","","","","","",4530,0,"09",2,"23-00000000-0",0,"","","N","S","57","703"
"2240795","2020-11-09","FERNANDEZ ORDOEZ PATRICIA",96,33668492,"MZA 12 1",1,"0","","","","","","",4560,0,"09",2,"23-00000000-0",0,"","","N","S","57","703"
"2245108","2020-12-01","MORALES DANIELA BELEN",96,41369530,"COLON 181",181,"0","","","","","","",4534,0,"09",2,"23-00000000-0",0,"","","N","S","57","703"
"2245120","2020-12-01","VAZQUEZ MARTA ANDREA",96,31336496,"PASAJE SALTA 2",2,"0","","","","","","",4562,0,"09",2,"23-00000000-0",0,"","","N","S","57","703"
"2245145","2020-12-01","TELAMAS RIOJAS MARIA DE B",96,93955549,"GUEMES 120",120,"0","","","NTRA SE ORA DEL MILAGRO","","","",4562,0,"09",2,"23-00000000-0",0,"","","N","S","57","703"
"2245147","2020-12-01","MARTINEZ MABEL ROSANA",96,13570939,"RUTA NACIONAL 85 12",12,"0","","","","","","",4560,0,"09",2,"23-00000000-0",0,"","","N","S","57","703"
"2245150","2020-12-01","MOLINA MIRIAM ELIZABETH",96,27468929,"MZA J 19",19,"0","","","","","","",4560,0,"09",2,"23-00000000-0",0,"","","N","S","57","703"
"2245159","2020-12-01","SOSA DANIELA PAOLA",96,34621182,"SUIPACHA 1",1,"0","","","EUCALIPTO","","","",4560,0,"09",2,"23-00000000-0",0,"","","N","S","57","703"
"2245214","2020-12-01","DULON JOSEFINA",96,23048148,"MZA32 2",2,"0","","","","","","",4533,0,"09",2,"23-00000000-0",0,"","","N","S","57","703"
"2245263","2020-12-01","CONTRERAS RUTH PATRICIA",96,29570728,"BLOCK D 7",7,"0","","","","","","",4560,0,"09",2,"23-00000000-0",0,"","","N","S","57","703"
"2245276","2020-12-01","PINERO MARTINEZ DANIELA M",96,40629965,"MZA M 2",2,"0","","","","","","",4560,0,"09",2,"23-00000000-0",0,"","","N","S","57","703"
"2249807","2020-12-29","MIGUEL SILVIA PAOLA",96,26923306,"SARMIENTO 229",229,"0","","","","","","",4530,0,"09",2,"23-00000000-0",0,"","","N","S","57","703"
"2249825","2020-12-29","ARAOZ DEBORA DINA",96,29082782,"LAS TIPAS 1598",1598,"0","","","","","","",4530,0,"09",2,"23-00000000-0",0,"","","N","S","57","703"
"2249898","2020-12-29","1 MARTINEZ FRANCISCA ANGE",96,28328173,"AV SAN MARTIN 816",816,"0","","",".","","","",4568,0,"09",10,"23-00000000-0",0,"","","N","C","57","703"
"2249920","2020-12-29","1 TORRICO ROSALIA SABINA",96,30269555,"AVELLANEDA",0,"0","","",".","","","",4568,0,"09",2,"23-00000000-0",0,"","","N","S","57","703"
"2249921","2020-12-29","1 VILLAGRAN IRMA NATALIA",96,31196852,"BELGRANO 200",200,"0","","",".","","","",4568,0,"09",10,"23-00000000-0",0,"","","N","C","57","703"
"2249930","2020-12-29","1 BENITEZ JOANA DEL VALLE",96,38274235,"AV SARMIENTO",0,"0","","",".","","","",4568,0,"09",10,"23-00000000-0",0,"","","N","C","57","703"
"2250235","2020-12-29","PEREDO BAHIA A NOELI DEL ",96,34311987,"MZA P 16",16,"0","","","","","","",4560,0,"09",2,"23-00000000-0",0,"","","N","S","57","703"
"2250247","2020-12-29","OLIVERA LUISA CAROLINA",96,24705830,"LA MADRID 834",834,"0","","","","","","",4530,0,"09",2,"23-00000000-0",0,"","","N","S","57","703"
"2250267","2020-12-29","MEDINA CECILIA ROXANA",96,33429567,"MARIANO MORENO 152",152,"0","","","","","","",4530,0,"09",2,"23-00000000-0",0,"","","N","S","57","703"
"2250356","2020-12-29","CRUZ ALICIA BEATRIZ",96,40516240,"MZA P 16",16,"0","","","","","","",4560,0,"09",2,"23-00000000-0",0,"","","N","S","57","703"
"2250371","2020-12-29","1 FIGUEROA ALICIA CECILIA",96,35837270,"PASAJE JUAN TANQUIA 36",36,"0","","","SARMIENTO. HIPOLITO YRIGOYEN","","","",4566,0,"09",2,"23-00000000-0",0,"","","N","S","57","703"
"2250557","2020-12-29","LLAMANI GUADALUPE GISEL D",96,41370370,"PUES 1RO DE MAYO 6",6,"0","","","","","","",4562,0,"09",2,"23-00000000-0",0,"","","N","S","57","703"
"2253483","2021-01-28","SOSA JESICA ROMINA",96,31764279,"INTENDENTE VILLAFLOR 386",386,"0","","","","","","",4560,0,"09",2,"23-00000000-0",0,"","","N","S","57","703"
"2253517","2021-04-25","CORONEL MARLENE ELIZABETH",96,24404218,"ALMIRANTE BROWN 450",450,"0","","","","","","",4560,0,"09",2,"23-00000000-0",0,"","","N","S","57","703"
"2253521","2021-01-28","1 PADILLA PAOLA ANDREA",96,23981318,"SARMIENTO",0,"0","","","DEAN FUNES","","","",4568,0,"09",2,"23-00000000-0",0,"","","N","S","57","703"
"2253522","2021-01-28","NUNEZ LUCIA MARQUESA",96,30443684,"BABILONIA 87",87,"0","","","","","","",4560,0,"09",10,"23-00000000-0",0,"","","N","C","57","703"
"2253525","2021-01-28","ARIAS MARCELA KARINA",96,38272733,"LOS CEBILES 192",192,"0","","","","","","",4560,0,"09",2,"23-00000000-0",0,"","","N","S","57","703"
"2253526","2021-01-28","GERARDO GUTIERREZ LISHET ",96,42815882,"AV JAIME FIGUEROA 12",12,"0","","","","","","",4560,0,"09",2,"23-00000000-0",0,"","","N","S","57","703"
"2256723","2021-04-25","1 OBEID ADRIANA CAROLINA",96,28336217,"AV SAN MARTIN 280",280,"0","","","","","","",4568,0,"09",2,"23-00000000-0",0,"","","N","S","57","703"
"2256878","2021-04-25","SECO OLGA",96,16080482,"PARAGUAY 19",19,"0","","","","","","",4530,0,"09",2,"23-00000000-0",0,"","","N","S","57","703"
"2257505","2021-04-25","BERROCAL VALERIA PAOLA",96,40329709,"PJE SAN SALVADOR 636",636,"0","","","","","","",4560,0,"09",2,"23-00000000-0",0,"","","N","S","57","703"
"2257507","2021-04-25","VERON MARIA MERCEDES",96,18033429,"MZA 19A 6",6,"0","","","","","","",4560,0,"09",2,"23-00000000-0",0,"","","N","S","57","703"
"2257531","2021-04-25","HERRERA CLAUDIA ELIZABETH",96,21792043,"AV RUDECINDO ALVARADO 160",160,"0","","","9 DE JULIO","","","",4562,0,"09",2,"23-00000000-0",0,"","","N","S","57","703"
"2257567","2021-04-25","RODRIGUEZ GRACIELA MONICA",96,32232524,"CONSCRIPTO JUAREZ MZA E 3",3,"0","","","","","","",4534,0,"09",2,"23-00000000-0",0,"","","N","S","57","703"
"2257568","2021-04-25","DAVALO NAHIR ANTONELLA DE",96,36898580,"AV 16 DE ABRIL 635",635,"0","","","","","","",4534,0,"09",2,"23-00000000-0",0,"","","N","S","57","703"
"2257576","2021-04-25","ROLDAN SILVIA ALEJANDRA",96,25150459,"PJE CAMPO DURAN MZA 97B 2",2,"0","","","","","","",4560,0,"09",2,"23-00000000-0",0,"","","N","S","57","703"
"2257579","2021-04-25","RIOS JOSEFINA DEL CORAZON",96,25506534,"AV MOSCONI 834",834,"0","","","","","","",4560,0,"09",2,"23-00000000-0",0,"","","N","S","57","703"
"2257605","2021-04-25","LOPEZ PATRICIA MAGDALENA",96,31167847,"AVENID JUAN DOMINGO PERON 303",303,"0","","",". .","","","",4550,0,"09",2,"23-00000000-0",0,"","","N","S","57","703"
"2257641","2021-04-25","RODAS MARGARITA PAOLA",96,30675654,"PASAJE AVELLANEDA 929",929,"0","","","","","","",4530,0,"09",2,"23-00000000-0",0,"","","N","S","57","703"
"2257719","2021-04-25","NAVARRETA ESTEFANIA VALER",96,33138880,"NECOCHEA 297",297,"0","","","","","","",4560,0,"09",2,"23-00000000-0",0,"","","N","S","57","703"
"2257727","2021-04-25","LUZA YANINA SOLEDAD",96,36136117,"2DO PASAJE 2",2,"0","","","","","","",4560,0,"09",2,"23-00000000-0",0,"","","N","S","57","703"
"2258242","2021-04-25","VALDEZ YANELA ARIANA",96,28996326,"LAVALLE 1137",1137,"0","","","","","","",4530,0,"09",2,"23-00000000-0",0,"","","N","S","57","703"
"2262470","2021-04-25","RANOLDO HILARIA",96,25841051,"LAS QUINAS 195",195,"0","","","","","","",4561,0,"09",2,"23-00000000-0",0,"","","N","S","57","703"
"2262491","2021-04-25","MERCADO ALEJANDRA NOELIA",96,38508124,"CARLOS LOPEZ PEREYRA",0,"0","","","SALTA BUENOS AIRES","","","",4562,0,"09",2,"23-00000000-0",0,"","","N","S","57","703"
"2262561","2021-04-25","VAZQUEZ LIDIA AGUSTINA",96,28340215,"24 DE SEPTIEMBRE 78",78,"0","","","","","","",4560,0,"09",2,"23-00000000-0",0,"","","N","S","57","703"
"2262625","2021-04-25","NIEVA GABRIELA GISELA",96,39006822,"MZA H 6",6,"0","","","","","","",4562,0,"09",2,"23-00000000-0",0,"","","N","S","57","703"
"2262729","2021-04-25","ROJA ZULMA GRACIELA",96,24247059,"ESPANA 1060",1060,"0","","","24 DE SEPTIEMBRE AMERICA","","","",4560,0,"09",2,"23-00000000-0",0,"","","N","S","57","703"
"2262816","2021-04-25","RUIZ NELIDA CLARA",96,11568408,"BRASIL 12",12,"0","","","PILCOMAYO","","","",4560,0,"09",2,"23-00000000-0",0,"","","N","S","57","703"
"2263171","2021-04-25","ARANDA RAQUEL KARINA",96,35928523,"BOLIVIA 1362",1362,"0","","","","","","",4560,0,"09",2,"23-00000000-0",0,"","","N","S","57","703"
"2263176","2021-04-25","ARANDA ROSANA ISABEL",96,39893757,"COLOMBIA 252",252,"0","","","","","","",4560,0,"09",2,"23-00000000-0",0,"","","N","S","57","703"
"2263469","2021-04-25","ALLOSA DAIANA ANAHI",96,36707583,"MZA C 12",12,"0","","","","","","",4532,0,"09",2,"23-00000000-0",0,"","","N","S","57","703"
"2263475","2021-04-25","ALCOBA JENNIFER AIA NICOL",96,43375842,"MARTIN GARCIA MZA M 1",1,"0","","","TIERRA DEL FUEGO ANTARTIDA","","","",4531,0,"09",2,"23-00000000-0",0,"","","N","S","57","703"
"2267116","2021-04-25","BETANCUR CARMEN NOELIA",96,38343205,"MORO DIAZ 86",86,"0","","","","","","",4530,0,"09",2,"23-00000000-0",0,"","","N","S","57","703"
"2267752","2021-04-25","GUARAZ SHIRLEY GIMENA",96,42552389,"TUCUMAN 66",66,"0","","","","","","",4560,0,"09",2,"23-00000000-0",0,"","","N","S","57","703"
"2267761","2021-04-25","CARRIZO ANDREA JULIETA",96,23885702,"23 DE AGOSTO 48",48,"0","","","","","","",4560,0,"09",2,"23-00000000-0",0,"","","N","S","57","703"
"2267766","2021-04-25","VELARDE NATALIA FANNY",96,25437682,"MZA 44A 9",9,"0","","","","","","",4530,0,"09",2,"23-00000000-0",0,"","","N","S","57","703"
"2267767","2021-04-25","VACA PATRICIA RAMONA",96,26045360,"PATAGONIA 220 MZA 68A 14",14,"0","","","","","","",4560,0,"09",2,"23-00000000-0",0,"","","N","S","57","703"
"2267777","2021-04-25","VILLENA MARIELA PAOLA",96,31897934,"PASAJE VOCES DE ORAN 27",27,"0","","","","","","",4530,0,"09",2,"23-00000000-0",0,"","","N","S","57","703"
"2267778","2021-04-25","RONDAL ANDREA CECILIA",96,32192371,"SALTA 288",288,"0","","","","","","",4560,0,"09",2,"23-00000000-0",0,"","","N","S","57","703"
"2267787","2021-04-25","ARIAS JUAN PABLO",96,32894809,"MZA P 16",16,"0","","","","","","",4560,0,"09",2,"23-00000000-0",0,"","","N","S","57","703"
"2267795","2021-04-25","TEJERINA NERINA RAMONA",96,39401309,"AVDA ANDINO 12",12,"0","","","COMUNIDAD VITICHE FINAL BARRIO","","","",4560,0,"09",2,"23-00000000-0",0,"","","N","S","57","703"
"2267796","2021-04-25","VILLALBA ANDREA JIMENA",96,34847193,"PASAJE SAN JOSE 72",72,"0","","","","","","",4560,0,"09",2,"23-00000000-0",0,"","","N","S","57","703"
"2267798","2021-04-25","FERNANDEZ GIMENA MABEL",96,35281358,"24 SETIEMBRE MZA B 2",2,"0","","","","","","",4560,0,"09",2,"23-00000000-0",0,"","","N","S","57","703"
"2267800","2021-04-25","MEJIAS ADRIANA MARCELA",96,35596295,"AV SAN MARTIN 10",10,"0","","","G EMES","","","",4560,0,"09",2,"23-00000000-0",0,"","","N","S","57","703"
"2267801","2021-04-25","TABORGA ANAHI MARINES",96,36677376,"SANJA HONDA 34",34,"0","","","","","","",4569,0,"09",2,"23-00000000-0",0,"","","N","S","57","703"
"2267803","2021-04-25","TEJERINA CELESTE AYELEN",96,37190032,"MARIANO MORENO 823",823,"0","","","","","","",4560,0,"09",10,"23-00000000-0",0,"","","N","C","57","703"
"2267898","2021-04-25","FAREL GABRIELA ALEJANDRA",96,33183381,"SAN GERONIMO 190",190,"0","","","","","","",4560,0,"09",2,"23-00000000-0",0,"","","N","S","57","703"
"2267948","2021-04-25","1 SALAZAR PEREZ JUSTA",96,95621929,"LAS BANCAS 76",76,"0","","","","","","",4568,0,"09",10,"23-00000000-0",0,"","","N","C","57","703"
"2267953","2021-04-25","1 VILLAGRAN MIRIAM MIRTA ",96,24778522,"BELGRANO 200",200,"0","","","","","","",4568,0,"09",10,"23-00000000-0",0,"","","N","C","57","703"
"2268201","2021-04-25","BRESSA CARLA DANIELA",96,25144983,"MANZANA 67 1",1,"0","","","","","","",4560,0,"09",2,"23-00000000-0",0,"","","N","S","57","703"
"2268203","2021-04-25","WILLIG NOELIA PAOLA",96,30443549,"MANZANA 34C 10",10,"0","","","","","","",4560,0,"09",2,"23-00000000-0",0,"","","N","S","57","703"
"2268477","2021-04-25","MARTINEZ SARA",96,41020529,"MZA 18 40",40,"0","","","","","","",4534,0,"09",2,"23-00000000-0",0,"","","N","S","57","703"
"2268482","2021-04-25","MERILES VILMA LUCRECIA",96,31392690,"MZA C 7",7,"0","","","","","","",4534,0,"09",2,"23-00000000-0",0,"","","N","S","57","703"
"2268494","2021-04-25","SOSA DAIANA JAEL",96,38214218,"LUIS BURELA 919",919,"0","","","","","","",4530,0,"09",2,"23-00000000-0",0,"","","N","S","57","703"
"2269984","2021-04-25","SORIA GLORIA MABEL",96,24547717,"2DO PASAJE LOS ALGARROBOS 56",56,"0","","","","","","",4560,0,"09",2,"23-00000000-0",0,"","","N","S","57","703"
"2269986","2021-04-25","MEDINA NATALIA DEL CARMEN",96,42503124,"LAS HERAS 415",415,"0","","","GENERAL PAZ","","","",4560,0,"09",2,"23-00000000-0",0,"","","N","S","57","703"
"2270446","2021-04-25","NALLAR MARTA SOLEDAD",96,28964194,"MZA 19A 17",17,"0","","","","","","",4560,0,"09",10,"23-00000000-0",0,"","","N","C","57","703"
"2270953","2021-04-25","PAREDES VILMA",96,27645431,"PRINGLES 1072",1072,"0","","","","","","",4530,0,"09",2,"23-00000000-0",0,"","","N","S","57","703"
"2270956","2021-04-25","GARECA ANDREA BELEN",96,40658851,"SANTA FE 59",59,"0","","","","","","",4530,0,"09",2,"23-00000000-0",0,"","","N","S","57","703"
"2270957","2021-04-25","CABALLERO FRANCISCA ROMEL",96,33138619,"12 DE OCTUBRE 1510",1510,"0","","","ECUADOR","","","",4560,0,"09",2,"23-00000000-0",0,"","","N","S","57","703"
"2270958","2021-04-25","RODRIGUEZ ROSARIO TRINIDA",96,40355285,"MZN.44 A 10",10,"0","","","","","","",4530,0,"09",2,"23-00000000-0",0,"","","N","S","57","703"
"2270959","2021-04-25","ORTIZ JOHANA DE LOS ANGEL",96,34960307,"MNZ.95 B 18",18,"0","","","","","","",4530,0,"09",2,"23-00000000-0",0,"","","N","S","57","703"
"2270960","2021-04-25","LOPEZ ANA LAURA",96,36047976,"SEBASTIAN CUENCA 3",3,"0","","","","","","",4530,0,"09",2,"23-00000000-0",0,"","","N","S","57","703"
"2271585","2021-04-25","AMAYA MAYRA ESTHER",96,36379732,"PJE 13 JUNIO 995",995,"0","","","ESQUINA 24 SETIEMBRE","","","",4560,0,"09",2,"23-00000000-0",0,"","","N","S","57","703"
"2271793","2021-04-25","BICHI MIRIAN DEL MAR",96,39217042,"PJE PATRICIAS ARGENTINAS 785",785,"0","","","CORDOBA CORRIENTES","","","",4530,0,"09",2,"23-00000000-0",0,"","","N","S","57","703"
"2271794","2021-04-25","AYLAN ROSA DEBORA JOHANA",96,36677191,"COLOMBIA 252",252,"0","","","","","","",4560,0,"09",2,"23-00000000-0",0,"","","N","S","57","703"
"2271805","2021-04-25","VILAR CARLA MICAELA",96,42917232,"DINARCO MZA K 2",2,"0","","","","","","",4534,0,"09",2,"23-00000000-0",0,"","","N","S","57","703"
"2271824","2021-04-25","MAZA GLADIS INES",96,23577041,"MZA E 21",21,"0","","","","","","",4560,0,"09",2,"23-00000000-0",0,"","","N","S","57","703"
"2271834","2021-04-25","DUTRE NORA RAQUEL",96,20750045,"MZA N 11",11,"0","","","","","","",4562,0,"09",2,"23-00000000-0",0,"","","N","S","57","703"
"2271881","2021-04-25","MAXIMO SOFIA ESTHER",96,22485260,"LOS ALAMOS 299",299,"0","","","","","","",4552,0,"09",2,"23-00000000-0",0,"","","N","S","57","703"
"2271884","2021-04-25","SOSA MAIKENA VERONICA SOF",96,40628996,"JOSE G ARTIGAS 215",215,"0","","","","","","",4560,0,"09",2,"23-00000000-0",0,"","","N","S","57","703"
"2271895","2021-04-25","CARABAJAL KAREN CAMILA",96,41811011,"MAESTRO TAPIA GARZON 560",560,"0","","","","","","",4560,0,"09",2,"23-00000000-0",0,"","","N","S","57","703"
"2271898","2021-04-25","PALMA TAMARA DE LOS ANGEL",96,44137818,"MZA B 6",6,"0","","",". .","","","",4534,0,"09",2,"23-00000000-0",0,"","","N","S","57","703"
"2271916","2021-04-25","CHAVARRIA MIRNA ELIZABETH",96,25637527,"LOS CEBILES 158",158,"0","","","","","","",4552,0,"09",10,"23-00000000-0",0,"","","N","C","57","703"
"2271919","2021-04-25","BARRERA LAURA ALEJANDRI",96,27725431,"PASAJE MALVINAS ARGENTINA 715",715,"0","","","","","","",4562,0,"09",2,"23-00000000-0",0,"","","N","S","57","703"
"2271930","2021-08-18","OLIMA VERONICA DEL VALLE",96,28810021,"MZA 17B 20",20,"0","","","","","","",4562,0,"09",2,"23-00000000-0",0,"","","N","S","57","703"
"2271931","2021-04-25","MARIN VANESA GABRIELA",96,31372336,"MZA B 9",9,"0","","","","","","",4562,0,"09",2,"23-00000000-0",0,"","","N","S","57","703"
"2271933","2021-04-25","ARDILES EVA PAOLA",96,35787367,"MZA D 6",6,"0","","","","","","",4562,0,"09",2,"23-00000000-0",0,"","","N","S","57","703"
"2271977","2021-04-25","LEDESMA ROXANA ALEJANDRA",96,41986417,"GURRUCHAGA 155",155,"0","","","","","","",4562,0,"09",2,"23-00000000-0",0,"","","N","S","57","703"
"2272118","2021-04-25","MOYANO SANDRA NOEMI",96,23400617,"MZA A 5",5,"0","","","","","","",4562,0,"09",2,"23-00000000-0",0,"","","N","S","57","703"
"2272127","2021-04-25","SALAZAR MARQUEZ LENIS HAY",96,18833433,"9 DE JULIO 32",32,"0","","","","","","",4534,0,"09",2,"23-00000000-0",0,"","","N","S","57","703"
"2272366","2021-04-25","GOMEZ FABIANA ESTELA",96,38186003,"MZA B 5",5,"0","","","","","","",4534,0,"09",2,"23-00000000-0",0,"","","N","S","57","703"
"2275489","2021-04-29","SALDANO EVANGELINA FERNAN",96,35783951,"82 VIVIENDAS MZA 75 16",16,"0","","","BARRIO DETRAS CANCHA ALLIANZA ","","","",4560,0,"09",2,"23-00000000-0",0,"","","N","S","57","703"
"2275491","2021-04-29","RUIZ MARGARITA DE LOS ANG",96,41422431,"PJE. SAN FRANCISCO 3",3,"0","","","","","","",4560,0,"09",10,"23-00000000-0",0,"","","N","C","57","703"
"2275493","2021-04-29","ABREGU MILAGROS ESTEFANIA",96,41529841,"AVDA JAIME FIGURROA 610",610,"0","","","RUTA NAC 34","","","",4562,0,"09",2,"23-00000000-0",0,"","","N","S","57","703"
"2276094","2021-04-29","PRIETO MARTHA CARINA",96,27131763,"AVENIDA CASIANO 100",100,"0","","","","","","",4562,0,"09",2,"23-00000000-0",0,"","","N","S","57","703"
"2276099","2021-04-29","RODRIGUEZ NATALIA LURDES",96,35837637,"LAS TIPAS 1",1,"0","","","LAS TARIJAS RUTA 34","","","",4552,0,"09",2,"23-00000000-0",0,"","","N","S","57","703"
"2276108","2021-04-29","ATUICA NORMA BEATRIZ",96,27252405,"PJE MAGALLANES 802",802,"0","","","","","","",4560,0,"09",2,"23-00000000-0",0,"","","N","S","57","703"
"2276121","2021-04-29","GALLARDO JENIFER YAMILA",96,40889029,"MZA B 5",5,"0","","","","","","",4562,0,"09",2,"23-00000000-0",0,"","","N","S","57","703"
"2276332","2021-04-29","1 RAMOS SOTO YOYI GUILIAN",96,5045029,"PILCOMAYO 53",53,"0","","","MENDEZ","","","",4568,0,"09",2,"23-00000000-0",0,"","","N","S","57","703"
"2276421","2021-04-29","MENDEZ GLORIA LILIANA",96,20511666,"ENTRE RIOS 121",121,"0","","","","","","",4534,0,"09",2,"23-00000000-0",0,"","","N","S","57","703"
"2276498","2021-04-29","GARVIZU CAMILA FLORENCIA",96,44401692,"PRINGLES 155",155,"0","","","","","","",4530,0,"09",2,"23-00000000-0",0,"","","N","S","57","703"
"2278811","2021-05-10","MANZUR FLORENCIA ALEJANDR",96,41121967,"20 DE FEBRERO 431",431,"0","","","","","","",4560,0,"09",2,"23-00000000-0",0,"","","N","S","57","703"
"2278812","2021-08-18","VALDIVIEZO SARA ABIGAIL",96,43640928,"CARIM ABDALA 44",44,"44 C","1","","","","","",4530,0,"09",2,"23-00000000-0",0,"","","N","S","57","703"
"2278813","2021-06-01","ASOGUE MARIA",96,32934684,"LAS TIPAS 530",530,"0","","","","","","",4560,0,"09",2,"23-00000000-0",0,"","","N","S","57","703"
"2278820","2021-05-10","LANUZA BEATRIZ ELVIRA",96,11888700,"SAN ANTONIO 254",254,"0","","","","","","",4560,0,"09",2,"23-00000000-0",0,"","","N","S","57","703"
"2279429","2021-05-10","ESPINOSA DAIANA DEBORA",96,39891037,"MZA 43 19",19,"0","","","","","","",4534,0,"09",2,"23-00000000-0",0,"","","N","S","57","703"
"2279434","2021-05-10","FERNANDEZ JESSICA JOHANA",96,35782952,"AV PRESIDENTE PERON 777",777,"0","","","","","","",4562,0,"09",2,"23-00000000-0",0,"","","N","S","57","703"
"2279440","2021-05-10","OLIMA ELIZABETH DEL VALLE",96,27725366,"MZA 73 5",5,"0","","","","","","",4560,0,"09",2,"23-00000000-0",0,"","","N","S","57","703"
"2279446","2021-05-10","1 ALCON BALTAZAR OLGA BEA",96,92002471,"SAN MARTIN 26",26,"0","","","","","","",4568,0,"09",2,"23-00000000-0",0,"","","N","S","57","703"
"2279456","2021-05-10","AHUMADA RUTH NOEMI",96,41340165,"LOS ALAMOS 33",33,"0","","","1 DE MAYO GASODUCTO","","","",4552,0,"09",2,"23-00000000-0",0,"","","N","S","57","703"
"2282701","2021-06-19","CHIRAPANI PERLA FERNANDA",96,45433442,"PARAGUAY 1960",1960,"0","","","","","","",4560,0,"09",2,"23-00000000-0",0,"","","N","S","57","703"
"2282714","2021-06-01","LOPEZ ROMINA ALEJANDRA",96,40523550,"MZA 20B CASA 25",25,"0","","","","","","",4560,0,"09",10,"23-00000000-0",0,"","","N","C","57","703"
"2282725","2021-06-01","OJEDA MARIANA DEL MILAGRO",96,26662968,"SAN LUCAS 691",691,"0","","","","","","",4560,0,"09",2,"23-00000000-0",0,"","","N","S","57","703"
"2282731","2021-06-01","ALMAGRO CAROLA LORENA",96,27591521,"CNEL VILTE MZA 4 1",1,"0","","","PJE HERNANDEZ","","","",4560,0,"09",2,"23-00000000-0",0,"","","N","S","57","703"
"2282740","2021-06-01","URRICHE JESSICA ELIZABETH",96,31767911,"SAN ANTONIO 622",622,"0","","","","","","",4560,0,"09",10,"23-00000000-0",0,"","","N","C","57","703"
"2282752","2021-06-01","CUELLAR ESTHER ALICIA",96,34311977,"LOS PINOS 7",7,"0","MZA A","","","","","",4560,0,"09",10,"23-00000000-0",0,"","","N","C","57","703"
"2282933","2021-06-01","TERCERO AURELIA",96,16773627,"MZA L 1",1,"0","","","2DA ETAPA","","","",4534,0,"09",2,"23-00000000-0",0,"","","N","S","57","703"
"2282938","2021-06-01","VAZQUEZ SOFIA ANALIA",96,31394108,"LOPEZ PEREYRA 500",500,"0","","","","","","",4562,0,"09",10,"23-00000000-0",0,"","","N","C","57","703"
"2282940","2021-06-01","VARGAS CARLA GISELA",96,40516336,"MEXICO 11",11,"0","","","9 DE JULIO PJE VIRGEN DEL VALL","","","",4560,0,"09",10,"23-00000000-0",0,"","","N","C","57","703"
"2282946","2021-06-01","1 LLANOS OROPEZA YOSELYN",96,5037993,"SAN MARTIN 1268",1268,"0","","","","","","",4568,0,"09",2,"23-00000000-0",0,"","","N","S","57","703"
"2282960","2021-06-01","1 CAYO PACO SILVIA EUGENI",96,5800599,"SAN MARTIN 1243",1243,"0","","","","","","",4568,0,"09",2,"23-00000000-0",0,"","","N","S","57","703"
"2282962","2021-06-01","NAVARRETA ROSALIA SILVANA",96,29737629,"MZA 61C 12",12,"0","","","","","","",4560,0,"09",2,"23-00000000-0",0,"","","N","S","57","703"
"2282983","2021-06-01","CARRANZA CAROLINA LEONOR",96,34606331,"MZA51 A 16",16,"0","","","","","","",4560,0,"09",10,"23-00000000-0",0,"","","N","C","57","703"
"2282994","2021-06-01","ARGANARAZ BRISA DOLORES D",96,41052112,"MZA 1 24",24,"0","","","","","","",4560,0,"09",10,"23-00000000-0",0,"","","N","C","57","703"
"2283002","2021-06-01","SERVIN ARACELI EDITH",96,41422456,"MAESTRO TAPIA GARZON 515",515,"0","","","","","","",4560,0,"09",2,"23-00000000-0",0,"","","N","S","57","703"
"2283006","2021-06-01","RAMOS AGOSTINA FERNANDA",96,42379542,"BLOCK K 681",681,"0","15","","135 DPTOS","","","",4560,0,"09",2,"23-00000000-0",0,"","","N","S","57","703"
"2286259","2021-06-19","1 BOTTONE CAROLINA ALEJAN",96,43950262,"JUAN D PERON SN 320",320,"0","","","","","","",4562,0,"09",2,"23-00000000-0",0,"","","N","S","57","703"
"2286334","2021-06-19","PARADA FERNANDEZ MARIA BE",96,44492654,"SARMIENTO 1685",1685,"0","","","","","","",4530,0,"09",2,"23-00000000-0",0,"","","N","S","57","703"
"2286339","2021-06-19","CRUZ GRISELDA CARINA",96,43688140,"JUSTINA LEIRA MZN. 15 16",16,"0","","","","","","",4530,0,"09",2,"23-00000000-0",0,"","","N","S","57","703"
"2287135","2021-06-19","EG EZ AILIN DAIANA",96,35280492,"5 PASAJE 3",3,"0","","","","","","",4560,0,"09",2,"23-00000000-0",0,"","","N","S","57","703"
"2287287","2021-07-13","CASTILLO ROCIO YOLANDA",96,33668905,"FACUNDO QUIROGA 30",30,"0","B","","","","","",4560,0,"09",2,"23-00000000-0",0,"","","N","S","57","703"
"2290316","2021-07-13","ESCANO NOEMI ELIZABETH",96,24072510,"PRIMERA JUNTA 307",307,"0","","","","","","",4560,0,"09",2,"23-00000000-0",0,"","","N","S","57","703"
"2290317","2021-07-13","GRANEROS LORENA DEL VALLE",96,29889664,"MNA A CASA 3",3,"0","","","","","","",4560,0,"09",2,"23-00000000-0",0,"","","N","S","57","703"
"2290319","2021-07-13","ORTIZ ROMINA MICAELA",96,43950060,"ESPANA 1060",1060,"0","","","AMERICA 24 DE SEPTIEMBRE","","","",4560,0,"09",2,"23-00000000-0",0,"","","N","S","57","703"
"2290368","2021-07-13","LUNA DEBORA ELIZABETH",96,40935036,"PJE ROFFINI 739",739,"0","","","TUCUMAN CORONEL VIDT","","","",4560,0,"09",2,"23-00000000-0",0,"","","N","S","57","703"
"2290369","2021-07-13","AREVALO MELISA DEL VALLE",96,39784899,"MANZANA C 11",11,"0","","","PARCELA 20","","","",4560,0,"09",2,"23-00000000-0",0,"","","N","S","57","703"
"2290375","2021-07-13","BACHE CAROLINA ELIZABETH",96,32684314,"BARTOLOME MITRE 160",160,"0","","","AV.PACKHAM BERDINA","","","",4560,0,"09",2,"23-00000000-0",0,"","","N","S","57","703"
"2290386","2021-07-13","FIGUEROA MARTHA SUSANA",96,14488134,"MAESTRA TORANZO 50",50,"0","","","PROF. LOUSA LOS CLAVELES","","","",4560,0,"09",2,"23-00000000-0",0,"","","N","S","57","703"
"2290526","2021-07-13","MENDOZA DAIANA FLORENCIA",96,40575182,"ANTARTIDA ARGENTINA 408",408,"0","","","ALVEAR","","","",4530,0,"09",2,"23-00000000-0",0,"","","N","S","57","703"
"2290531","2021-07-13","RUIZ MARIA DEL CARMEN",96,32934325,"ECUADOR 110",110,"0","","","","","","",4560,0,"09",2,"23-00000000-0",0,"","","N","S","57","703"
"2290533","2021-07-13","PIPARO LOURDES GUADALUPE",96,37415077,"SARMIENTO 1130",1130,"0","","","","","","",4560,0,"09",2,"23-00000000-0",0,"","","N","S","57","703"
"2290551","2021-07-13","RUIZ CAMILA KAROLINA",96,40469110,"MZA C 14",14,"0","","","","","","",4550,0,"09",2,"23-00000000-0",0,"","","N","S","57","703"
"2290824","2021-07-13","1 RUIZ LUNA YAQUELINE",96,5054788,"SAN MARTIN 234",234,"0","","","","","","",4568,0,"09",10,"23-00000000-0",0,"","","N","C","57","703"
"2290847","2021-07-13","MARTINEZ MONICA MARILIN",96,35073991,"AV 35 DE MAYO 950",950,"0","","","","","","",4550,0,"09",2,"23-00000000-0",0,"","","N","S","57","703"
"2290856","2021-07-13","CUSSI MARIBEL AZUCENA",96,35909393,"MZA 2 5",5,"0","","","RIVADAVIA","","","",4532,0,"09",10,"23-00000000-0",0,"","","N","C","57","703"
"2291072","2021-07-13","GARECA MARISA",96,30932217,"MZA S CASA 8",0,"0","","","","","","",4560,0,"09",2,"23-00000000-0",0,"","","N","S","57","703"
"2291197","2021-07-13","CHAVEZ ROSANA DANIELA",96,30443604,"SAN MATEO 281",281,"0","","","MARIANO MORENO PASAJE 4","","","",4560,0,"09",10,"23-00000000-0",0,"","","N","C","57","703"
"2294139","2021-07-30","1 ANACHURI CARLA ABIGAIL",96,41372409,"MANZANA 199 4",4,"0","","","","","","",4568,0,"09",2,"23-00000000-0",0,"","","N","S","57","703"
"2294147","2021-07-30","GUTIERREZ KAREN DAIANA",96,39890931,"SANTA ANA 640",640,"0","","","","","","",4560,0,"09",2,"23-00000000-0",0,"","","N","S","57","703"
"2294151","2021-07-30","MOLINA CAMILA FERNANDA",96,39006754,"VENEZUELA 225",225,"0","","","","","","",4560,0,"09",10,"23-00000000-0",0,"","","N","C","57","703"
"2294163","2021-07-30","PAREDES DALMA CECILIA",96,37302789,"BELEN 86",86,"0","","","","","","",4560,0,"09",2,"23-00000000-0",0,"","","N","S","57","703"
"2294175","2021-07-30","MARTINEZ RAMONA DEL VALLE",96,14329669,"AVDA FRAY M. ESQUIU 202",202,"0","","","","","","",4562,0,"09",2,"23-00000000-0",0,"","","N","S","57","703"
"2294251","2021-07-30","SERVIN MARCIA VANINA",96,40328988,"MAESTRO TAPIA GARZON 515",515,"0","","","","","","",4560,0,"09",2,"23-00000000-0",0,"","","N","S","57","703"
"2294360","2021-07-30","YAPURA BRAGA GIMENA DEL M",96,34874573,"MZA 72 9",9,"0","","","","","","",4560,0,"09",2,"23-00000000-0",0,"","","N","S","57","703"
"2294361","2021-07-30","ELEUTERIO JESICA CAROLINA",96,40112983,"LOS ALGARROBOS 190",190,"0","","","ESQUIU SALTA","","","",4560,0,"09",2,"23-00000000-0",0,"","","N","S","57","703"
"2294720","2021-07-30","AGUILERA GEOVANA",96,18868795,"PATAGONIA 253",253,"0","","","ESQUIU SUIPACHA","","","",4560,0,"09",2,"23-00000000-0",0,"","","N","S","57","703"
"2294721","2021-07-30","SEGUNDO LIGIA YAMILA DEL ",96,34329406,"MZA 28 A 9",9,"0","","","","","","",4560,0,"09",2,"23-00000000-0",0,"","","N","S","57","703"
"2294769","2021-07-30","ALBERTO ERIKA LUJAN",96,44492761,"SARMIENTO 497",497,"0","","","LOS CEDROS","","","",4530,0,"09",2,"23-00000000-0",0,"","","N","S","57","703"
"2295135","2021-07-30","URZAGASTE ZULEMA NAHIR",96,41019912,"PASAJE CISTERNA 1522",1522,"0","","","","","","",4530,0,"09",2,"23-00000000-0",0,"","","N","S","57","703"
"2295138","2021-07-30","LUIS ROSANA ELIZABETH",96,31081444,"HERNANDO DE LERMA 1655",1655,"0","","","","","","",4530,0,"09",2,"23-00000000-0",0,"","","N","S","57","703"
"2295230","2021-07-30","1 FLORES RICALD ANA VADU",96,7115147,"SAN MARTIN 612",612,"0","","","","","","",4568,0,"09",10,"23-00000000-0",0,"","","N","C","57","703"
"2295231","2021-07-30","1 ALVARADO RAMO RUFINA",96,93053993,"PASAJE LOS ANDES 35",35,"0","","","","","","",4568,0,"09",2,"23-00000000-0",0,"","","N","S","57","703"
"2295360","2021-07-30","1 BELTRAN NORMA BEATRIZ",96,18711666,"SALTA 32",32,"0","","","","","","",4568,0,"09",2,"23-00000000-0",0,"","","N","S","57","703"
"2295365","2021-07-30","1 RIVADENEIRA C KAREN LOR",96,1879311,"SAN MARTIN 222",222,"0","","","","","","",4568,0,"09",2,"23-00000000-0",0,"","","N","S","57","703"
"2295449","2021-07-30","RESINA MANZUR YAZMIN AGOS",96,43836123,"ALVARADO 385",385,"0","","","","","","",4530,0,"09",2,"23-00000000-0",0,"","","N","S","57","703"
"2295570","2021-07-30","MENDEZ PAOLA ALEJANDRA",96,28899493,"CHACO 237",237,"0","","","","","","",4534,0,"09",2,"23-00000000-0",0,"","","N","S","57","703"
"2295582","2021-07-30","CRUZ SILVIA AMANDA",96,26831615,"LA RIOJA 672",672,"0","","","","","","",4562,0,"09",2,"23-00000000-0",0,"","","N","S","57","703"
"2295583","2021-07-30","AVILA PATRICIA ADRIANA",96,18137953,"MZA Q 1",1,"0","","","","","","",4560,0,"09",2,"23-00000000-0",0,"","","N","S","57","703"
"2295584","2021-07-30","SALAS ERICA",96,34594470,"MZA C 8",8,"0","","","","","","",4532,0,"09",2,"23-00000000-0",0,"","","N","S","57","703"
"2295590","2021-07-30","1 SUSANO ESPINOSA LETITIA",96,4550418,"SAN MARTIN 111",111,"0","","","","","","",4568,0,"09",2,"23-00000000-0",0,"","","N","S","57","703"
"2297983","2021-08-18","GONZALEZ KEILA TAMARA",96,41422413,"MZA 123 7",7,"0","","","","","","",4560,0,"09",2,"23-00000000-0",0,"","","N","S","57","703"
"2297992","2021-08-18","GONZALEZ DEBORA DE LOS AN",96,35928642,"AVENIDA 20 DE FEBRERO 1700",1700,"0","","","JOSE ARTIGAS DEAN FUNES","","","",4560,0,"09",2,"23-00000000-0",0,"","","N","S","57","703"
"2298021","2021-08-18","VARELA MARIA ELENA",96,25829398,"BLOCK K 5",5,"0","","","MAESTRO TAPIA GARZON MAESTRO C","","","",4560,0,"09",2,"23-00000000-0",0,"","","N","S","57","703"
"2298022","2021-08-18","MAZA LEAL GRACIELA",96,17873344,"MAESTRO TAPIA GARZON 515",515,"0","","","","","","",4560,0,"09",2,"23-00000000-0",0,"","","N","S","57","703"
"2298040","2021-08-18","GOMEZ CARMEN LIDIA",96,24864274,"FRENCH 142",142,"0","","","","","","",4530,0,"09",2,"23-00000000-0",0,"","","N","S","57","703"
"2298041","2021-08-18","TORRES SOFIA ORNELLA DEL ",96,42753479,"BLOCK A DEPTO 5 891",891,"0","","","NECOCHEA","","","",4560,0,"09",2,"23-00000000-0",0,"","","N","S","57","703"
"2298043","2021-08-18","CAZON MERCEDES DELFINA DE",96,41179664,"25 DE MAYO 1149",1149,"0","","","ESQ PSJE ITUZAINGO","","","",4560,0,"09",2,"23-00000000-0",0,"","","N","S","57","703"
"2298050","2021-08-18","AYLAN ANDREA DEL VALLE",96,34605506,"PSJE 20 JUNIO 911",911,"0","","","","","","",4560,0,"09",2,"23-00000000-0",0,"","","N","S","57","703"
"2298051","2021-08-18","TARRAGA CELSA ELDA",96,20724508,"LAS TIPAS 368",368,"0","","","","","","",4562,0,"09",2,"23-00000000-0",0,"","","N","S","57","703"
"2298052","2021-08-18","GOMEZ CRISTINA DEL CARMEN",96,17561595,"GORRITI 1422",1422,"0","","","ALFONSINA STORNI JOSE HERNANDE","","","",4560,0,"09",2,"23-00000000-0",0,"","","N","S","57","703"
"2298053","2021-08-18","SALINAS PAULA DANIELA",96,18518786,"RUDECINDO ALVARADO 170",170,"0","","","","","","",4562,0,"09",2,"23-00000000-0",0,"","","N","S","57","703"
"2298542","2021-08-18","FLORES ADELA",96,24953902,"AVENIDA ANTARTIDA ARGENTI 20",20,"0","","","","","","",4532,0,"09",2,"23-00000000-0",0,"","","N","S","57","703"
"2298547","2021-08-18","1 AGUIRRE VALERIA PATRICI",96,30643718,"SARMIENTO 129",129,"0","","","","","","",4568,0,"09",10,"23-00000000-0",0,"","","N","C","57","703"
"2298555","2021-08-18","SERVIN CINTIA NOELIA",96,32214609,"SAN ISIDRO 50",50,"0","","","","","","",4560,0,"09",2,"23-00000000-0",0,"","","N","S","57","703"
"2298557","2021-08-18","VEGA CAROLINA ESTHER",96,35479299,"VELEZ SARSFIELD MZA E 21",21,"0","","","MARIANO MORENO LOS CLAVELES","","","",4560,0,"09",2,"23-00000000-0",0,"","","N","S","57","703"
"2298558","2021-08-18","RUIZ CAMILA PAMELA",96,42752047,"PARAGUAY 48",48,"0","","","5TO PASAJE","","","",4560,0,"09",2,"23-00000000-0",0,"","","N","S","57","703"
"2298565","2021-08-18","ARAUJO LAURA MARIA MERCED",96,30184762,"JUAN MANUEL DE ROSAS 551",551,".",".","","CONSTITUCION IGUALDAD","","","",4560,0,"09",2,"23-00000000-0",0,"","","N","S","57","703"
"2298567","2021-08-18","CASTRO ANDREA MELISA",96,35479436,"SAN MARTIN 625",625,"0","","","ARAOZ GORRITI","","","",4560,0,"09",2,"23-00000000-0",0,"","","N","S","57","703"
