"orden","n_comp","renglon","cod_art","cantidad","importe_neto","precio_neto","porc_iva","adicional","precio_lista","total_renglon","cuales","revend"
157,"B0000301054800",1,"1/100472-4",1.0,280.9343812,413.2148,21.0,"",499.99,499.99,"X",2249898
157,"B0000301054800",2,"1/100560-4",2.0,429.0576976,247.9256,21.0,"",299.99,599.98,"X",2249898
157,"B0000301054800",3,"1/100561-7",2.0,429.0576976,247.9256,21.0,"",299.99,599.98,"X",2249898
157,"B0000301054800",4,"1/100562-9",2.0,429.0576976,247.9256,21.0,"",299.99,599.98,"X",2249898
157,"B0000301054800",5,"1/100633-7",1.0,450.5184488,520.6528,21.0,"",629.99,629.99,"X",2249898
157,"B0000301054800",6,"1/100706-9",1.0,135.8656488,157.0165,21.0,"",189.99,189.99,"X",2249898
157,"B0000301054800",7,"1/100707-1",1.0,135.8656488,157.0165,21.0,"",189.99,189.99,"X",2249898
157,"B0000301054800",8,"1/100732-3",1.0,85.8072488,99.1652,21.0,"",119.99,119.99,"X",2249898
157,"B0000301054800",9,"1/100733-5",1.0,85.8072488,99.1652,21.0,"",119.99,119.99,"X",2249898
157,"B0000301054800",10,"1/100735-0",2.0,171.6144976,99.1652,21.0,"",119.99,239.98,"X",2249898
157,"B0000301054800",11,"1/100736-2",1.0,85.8072488,99.1652,21.0,"",119.99,119.99,"X",2249898
157,"B0000301054800",12,"1/100737-4",1.0,85.8072488,99.1652,21.0,"",119.99,119.99,"X",2249898
157,"B0000301054800",13,"1/100842-6",1.0,250.2848488,289.2479,21.0,"",349.99,349.99,"X",2249898
157,"B0000301054800",14,"1/100872-1",1.0,336.0992488,388.4214,21.0,"",469.99,469.99,"X",2249898
157,"B0000301054800",15,"1/100932-1",1.0,393.3088488,454.5371,21.0,"",549.99,549.99,"X",2249898
157,"B0000301054800",16,"1/100941-3",1.0,85.8072488,99.1652,21.0,"",119.99,119.99,"X",2249898
157,"B0000301054800",17,"1/100942-5",1.0,85.8072488,99.1652,21.0,"",119.99,119.99,"X",2249898
157,"B0000301054800",18,"1/100943-7",1.0,85.8072488,99.1652,21.0,"",119.99,119.99,"X",2249898
157,"B0000301054800",19,"1/100944-1",1.0,85.8072488,99.1652,21.0,"",119.99,119.99,"X",2249898
157,"B0000301054800",20,"1/100956-9",2.0,572.0816976,330.5702,21.0,"",399.99,799.98,"X",2249898
157,"B0000301054800",21,"4/100973-2",1.0,0.010216,0.0082,21.0,"",0.01,0.01,"X",2249898
157,"B0000301054800",22,"5/200934-1",1.0,694.6793164,661.1487,21.0,"",799.99,799.99,"X",2249898
157,"B0000301054800",23,"1/23095-4",1.0,321.7968488,371.8925,21.0,"",449.99,449.99,"X",2249898
157,"B0000301054800",24,"1/23902-8",1.0,114.4120488,132.2231,21.0,"",159.99,159.99,"X",2249898
157,"B0000301054800",25,"1/23903-0",2.0,228.8240976,132.2231,21.0,"",159.99,319.98,"X",2249898
157,"B0000301054800",26,"1/23906-7",1.0,114.4120488,132.2231,21.0,"",159.99,159.99,"X",2249898
157,"B0000301054800",27,"1/24611-3",1.0,357.5528488,413.2148,21.0,"",499.99,499.99,"X",2249898
157,"B0000301054800",28,"1/24677-4",1.0,143.0168488,165.2809,21.0,"",199.99,199.99,"X",2249898
157,"B0000301054800",29,"4/263-0",4.0,0.040864,0.0082,21.0,"",0.01,0.04,"X",2249898
157,"B0000301054800",30,"5/301637-4",1.0,295.2337164,280.9834,21.0,"",339.99,339.99,"X",2249898
157,"B0000301054800",31,"1/32415-7",1.0,214.5288488,247.9256,21.0,"",299.99,299.99,"X",2249898
157,"B0000301054800",32,"5/400417-2",5.0,868.316582,165.2809,21.0,"",199.99,999.95,"X",2249898
157,"B0000301054800",33,"5/402207-0",1.0,651.2613164,619.8264,21.0,"",749.99,749.99,"X",2249898
157,"B0000301054800",34,"5/402710-3",1.0,1042.0233164,991.7272,21.0,"",1199.99,1199.99,"X",2249898
157,"B0000301054800",35,"5/402937-6",1.0,807.5661164,768.5867,21.0,"",929.99,929.99,"X",2249898
157,"B0000301054800",36,"5/403062-8",1.0,173.6633164,165.2809,21.0,"",199.99,199.99,"X",2249898
157,"B0000301054800",37,"5/403260-1",2.0,277.8578328,132.2231,21.0,"",159.99,319.98,"X",2249898
157,"B0000301054800",38,"5/403261-3",2.0,347.3266328,165.2809,21.0,"",199.99,399.98,"X",2249898
157,"B0000301054800",39,"5/403281-2",1.0,564.4253164,537.1818,21.0,"",649.99,649.99,"X",2249898
157,"B0000301054800",40,"5/403426-4",1.0,338.6517164,322.3057,21.0,"",389.99,389.99,"X",2249898
157,"B0000301054800",41,"5/403674-0",1.0,225.7649164,214.8677,21.0,"",259.99,259.99,"X",2249898
157,"B0000301054800",42,"5/403692-5",2.0,3473.4226328,1652.8842,21.0,"",1999.99,3999.98,"X",2249898
157,"B0000301054800",43,"5/403723-5",2.0,347.3266328,165.2809,21.0,"",199.99,399.98,"X",2249898
157,"B0000301054800",44,"5/403725-9",4.0,659.9188656,157.0165,21.0,"",189.99,759.96,"X",2249898
157,"B0000301054800",45,"1/42217-6",1.0,286.0408488,330.5702,21.0,"",399.99,399.99,"X",2249898
157,"B0000301054800",46,"1/42216-3",1.0,286.0408488,330.5702,21.0,"",399.99,399.99,"X",2249898
157,"B0000301054800",47,"5/403767-1",4.0,486.2468656,115.6942,21.0,"",139.99,559.96,"X",2249898
157,"B0000301054800",48,"4/900063-2",1.0,0.010216,0.0082,21.0,"",0.01,0.01,"X",2249898
157,"B0000301054800",49,"4/8263-0",1.0,0.010216,0.0082,21.0,"",0.01,0.01,"X",2249898
157,"B0000301054800",50,"5/60366-9",6.0,781.4718984,123.9586,21.0,"",149.99,899.94,"X",2249898
157,"B0000301054800",51,"1/42205-7",1.0,286.0408488,330.5702,21.0,"",399.99,399.99,"X",2249898
157,"B0000301054800",52,"4/650244-1",4.0,0.040864,0.0082,21.0,"",0.01,0.04,"X",2249898
157,"B0000301054800",53,"1/41330-8",1.0,429.0648488,495.8595,21.0,"",599.99,599.99,"X",2249898
157,"B0000301054800",54,"1/41317-4",1.0,429.0648488,495.8595,21.0,"",599.99,599.99,"X",2249898
157,"B0000301054800",55,"4/500361-7",1.0,0.010216,0.0082,21.0,"",0.01,0.01,"X",2249898
157,"B0000301054800",56,"5/403828-5",1.0,225.7649164,214.8677,21.0,"",259.99,259.99,"X",2249898
157,"B0000301054800",57,"5/403829-7",1.0,225.7649164,214.8677,21.0,"",259.99,259.99,"X",2249898
157,"B0000301054800",58,"1/42224-3",1.0,286.0408488,330.5702,21.0,"",399.99,399.99,"X",2249898
157,"B0000301054800",59,"5/403794-8",2.0,260.4906328,123.9586,21.0,"",149.99,299.98,"X",2249898
157,"B0000301054800",60,"5/403827-2",1.0,225.7649164,214.8677,21.0,"",259.99,259.99,"X",2249898
158,"B0000301054801",1,"1/100735-0",1.0,85.8072488,99.1652,21.0,"",119.99,119.99,"X",2249920
158,"B0000301054801",2,"1/100902-8",1.0,135.8656488,157.0165,21.0,"",189.99,189.99,"X",2249920
158,"B0000301054801",3,"1/100906-6",1.0,135.8656488,157.0165,21.0,"",189.99,189.99,"X",2249920
158,"B0000301054801",4,"1/100931-9",2.0,1001.1536976,578.5041,21.0,"",699.99,1399.98,"X",2249920
158,"B0000301054801",5,"1/100932-1",1.0,393.3088488,454.5371,21.0,"",549.99,549.99,"X",2249920
158,"B0000301054801",6,"1/100935-7",2.0,500.5696976,289.2479,21.0,"",349.99,699.98,"X",2249920
158,"B0000301054801",7,"1/100949-2",2.0,500.5696976,289.2479,21.0,"",349.99,699.98,"X",2249920
158,"B0000301054801",8,"1/100956-9",4.0,1144.1633952,330.5702,21.0,"",399.99,1599.96,"X",2249920
158,"B0000301054801",9,"5/10876-7",1.0,234.4485164,223.1322,21.0,"",269.99,269.99,"X",2249920
158,"B0000301054801",10,"4/263-0",2.0,0.020432,0.0082,21.0,"",0.01,0.02,"X",2249920
158,"B0000301054801",11,"1/32410-6",1.0,286.0408488,330.5702,21.0,"",399.99,399.99,"X",2249920
158,"B0000301054801",12,"5/402209-4",1.0,521.0073164,495.8595,21.0,"",599.99,599.99,"X",2249920
158,"B0000301054801",13,"5/403142-8",1.0,329.9681164,314.0413,21.0,"",379.99,379.99,"X",2249920
158,"B0000301054801",14,"5/403145-4",1.0,329.9681164,314.0413,21.0,"",379.99,379.99,"X",2249920
158,"B0000301054801",15,"5/403222-8",1.0,260.4993164,247.9256,21.0,"",299.99,299.99,"X",2249920
158,"B0000301054801",16,"5/403261-3",1.0,173.6633164,165.2809,21.0,"",199.99,199.99,"X",2249920
158,"B0000301054801",17,"5/403327-7",1.0,295.2337164,280.9834,21.0,"",339.99,339.99,"X",2249920
158,"B0000301054801",18,"5/403723-5",1.0,173.6633164,165.2809,21.0,"",199.99,199.99,"X",2249920
158,"B0000301054801",19,"5/403724-7",1.0,199.7141164,190.0743,21.0,"",229.99,229.99,"X",2249920
158,"B0000301054801",20,"5/403725-9",7.0,1154.8580148,157.0165,21.0,"",189.99,1329.93,"X",2249920
158,"B0000301054801",21,"5/403766-9",1.0,121.5617164,115.6942,21.0,"",139.99,139.99,"X",2249920
158,"B0000301054801",22,"5/403767-1",1.0,121.5617164,115.6942,21.0,"",139.99,139.99,"X",2249920
158,"B0000301054801",23,"5/52426-8",1.0,173.6633164,165.2809,21.0,"",199.99,199.99,"X",2249920
158,"B0000301054801",24,"4/8263-0",1.0,0.010216,0.0082,21.0,"",0.01,0.01,"X",2249920
158,"B0000301054801",25,"4/900062-0",1.0,0.010216,0.0082,21.0,"",0.01,0.01,"X",2249920
159,"B0000301054802",1,"1/100045-3",3.0,858.1225464,330.5702,21.0,"",399.99,1199.97,"X",2249921
159,"B0000301054802",2,"1/100062-5",1.0,336.0992488,388.4214,21.0,"",469.99,469.99,"X",2249921
159,"B0000301054802",3,"1/100237-0",6.0,1501.7090928,289.2479,21.0,"",349.99,2099.94,"X",2249921
159,"B0000301054802",4,"1/100240-9",3.0,1287.1945464,495.8595,21.0,"",599.99,1799.97,"X",2249921
159,"B0000301054802",5,"1/100289-7",2.0,572.0816976,330.5702,21.0,"",399.99,799.98,"X",2249921
159,"B0000301054802",6,"1/100293-8",2.0,572.0816976,330.5702,21.0,"",399.99,799.98,"X",2249921
159,"B0000301054802",7,"1/100464-4",3.0,1287.1945464,495.8595,21.0,"",599.99,1799.97,"X",2249921
159,"B0000301054802",8,"1/100472-4",4.0,1021.579568,413.2148,21.0,"",499.99,1999.96,"X",2249921
159,"B0000301054802",9,"1/100493-5",1.0,164.4704488,190.0743,21.0,"",229.99,229.99,"X",2249921
159,"B0000301054802",10,"1/100560-4",2.0,429.0576976,247.9256,21.0,"",299.99,599.98,"X",2249921
159,"B0000301054802",11,"1/100561-7",2.0,429.0576976,247.9256,21.0,"",299.99,599.98,"X",2249921
159,"B0000301054802",12,"1/100562-9",3.0,643.5865464,247.9256,21.0,"",299.99,899.97,"X",2249921
159,"B0000301054802",13,"1/100673-4",2.0,786.6176976,454.5371,21.0,"",549.99,1099.98,"X",2249921
159,"B0000301054802",14,"1/100706-9",3.0,407.5969464,157.0165,21.0,"",189.99,569.97,"X",2249921
159,"B0000301054802",15,"1/100707-1",3.0,407.5969464,157.0165,21.0,"",189.99,569.97,"X",2249921
159,"B0000301054802",16,"1/100709-5",4.0,543.4625952,157.0165,21.0,"",189.99,759.96,"X",2249921
159,"B0000301054802",17,"1/100732-3",1.0,85.8072488,99.1652,21.0,"",119.99,119.99,"X",2249921
159,"B0000301054802",18,"1/100733-5",1.0,85.8072488,99.1652,21.0,"",119.99,119.99,"X",2249921
159,"B0000301054802",19,"1/100736-2",1.0,85.8072488,99.1652,21.0,"",119.99,119.99,"X",2249921
159,"B0000301054802",20,"1/100737-4",1.0,85.8072488,99.1652,21.0,"",119.99,119.99,"X",2249921
159,"B0000301054802",21,"1/100746-6",2.0,858.1296976,495.8595,21.0,"",599.99,1199.98,"X",2249921
159,"B0000301054802",22,"6/100785-3",1.0,408.629784,330.5702,21.0,"",399.99,399.99,"X",2249921
159,"B0000301054802",23,"1/100788-9",1.0,193.0752488,223.1322,21.0,"",269.99,269.99,"X",2249921
159,"B0000301054802",24,"1/100839-7",1.0,286.0408488,330.5702,21.0,"",399.99,399.99,"X",2249921
159,"B0000301054802",25,"1/100862-5",2.0,572.0816976,330.5702,21.0,"",399.99,799.98,"X",2249921
159,"B0000301054802",26,"1/100863-7",2.0,572.0816976,330.5702,21.0,"",399.99,799.98,"X",2249921
159,"B0000301054802",27,"1/100872-1",1.0,336.0992488,388.4214,21.0,"",469.99,469.99,"X",2249921
159,"B0000301054802",28,"1/100903-0",3.0,407.5969464,157.0165,21.0,"",189.99,569.97,"X",2249921
159,"B0000301054802",29,"1/100904-2",4.0,543.4625952,157.0165,21.0,"",189.99,759.96,"X",2249921
159,"B0000301054802",30,"1/100906-6",3.0,407.5969464,157.0165,21.0,"",189.99,569.97,"X",2249921
159,"B0000301054802",31,"1/100922-6",4.0,543.4625952,157.0165,21.0,"",189.99,759.96,"X",2249921
159,"B0000301054802",32,"1/100932-1",6.0,2359.8530928,454.5371,21.0,"",549.99,3299.94,"X",2249921
159,"B0000301054802",33,"1/100933-3",1.0,393.3088488,454.5371,21.0,"",549.99,549.99,"X",2249921
159,"B0000301054802",34,"1/100936-1",2.0,343.2432976,198.3388,21.0,"",239.99,479.98,"X",2249921
159,"B0000301054802",35,"1/100937-3",3.0,514.8649464,198.3388,21.0,"",239.99,719.97,"X",2249921
159,"B0000301054802",36,"1/100958-4",1.0,429.0648488,495.8595,21.0,"",599.99,599.99,"X",2249921
159,"B0000301054802",37,"4/100969-0",1.0,0.010216,0.0082,21.0,"",0.01,0.01,"X",2249921
159,"B0000301054802",38,"4/100971-7",1.0,0.010216,0.0082,21.0,"",0.01,0.01,"X",2249921
159,"B0000301054802",39,"1/41329-3",3.0,1287.1945464,495.8595,21.0,"",599.99,1799.97,"X",2249921
159,"B0000301054802",40,"1/31116-2",13.0,2602.9438344,231.3966,21.0,"",279.99,3639.87,"X",2249921
159,"B0000301054802",41,"5/402684-5",4.0,868.3252656,206.6033,21.0,"",249.99,999.96,"X",2249921
159,"B0000301054802",42,"1/54430-9",1.0,214.5288488,247.9256,21.0,"",299.99,299.99,"X",2249921
159,"B0000301054802",43,"5/403723-5",12.0,2083.9597968,165.2809,21.0,"",199.99,2399.88,"X",2249921
159,"B0000301054802",44,"4/8263-0",1.0,0.010216,0.0082,21.0,"",0.01,0.01,"X",2249921
159,"B0000301054802",45,"4/263-0",10.0,0.10216,0.0082,21.0,"",0.01,0.1,"X",2249921
159,"B0000301054802",46,"4/650244-1",3.0,0.030648,0.0082,21.0,"",0.01,0.03,"X",2249921
159,"B0000301054802",47,"1/54427-1",1.0,214.5288488,247.9256,21.0,"",299.99,299.99,"X",2249921
159,"B0000301054802",48,"1/42216-3",2.0,572.0816976,330.5702,21.0,"",399.99,799.98,"X",2249921
159,"B0000301054802",49,"5/403261-3",15.0,2604.949746,165.2809,21.0,"",199.99,2999.85,"X",2249921
159,"B0000301054802",50,"5/403457-0",6.0,1302.4878984,206.6033,21.0,"",249.99,1499.94,"X",2249921
159,"B0000301054802",51,"5/403039-0",6.0,1250.3862984,198.3388,21.0,"",239.99,1439.94,"X",2249921
159,"B0000301054802",52,"1/42126-9",3.0,858.1225464,330.5702,21.0,"",399.99,1199.97,"X",2249921
159,"B0000301054802",53,"5/403752-6",2.0,573.1002328,272.719,21.0,"",329.99,659.98,"X",2249921
159,"B0000301054802",54,"1/42217-6",2.0,572.0816976,330.5702,21.0,"",399.99,799.98,"X",2249921
159,"B0000301054802",55,"1/23904-3",3.0,343.2361464,132.2231,21.0,"",159.99,479.97,"X",2249921
159,"B0000301054802",56,"1/42224-3",2.0,572.0816976,330.5702,21.0,"",399.99,799.98,"X",2249921
159,"B0000301054802",57,"5/403725-9",15.0,2474.695746,157.0165,21.0,"",189.99,2849.85,"X",2249921
159,"B0000301054802",58,"5/403753-8",2.0,868.3426328,413.2148,21.0,"",499.99,999.98,"X",2249921
159,"B0000301054802",59,"1/56321-7",3.0,643.5865464,247.9256,21.0,"",299.99,899.97,"X",2249921
159,"B0000301054802",60,"1/56313-7",2.0,429.0576976,247.9256,21.0,"",299.99,599.98,"X",2249921
159,"B0000301054802",61,"5/402572-7",2.0,764.1394328,363.628,21.0,"",439.99,879.98,"X",2249921
159,"B0000301054802",62,"1/13362-9",12.0,5148.7781856,495.8595,21.0,"",599.99,7199.88,"X",2249921
159,"B0000301054802",63,"1/41330-8",2.0,858.1296976,495.8595,21.0,"",599.99,1199.98,"X",2249921
159,"B0000301054802",64,"5/403751-4",1.0,234.4485164,223.1322,21.0,"",269.99,269.99,"X",2249921
159,"B0000301054802",65,"4/900064-4",1.0,0.010216,0.0082,21.0,"",0.01,0.01,"X",2249921
159,"B0000301054802",66,"1/42133-7",2.0,572.0816976,330.5702,21.0,"",399.99,799.98,"X",2249921
159,"B0000301054802",67,"5/403562-3",1.0,1389.3673164,1322.3057,21.0,"",1599.99,1599.99,"X",2249921
159,"B0000301054802",68,"5/403411-9",1.0,425.4877164,404.9504,21.0,"",489.99,489.99,"X",2249921
159,"B0000301054802",69,"1/42114-0",2.0,572.0816976,330.5702,21.0,"",399.99,799.98,"X",2249921
159,"B0000301054802",70,"4/99748-6",1.0,0.010216,0.0082,21.0,"",0.01,0.01,"X",2249921
159,"B0000301054802",71,"7/100977-0",1.0,212.4846272,214.8677,21.0,"",259.99,259.99,"X",2249921
159,"B0000301054802",72,"1/54424-3",1.0,185.9240488,214.8677,21.0,"",259.99,259.99,"X",2249921
159,"B0000301054802",73,"1/24677-4",1.0,143.0168488,165.2809,21.0,"",199.99,199.99,"X",2249921
159,"B0000301054802",74,"5/403730-3",3.0,1172.2599492,371.8925,21.0,"",449.99,1349.97,"X",2249921
159,"B0000301054802",75,"1/42205-7",2.0,572.0816976,330.5702,21.0,"",399.99,799.98,"X",2249921
159,"B0000301054802",76,"1/41317-4",3.0,1287.1945464,495.8595,21.0,"",599.99,1799.97,"X",2249921
159,"B0000301054802",77,"1/42127-1",2.0,572.0816976,330.5702,21.0,"",399.99,799.98,"X",2249921
159,"B0000301054802",78,"1/24678-6",1.0,143.0168488,165.2809,21.0,"",199.99,199.99,"X",2249921
160,"B0000301054803",1,"1/100699-7",2.0,972.5488976,561.9752,21.0,"",679.99,1359.98,"X",2249930
160,"B0000301054803",2,"1/100700-6",2.0,972.5488976,561.9752,21.0,"",679.99,1359.98,"X",2249930
160,"B0000301054803",3,"1/100701-8",2.0,972.5488976,561.9752,21.0,"",679.99,1359.98,"X",2249930
160,"B0000301054803",4,"1/100702-0",2.0,972.5488976,561.9752,21.0,"",679.99,1359.98,"X",2249930
160,"B0000301054803",5,"1/100928-1",5.0,3575.564244,826.438,21.0,"",999.99,4999.95,"X",2249930
160,"B0000301054803",6,"5/202744-7",1.0,303.9173164,289.2479,21.0,"",349.99,349.99,"X",2249930
160,"B0000301054803",7,"4/263-0",2.0,0.020432,0.0082,21.0,"",0.01,0.02,"X",2249930
160,"B0000301054803",8,"5/301506-0",1.0,199.7141164,190.0743,21.0,"",229.99,229.99,"X",2249930
160,"B0000301054803",9,"5/403457-0",12.0,2604.9757968,206.6033,21.0,"",249.99,2999.88,"X",2249930
160,"B0000301054803",10,"5/403724-7",1.0,199.7141164,190.0743,21.0,"",229.99,229.99,"X",2249930
160,"B0000301054803",11,"5/51719-6",1.0,868.3513164,826.438,21.0,"",999.99,999.99,"X",2249930
160,"B0000301054803",12,"8/52495-7",1.0,1328.069784,1074.3719,21.0,"",1299.99,1299.99,"X",2249930
160,"B0000301054803",13,"4/8263-0",1.0,0.010216,0.0082,21.0,"",0.01,0.01,"X",2249930
160,"B0000301054803",14,"4/900062-0",1.0,0.010216,0.0082,21.0,"",0.01,0.01,"X",2249930
169,"B0000301054812",1,"1/100707-1",1.0,135.8656488,157.0165,21.0,"",189.99,189.99,"X",2253521
169,"B0000301054812",2,"1/100708-3",2.0,271.7312976,157.0165,21.0,"",189.99,379.98,"X",2253521
169,"B0000301054812",3,"1/100709-5",2.0,271.7312976,157.0165,21.0,"",189.99,379.98,"X",2253521
169,"B0000301054812",4,"1/100902-8",2.0,271.7312976,157.0165,21.0,"",189.99,379.98,"X",2253521
169,"B0000301054812",5,"1/100904-2",2.0,271.7312976,157.0165,21.0,"",189.99,379.98,"X",2253521
169,"B0000301054812",6,"1/100932-1",1.0,393.3088488,454.5371,21.0,"",549.99,549.99,"X",2253521
169,"B0000301054812",7,"1/100935-7",2.0,500.5696976,289.2479,21.0,"",349.99,699.98,"X",2253521
169,"B0000301054812",8,"1/100949-2",2.0,500.5696976,289.2479,21.0,"",349.99,699.98,"X",2253521
169,"B0000301054812",9,"1/100956-9",1.0,286.0408488,330.5702,21.0,"",399.99,399.99,"X",2253521
169,"B0000301054812",10,"4/263-0",2.0,0.020432,0.0082,21.0,"",0.01,0.02,"X",2253521
169,"B0000301054812",11,"1/32415-7",2.0,429.0576976,247.9256,21.0,"",299.99,599.98,"X",2253521
169,"B0000301054812",12,"5/400417-2",3.0,520.9899492,165.2809,21.0,"",199.99,599.97,"X",2253521
169,"B0000301054812",13,"5/402209-4",1.0,521.0073164,495.8595,21.0,"",599.99,599.99,"X",2253521
169,"B0000301054812",14,"5/402366-3",1.0,347.3353164,330.5702,21.0,"",399.99,399.99,"X",2253521
169,"B0000301054812",15,"5/402367-5",1.0,347.3353164,330.5702,21.0,"",399.99,399.99,"X",2253521
169,"B0000301054812",16,"5/403260-1",3.0,416.7867492,132.2231,21.0,"",159.99,479.97,"X",2253521
169,"B0000301054812",17,"5/403723-5",2.0,347.3266328,165.2809,21.0,"",199.99,399.98,"X",2253521
169,"B0000301054812",18,"4/8263-0",1.0,0.010216,0.0082,21.0,"",0.01,0.01,"X",2253521
169,"B0000301054812",19,"4/900460-1",1.0,0.010216,0.0082,21.0,"",0.01,0.01,"X",2253521
169,"B0000301054812",20,"4/99753-0",1.0,0.010216,0.0082,21.0,"",0.01,0.01,"X",2253521
173,"B0000301054816",1,"1/100050-6",1.0,250.2848488,289.2479,21.0,"",349.99,349.99,"X",2256723
173,"B0000301054816",2,"1/100245-0",1.0,357.5528488,413.2148,21.0,"",499.99,499.99,"X",2256723
173,"B0000301054816",3,"1/100657-4",2.0,398.4107192,247.9256,21.0,"",299.99,599.98,"X",2256723
173,"B0000301054816",4,"1/100732-3",1.0,85.8072488,99.1652,21.0,"",119.99,119.99,"X",2256723
173,"B0000301054816",5,"1/100735-0",1.0,85.8072488,99.1652,21.0,"",119.99,119.99,"X",2256723
173,"B0000301054816",6,"1/100737-4",1.0,85.8072488,99.1652,21.0,"",119.99,119.99,"X",2256723
173,"B0000301054816",7,"1/100788-9",2.0,386.1504976,223.1322,21.0,"",269.99,539.98,"X",2256723
173,"B0000301054816",8,"1/100853-3",1.0,357.5528488,413.2148,21.0,"",499.99,499.99,"X",2256723
173,"B0000301054816",9,"1/100854-5",1.0,357.5528488,413.2148,21.0,"",499.99,499.99,"X",2256723
173,"B0000301054816",10,"1/100943-7",1.0,85.8072488,99.1652,21.0,"",119.99,119.99,"X",2256723
173,"B0000301054816",11,"1/100944-1",1.0,85.8072488,99.1652,21.0,"",119.99,119.99,"X",2256723
173,"B0000301054816",12,"1/21377-6",1.0,307.4944488,355.3636,21.0,"",429.99,429.99,"X",2256723
173,"B0000301054816",13,"4/263-0",2.0,0.020432,0.0082,21.0,"",0.01,0.02,"X",2256723
173,"B0000301054816",14,"3/300647-9",1.0,164.9797164,157.0165,21.0,"",189.99,189.99,"X",2256723
173,"B0000301054816",15,"3/300648-1",2.0,329.9594328,157.0165,21.0,"",189.99,379.98,"X",2256723
173,"B0000301054816",16,"3/300649-3",1.0,164.9797164,157.0165,21.0,"",189.99,189.99,"X",2256723
173,"B0000301054816",17,"3/300650-8",1.0,164.9797164,157.0165,21.0,"",189.99,189.99,"X",2256723
173,"B0000301054816",18,"3/300651-0",1.0,164.9797164,157.0165,21.0,"",189.99,189.99,"X",2256723
173,"B0000301054816",19,"3/300652-2",1.0,164.9797164,157.0165,21.0,"",189.99,189.99,"X",2256723
173,"B0000301054816",20,"3/300653-4",1.0,164.9797164,157.0165,21.0,"",189.99,189.99,"X",2256723
173,"B0000301054816",21,"3/300654-6",1.0,164.9797164,157.0165,21.0,"",189.99,189.99,"X",2256723
173,"B0000301054816",22,"3/300655-9",1.0,164.9797164,157.0165,21.0,"",189.99,189.99,"X",2256723
173,"B0000301054816",23,"5/300920-1",1.0,303.9173164,289.2479,21.0,"",349.99,349.99,"X",2256723
173,"B0000301054816",24,"1/31116-2",2.0,400.4528976,231.3966,21.0,"",279.99,559.98,"X",2256723
173,"B0000301054816",25,"5/400417-2",1.0,173.6633164,165.2809,21.0,"",199.99,199.99,"X",2256723
173,"B0000301054816",26,"5/402209-4",1.0,521.0073164,495.8595,21.0,"",599.99,599.99,"X",2256723
173,"B0000301054816",27,"5/402806-2",1.0,347.3353164,330.5702,21.0,"",399.99,399.99,"X",2256723
173,"B0000301054816",28,"5/403260-1",2.0,277.8578328,132.2231,21.0,"",159.99,319.98,"X",2256723
173,"B0000301054816",29,"5/403261-3",2.0,347.3266328,165.2809,21.0,"",199.99,399.98,"X",2256723
173,"B0000301054816",30,"5/403385-0",1.0,225.7649164,214.8677,21.0,"",259.99,259.99,"X",2256723
173,"B0000301054816",31,"5/403393-0",1.0,191.0305164,181.8099,21.0,"",219.99,219.99,"X",2256723
173,"B0000301054816",32,"5/403759-1",1.0,199.7141164,190.0743,21.0,"",229.99,229.99,"X",2256723
173,"B0000301054816",33,"4/650244-1",3.0,0.030648,0.0082,21.0,"",0.01,0.03,"X",2256723
173,"B0000301054816",34,"4/8263-0",1.0,0.010216,0.0082,21.0,"",0.01,0.01,"X",2256723
173,"B0000301054816",35,"4/900061-8",1.0,0.010216,0.0082,21.0,"",0.01,0.01,"X",2256723
212,"B0000301054855",1,"1/100313-1",1.0,164.4704488,190.0743,21.0,"",229.99,229.99,"X",2267948
212,"B0000301054855",2,"1/100590-8",2.0,357.5456976,206.6033,21.0,"",249.99,499.98,"X",2267948
212,"B0000301054855",3,"1/100777-3",1.0,286.0408488,330.5702,21.0,"",399.99,399.99,"X",2267948
212,"B0000301054855",4,"1/100778-5",1.0,286.0408488,330.5702,21.0,"",399.99,399.99,"X",2267948
212,"B0000301054855",5,"1/100788-9",4.0,772.3009952,223.1322,21.0,"",269.99,1079.96,"X",2267948
212,"B0000301054855",6,"1/100804-3",2.0,357.5456976,206.6033,21.0,"",249.99,499.98,"X",2267948
212,"B0000301054855",7,"1/100877-2",1.0,164.4704488,190.0743,21.0,"",229.99,229.99,"X",2267948
212,"B0000301054855",8,"1/100878-4",1.0,164.4704488,190.0743,21.0,"",229.99,229.99,"X",2267948
212,"B0000301054855",9,"1/100879-6",1.0,164.4704488,190.0743,21.0,"",229.99,229.99,"X",2267948
212,"B0000301054855",10,"1/100932-1",2.0,786.6176976,454.5371,21.0,"",549.99,1099.98,"X",2267948
212,"B0000301054855",11,"1/100956-9",2.0,572.0816976,330.5702,21.0,"",399.99,799.98,"X",2267948
212,"B0000301054855",12,"4/100969-0",1.0,0.010216,0.0082,21.0,"",0.01,0.01,"X",2267948
212,"B0000301054855",13,"4/100971-7",1.0,0.010216,0.0082,21.0,"",0.01,0.01,"X",2267948
212,"B0000301054855",14,"5/201037-7",1.0,738.0973164,702.471,21.0,"",849.99,849.99,"X",2267948
212,"B0000301054855",15,"4/263-0",5.0,0.05108,0.0082,21.0,"",0.01,0.05,"X",2267948
212,"B0000301054855",16,"1/31116-2",4.0,800.9057952,231.3966,21.0,"",279.99,1119.96,"X",2267948
212,"B0000301054855",17,"1/32299-3",1.0,357.5528488,413.2148,21.0,"",499.99,499.99,"X",2267948
212,"B0000301054855",18,"1/33116-2",6.0,1072.6370928,206.6033,21.0,"",249.99,1499.94,"X",2267948
212,"B0000301054855",19,"5/400417-2",2.0,347.3266328,165.2809,21.0,"",199.99,399.98,"X",2267948
212,"B0000301054855",20,"5/400597-7",2.0,694.6706328,330.5702,21.0,"",399.99,799.98,"X",2267948
212,"B0000301054855",21,"5/402364-9",2.0,607.8346328,289.2479,21.0,"",349.99,699.98,"X",2267948
212,"B0000301054855",22,"5/402365-1",2.0,607.8346328,289.2479,21.0,"",349.99,699.98,"X",2267948
212,"B0000301054855",23,"5/402366-3",4.0,1389.3412656,330.5702,21.0,"",399.99,1599.96,"X",2267948
212,"B0000301054855",24,"5/402367-5",4.0,1389.3412656,330.5702,21.0,"",399.99,1599.96,"X",2267948
212,"B0000301054855",25,"5/402682-0",10.0,2170.813164,206.6033,21.0,"",249.99,2499.9,"X",2267948
212,"B0000301054855",26,"5/402683-3",10.0,2170.813164,206.6033,21.0,"",249.99,2499.9,"X",2267948
212,"B0000301054855",27,"5/402828-5",1.0,1128.8593164,1074.3719,21.0,"",1299.99,1299.99,"X",2267948
212,"B0000301054855",28,"5/402829-7",1.0,1042.0233164,991.7272,21.0,"",1199.99,1199.99,"X",2267948
212,"B0000301054855",29,"5/402852-5",1.0,1128.8593164,1074.3719,21.0,"",1299.99,1299.99,"X",2267948
212,"B0000301054855",30,"5/402861-7",1.0,1042.0233164,991.7272,21.0,"",1199.99,1199.99,"X",2267948
212,"B0000301054855",31,"5/403222-8",2.0,520.9986328,247.9256,21.0,"",299.99,599.98,"X",2267948
212,"B0000301054855",32,"5/403260-1",2.0,277.8578328,132.2231,21.0,"",159.99,319.98,"X",2267948
212,"B0000301054855",33,"5/403261-3",3.0,520.9899492,165.2809,21.0,"",199.99,599.97,"X",2267948
212,"B0000301054855",34,"5/403751-4",10.0,2344.485164,223.1322,21.0,"",269.99,2699.9,"X",2267948
212,"B0000301054855",35,"5/403426-4",1.0,338.6517164,322.3057,21.0,"",389.99,389.99,"X",2267948
212,"B0000301054855",36,"5/51718-4",3.0,2605.0539492,826.438,21.0,"",999.99,2999.97,"X",2267948
212,"B0000301054855",37,"5/403794-8",1.0,130.2453164,123.9586,21.0,"",149.99,149.99,"X",2267948
212,"B0000301054855",38,"5/403767-1",1.0,121.5617164,115.6942,21.0,"",139.99,139.99,"X",2267948
212,"B0000301054855",39,"4/8263-0",1.0,0.010216,0.0082,21.0,"",0.01,0.01,"X",2267948
212,"B0000301054855",40,"5/403385-0",10.0,2257.649164,214.8677,21.0,"",259.99,2599.9,"X",2267948
212,"B0000301054855",41,"4/900064-4",1.0,0.010216,0.0082,21.0,"",0.01,0.01,"X",2267948
212,"B0000301054855",42,"5/59439-9",1.0,1042.0233164,991.7272,21.0,"",1199.99,1199.99,"X",2267948
212,"B0000301054855",43,"1/54427-1",6.0,1287.1730928,247.9256,21.0,"",299.99,1799.94,"X",2267948
212,"B0000301054855",44,"5/403591-4",2.0,555.7330328,264.4545,21.0,"",319.99,639.98,"X",2267948
212,"B0000301054855",45,"5/403724-7",3.0,599.1423492,190.0743,21.0,"",229.99,689.97,"X",2267948
212,"B0000301054855",46,"5/403828-5",2.0,451.5298328,214.8677,21.0,"",259.99,519.98,"X",2267948
212,"B0000301054855",47,"5/403674-0",2.0,451.5298328,214.8677,21.0,"",259.99,519.98,"X",2267948
212,"B0000301054855",48,"5/403829-7",2.0,451.5298328,214.8677,21.0,"",259.99,519.98,"X",2267948
212,"B0000301054855",49,"1/54424-3",2.0,371.8480976,214.8677,21.0,"",259.99,519.98,"X",2267948
212,"B0000301054855",50,"5/403411-9",2.0,850.9754328,404.9504,21.0,"",489.99,979.98,"X",2267948
213,"B0000301054856",1,"1/100050-6",14.0,3503.9878832,289.2479,21.0,"",349.99,4899.86,"X",2267953
213,"B0000301054856",2,"1/100391-2",1.0,715.1128488,826.438,21.0,"",999.99,999.99,"X",2267953
213,"B0000301054856",3,"1/100450-1",3.0,1566.0913464,603.2975,21.0,"",729.99,2189.97,"X",2267953
213,"B0000301054856",4,"1/100472-4",1.0,255.394892,413.2148,21.0,"",499.99,499.99,"X",2267953
213,"B0000301054856",5,"1/100560-4",6.0,1287.1730928,247.9256,21.0,"",299.99,1799.94,"X",2267953
213,"B0000301054856",6,"1/100561-7",7.0,1501.7019416,247.9256,21.0,"",299.99,2099.93,"X",2267953
213,"B0000301054856",7,"1/100562-9",6.0,1287.1730928,247.9256,21.0,"",299.99,1799.94,"X",2267953
213,"B0000301054856",8,"1/100590-8",17.0,3039.1384296,206.6033,21.0,"",249.99,4249.83,"X",2267953
213,"B0000301054856",9,"1/100591-0",1.0,193.0752488,223.1322,21.0,"",269.99,269.99,"X",2267953
213,"B0000301054856",10,"1/100657-4",4.0,612.939568,247.9256,21.0,"",299.99,1199.96,"X",2267953
213,"B0000301054856",11,"1/100746-6",1.0,429.0648488,495.8595,21.0,"",599.99,599.99,"X",2267953
213,"B0000301054856",12,"1/100756-1",12.0,1973.6453856,190.0743,21.0,"",229.99,2759.88,"X",2267953
213,"B0000301054856",13,"1/100757-3",12.0,1973.6453856,190.0743,21.0,"",229.99,2759.88,"X",2267953
213,"B0000301054856",14,"1/100758-5",12.0,3432.4901856,330.5702,21.0,"",399.99,4799.88,"X",2267953
213,"B0000301054856",15,"1/100759-7",12.0,3432.4901856,330.5702,21.0,"",399.99,4799.88,"X",2267953
213,"B0000301054856",16,"1/100786-5",1.0,343.2504488,396.6859,21.0,"",479.99,479.99,"X",2267953
213,"B0000301054856",17,"1/100804-3",15.0,2681.592732,206.6033,21.0,"",249.99,3749.85,"X",2267953
213,"B0000301054856",18,"1/100856-1",3.0,3218.0185464,1239.6611,21.0,"",1499.99,4499.97,"X",2267953
213,"B0000301054856",19,"1/100897-0",12.0,2145.2741856,206.6033,21.0,"",249.99,2999.88,"X",2267953
213,"B0000301054856",20,"1/100928-1",15.0,10726.692732,826.438,21.0,"",999.99,14999.85,"X",2267953
213,"B0000301054856",21,"1/100931-9",6.0,3003.4610928,578.5041,21.0,"",699.99,4199.94,"X",2267953
213,"B0000301054856",22,"1/100932-1",2.0,786.6176976,454.5371,21.0,"",549.99,1099.98,"X",2267953
213,"B0000301054856",23,"1/100936-1",1.0,171.6216488,198.3388,21.0,"",239.99,239.99,"X",2267953
213,"B0000301054856",24,"1/100937-3",1.0,171.6216488,198.3388,21.0,"",239.99,239.99,"X",2267953
213,"B0000301054856",25,"1/100956-9",14.0,4004.5718832,330.5702,21.0,"",399.99,5599.86,"X",2267953
213,"B0000301054856",26,"1/100959-6",24.0,9439.4123712,454.5371,21.0,"",549.99,13199.76,"X",2267953
213,"B0000301054856",27,"5/402246-5",1.0,138.9289164,132.2231,21.0,"",159.99,159.99,"X",2267953
213,"B0000301054856",28,"5/402629-9",2.0,468.8970328,223.1322,21.0,"",269.99,539.98,"X",2267953
213,"B0000301054856",29,"5/301638-6",1.0,295.2337164,280.9834,21.0,"",339.99,339.99,"X",2267953
213,"B0000301054856",30,"5/201038-9",2.0,1476.1946328,702.471,21.0,"",849.99,1699.98,"X",2267953
213,"B0000301054856",31,"5/400338-4",2.0,486.2642328,231.3966,21.0,"",279.99,559.98,"X",2267953
213,"B0000301054856",32,"1/32299-3",2.0,715.1056976,413.2148,21.0,"",499.99,999.98,"X",2267953
213,"B0000301054856",33,"1/33116-2",13.0,2324.0470344,206.6033,21.0,"",249.99,3249.87,"X",2267953
213,"B0000301054856",34,"5/300502-1",1.0,199.7141164,190.0743,21.0,"",229.99,229.99,"X",2267953
213,"B0000301054856",35,"1/13362-9",2.0,858.1296976,495.8595,21.0,"",599.99,1199.98,"X",2267953
213,"B0000301054856",36,"5/403725-9",10.0,1649.797164,157.0165,21.0,"",189.99,1899.9,"X",2267953
213,"B0000301054856",37,"4/263-0",10.0,0.10216,0.0082,21.0,"",0.01,0.1,"X",2267953
213,"B0000301054856",38,"5/403256-0",1.0,260.4993164,247.9256,21.0,"",299.99,299.99,"X",2267953
213,"B0000301054856",39,"5/403724-7",2.0,399.4282328,190.0743,21.0,"",229.99,459.98,"X",2267953
213,"B0000301054856",40,"1/32440-9",2.0,486.2672976,280.9834,21.0,"",339.99,679.98,"X",2267953
213,"B0000301054856",41,"1/32406-4",2.0,429.0576976,247.9256,21.0,"",299.99,599.98,"X",2267953
213,"B0000301054856",42,"5/10566-5",1.0,199.7141164,190.0743,21.0,"",229.99,229.99,"X",2267953
213,"B0000301054856",43,"5/403526-4",1.0,1736.7113164,1652.8842,21.0,"",1999.99,1999.99,"X",2267953
213,"B0000301054856",44,"5/402862-9",1.0,1042.0233164,991.7272,21.0,"",1199.99,1199.99,"X",2267953
213,"B0000301054856",45,"5/403560-8",1.0,1215.6953164,1157.0165,21.0,"",1399.99,1399.99,"X",2267953
213,"B0000301054856",46,"5/403762-0",1.0,260.4993164,247.9256,21.0,"",299.99,299.99,"X",2267953
213,"B0000301054856",47,"5/200931-3",1.0,694.6793164,661.1487,21.0,"",799.99,799.99,"X",2267953
213,"B0000301054856",48,"4/100971-7",1.0,0.010216,0.0082,21.0,"",0.01,0.01,"X",2267953
213,"B0000301054856",49,"5/403674-0",5.0,1128.824582,214.8677,21.0,"",259.99,1299.95,"X",2267953
213,"B0000301054856",50,"3/301626-7",1.0,164.9797164,157.0165,21.0,"",189.99,189.99,"X",2267953
213,"B0000301054856",51,"1/32442-3",1.0,479.1232488,553.7107,21.0,"",669.99,669.99,"X",2267953
213,"B0000301054856",52,"5/301379-0",1.0,199.7141164,190.0743,21.0,"",229.99,229.99,"X",2267953
213,"B0000301054856",53,"3/301627-0",1.0,164.9797164,157.0165,21.0,"",189.99,189.99,"X",2267953
213,"B0000301054856",54,"3/301624-3",1.0,164.9797164,157.0165,21.0,"",189.99,189.99,"X",2267953
213,"B0000301054856",55,"5/403260-1",4.0,555.7156656,132.2231,21.0,"",159.99,639.96,"X",2267953
213,"B0000301054856",56,"1/26002-8",3.0,1201.3801464,462.8016,21.0,"",559.99,1679.97,"X",2267953
213,"B0000301054856",57,"5/400337-2",2.0,486.2642328,231.3966,21.0,"",279.99,559.98,"X",2267953
213,"B0000301054856",58,"1/32413-2",1.0,286.0408488,330.5702,21.0,"",399.99,399.99,"X",2267953
213,"B0000301054856",59,"5/403723-5",4.0,694.6532656,165.2809,21.0,"",199.99,799.96,"X",2267953
213,"B0000301054856",60,"5/403562-3",1.0,1389.3673164,1322.3057,21.0,"",1599.99,1599.99,"X",2267953
213,"B0000301054856",61,"1/32411-8",1.0,286.0408488,330.5702,21.0,"",399.99,399.99,"X",2267953
213,"B0000301054856",62,"5/403500-1",2.0,295.2250328,140.4876,21.0,"",169.99,339.98,"X",2267953
213,"B0000301054856",63,"5/403728-6",3.0,833.5995492,264.4545,21.0,"",319.99,959.97,"X",2267953
213,"B0000301054856",64,"3/301621-6",1.0,164.9797164,157.0165,21.0,"",189.99,189.99,"X",2267953
213,"B0000301054856",65,"3/301622-9",1.0,164.9797164,157.0165,21.0,"",189.99,189.99,"X",2267953
213,"B0000301054856",66,"1/26003-0",3.0,1201.3801464,462.8016,21.0,"",559.99,1679.97,"X",2267953
213,"B0000301054856",67,"5/403561-0",1.0,868.3513164,826.438,21.0,"",999.99,999.99,"X",2267953
213,"B0000301054856",68,"5/200934-1",1.0,694.6793164,661.1487,21.0,"",799.99,799.99,"X",2267953
213,"B0000301054856",69,"5/201731-5",1.0,347.3353164,330.5702,21.0,"",399.99,399.99,"X",2267953
213,"B0000301054856",70,"1/31116-2",3.0,600.6793464,231.3966,21.0,"",279.99,839.97,"X",2267953
213,"B0000301054856",71,"5/403827-2",4.0,903.0596656,214.8677,21.0,"",259.99,1039.96,"X",2267953
213,"B0000301054856",72,"5/403426-4",4.0,1354.6068656,322.3057,21.0,"",389.99,1559.96,"X",2267953
213,"B0000301054856",73,"5/401103-2",2.0,486.2642328,231.3966,21.0,"",279.99,559.98,"X",2267953
213,"B0000301054856",74,"5/10567-8",1.0,260.4993164,247.9256,21.0,"",299.99,299.99,"X",2267953
213,"B0000301054856",75,"1/32415-7",2.0,429.0576976,247.9256,21.0,"",299.99,599.98,"X",2267953
213,"B0000301054856",76,"5/402446-3",1.0,434.1713164,413.2148,21.0,"",499.99,499.99,"X",2267953
213,"B0000301054856",77,"1/32410-6",1.0,286.0408488,330.5702,21.0,"",399.99,399.99,"X",2267953
213,"B0000301054856",78,"5/403763-2",1.0,260.4993164,247.9256,21.0,"",299.99,299.99,"X",2267953
213,"B0000301054856",79,"5/301639-8",1.0,295.2337164,280.9834,21.0,"",339.99,339.99,"X",2267953
213,"B0000301054856",80,"3/301620-4",1.0,164.9797164,157.0165,21.0,"",189.99,189.99,"X",2267953
213,"B0000301054856",81,"5/201705-1",1.0,347.3353164,330.5702,21.0,"",399.99,399.99,"X",2267953
213,"B0000301054856",82,"4/100969-0",1.0,0.010216,0.0082,21.0,"",0.01,0.01,"X",2267953
213,"B0000301054856",83,"5/201704-9",1.0,347.3353164,330.5702,21.0,"",399.99,399.99,"X",2267953
213,"B0000301054856",84,"5/202717-1",1.0,347.3353164,330.5702,21.0,"",399.99,399.99,"X",2267953
213,"B0000301054856",85,"3/301623-1",1.0,164.9797164,157.0165,21.0,"",189.99,189.99,"X",2267953
213,"B0000301054856",86,"1/32524-8",2.0,400.4528976,231.3966,21.0,"",279.99,559.98,"X",2267953
213,"B0000301054856",87,"5/403730-3",4.0,1563.0132656,371.8925,21.0,"",449.99,1799.96,"X",2267953
213,"B0000301054856",88,"1/23095-4",3.0,965.3905464,371.8925,21.0,"",449.99,1349.97,"X",2267953
213,"B0000301054856",89,"5/403393-0",4.0,764.1220656,181.8099,21.0,"",219.99,879.96,"X",2267953
213,"B0000301054856",90,"5/403764-5",1.0,260.4993164,247.9256,21.0,"",299.99,299.99,"X",2267953
213,"B0000301054856",91,"5/301637-4",1.0,295.2337164,280.9834,21.0,"",339.99,339.99,"X",2267953
213,"B0000301054856",92,"5/402986-6",1.0,850.9841164,809.909,21.0,"",979.99,979.99,"X",2267953
213,"B0000301054856",93,"5/201738-2",1.0,347.3353164,330.5702,21.0,"",399.99,399.99,"X",2267953
213,"B0000301054856",94,"3/301625-5",1.0,164.9797164,157.0165,21.0,"",189.99,189.99,"X",2267953
213,"B0000301054856",95,"8/51664-8",2.0,5312.299568,2148.752,21.0,"",2599.99,5199.98,"X",2267953
213,"B0000301054856",96,"5/403828-5",4.0,903.0596656,214.8677,21.0,"",259.99,1039.96,"X",2267953
213,"B0000301054856",97,"5/52426-8",1.0,173.6633164,165.2809,21.0,"",199.99,199.99,"X",2267953
213,"B0000301054856",98,"4/85712-8",1.0,0.010216,0.0082,21.0,"",0.01,0.01,"X",2267953
213,"B0000301054856",99,"5/51719-6",2.0,1736.7026328,826.438,21.0,"",999.99,1999.98,"X",2267953
213,"B0000301054856",100,"4/8263-0",1.0,0.010216,0.0082,21.0,"",0.01,0.01,"X",2267953
213,"B0000301054856",101,"5/73371-4",2.0,2084.0466328,991.7272,21.0,"",1199.99,2399.98,"X",2267953
213,"B0000301054856",102,"5/94848-6",1.0,781.5153164,743.7933,21.0,"",899.99,899.99,"X",2267953
213,"B0000301054856",103,"1/41329-3",1.0,429.0648488,495.8595,21.0,"",599.99,599.99,"X",2267953
213,"B0000301054856",104,"5/94846-1",1.0,781.5153164,743.7933,21.0,"",899.99,899.99,"X",2267953
213,"B0000301054856",105,"1/54424-3",2.0,371.8480976,214.8677,21.0,"",259.99,519.98,"X",2267953
213,"B0000301054856",106,"1/41330-8",1.0,429.0648488,495.8595,21.0,"",599.99,599.99,"X",2267953
213,"B0000301054856",107,"4/500361-7",1.0,0.010216,0.0082,21.0,"",0.01,0.01,"X",2267953
213,"B0000301054856",108,"1/56321-7",1.0,214.5288488,247.9256,21.0,"",299.99,299.99,"X",2267953
213,"B0000301054856",109,"5/53013-1",2.0,486.2642328,231.3966,21.0,"",279.99,559.98,"X",2267953
213,"B0000301054856",110,"5/85086-6",2.0,1128.8506328,537.1818,21.0,"",649.99,1299.98,"X",2267953
213,"B0000301054856",111,"4/650244-1",12.0,0.122592,0.0082,21.0,"",0.01,0.12,"X",2267953
213,"B0000301054856",112,"4/900064-4",1.0,0.010216,0.0082,21.0,"",0.01,0.01,"X",2267953
213,"B0000301054856",113,"5/94847-3",1.0,781.5153164,743.7933,21.0,"",899.99,899.99,"X",2267953
213,"B0000301054856",114,"1/41317-4",1.0,429.0648488,495.8595,21.0,"",599.99,599.99,"X",2267953
213,"B0000301054856",115,"5/403829-7",3.0,677.2947492,214.8677,21.0,"",259.99,779.97,"X",2267953
254,"B0000301054897",1,"1/100050-6",1.0,250.2848488,289.2479,21.0,"",349.99,349.99,"X",2276332
254,"B0000301054897",2,"1/100464-4",1.0,429.0648488,495.8595,21.0,"",599.99,599.99,"X",2276332
254,"B0000301054897",3,"1/100733-5",1.0,85.8072488,99.1652,21.0,"",119.99,119.99,"X",2276332
254,"B0000301054897",4,"1/100735-0",1.0,85.8072488,99.1652,21.0,"",119.99,119.99,"X",2276332
254,"B0000301054897",5,"1/100944-1",1.0,85.8072488,99.1652,21.0,"",119.99,119.99,"X",2276332
254,"B0000301054897",6,"1/12154-1",1.0,257.4360488,297.5123,21.0,"",359.99,359.99,"X",2276332
254,"B0000301054897",7,"1/13413-8",1.0,257.4360488,297.5123,21.0,"",359.99,359.99,"X",2276332
254,"B0000301054897",8,"4/263-0",4.0,0.040864,0.0082,21.0,"",0.01,0.04,"X",2276332
254,"B0000301054897",9,"5/400417-2",2.0,347.3266328,165.2809,21.0,"",199.99,399.98,"X",2276332
254,"B0000301054897",10,"5/400500-1",1.0,460.2221164,438.0082,21.0,"",529.99,529.99,"X",2276332
254,"B0000301054897",11,"5/400594-1",1.0,373.3861164,355.3636,21.0,"",429.99,429.99,"X",2276332
254,"B0000301054897",12,"5/400757-7",1.0,347.3353164,330.5702,21.0,"",399.99,399.99,"X",2276332
254,"B0000301054897",13,"5/402366-3",1.0,347.3353164,330.5702,21.0,"",399.99,399.99,"X",2276332
254,"B0000301054897",14,"5/402682-0",2.0,434.1626328,206.6033,21.0,"",249.99,499.98,"X",2276332
254,"B0000301054897",15,"5/402683-3",1.0,217.0813164,206.6033,21.0,"",249.99,249.99,"X",2276332
254,"B0000301054897",16,"5/403260-1",2.0,277.8578328,132.2231,21.0,"",159.99,319.98,"X",2276332
254,"B0000301054897",17,"5/403365-2",1.0,816.2497164,776.8512,21.0,"",939.99,939.99,"X",2276332
254,"B0000301054897",18,"5/403393-0",2.0,382.0610328,181.8099,21.0,"",219.99,439.98,"X",2276332
254,"B0000301054897",19,"5/403725-9",4.0,659.9188656,157.0165,21.0,"",189.99,759.96,"X",2276332
254,"B0000301054897",20,"5/403752-6",1.0,286.5501164,272.719,21.0,"",329.99,329.99,"X",2276332
254,"B0000301054897",21,"4/8263-0",1.0,0.010216,0.0082,21.0,"",0.01,0.01,"X",2276332
254,"B0000301054897",22,"4/900063-2",1.0,0.010216,0.0082,21.0,"",0.01,0.01,"X",2276332
254,"B0000301054897",23,"4/99753-0",1.0,0.010216,0.0082,21.0,"",0.01,0.01,"X",2276332
264,"B0000301054907",1,"1/100244-8",1.0,357.5528488,413.2148,21.0,"",499.99,499.99,"X",2279446
264,"B0000301054907",2,"1/100245-0",1.0,357.5528488,413.2148,21.0,"",499.99,499.99,"X",2279446
264,"B0000301054907",3,"1/100744-2",1.0,114.4120488,132.2231,21.0,"",159.99,159.99,"X",2279446
264,"B0000301054907",4,"1/100853-3",1.0,357.5528488,413.2148,21.0,"",499.99,499.99,"X",2279446
264,"B0000301054907",5,"1/13362-9",6.0,2574.3890928,495.8595,21.0,"",599.99,3599.94,"X",2279446
264,"B0000301054907",6,"1/23095-4",1.0,321.7968488,371.8925,21.0,"",449.99,449.99,"X",2279446
264,"B0000301054907",7,"1/23903-0",1.0,114.4120488,132.2231,21.0,"",159.99,159.99,"X",2279446
264,"B0000301054907",8,"1/23904-3",1.0,114.4120488,132.2231,21.0,"",159.99,159.99,"X",2279446
264,"B0000301054907",9,"1/23905-5",1.0,114.4120488,132.2231,21.0,"",159.99,159.99,"X",2279446
264,"B0000301054907",10,"1/23906-7",1.0,114.4120488,132.2231,21.0,"",159.99,159.99,"X",2279446
264,"B0000301054907",11,"1/24677-4",1.0,143.0168488,165.2809,21.0,"",199.99,199.99,"X",2279446
264,"B0000301054907",12,"4/263-0",1.0,0.010216,0.0082,21.0,"",0.01,0.01,"X",2279446
264,"B0000301054907",13,"4/650244-1",5.0,0.05108,0.0082,21.0,"",0.01,0.05,"X",2279446
264,"B0000301054907",14,"4/8263-0",1.0,0.010216,0.0082,21.0,"",0.01,0.01,"X",2279446
264,"B0000301054907",15,"4/900460-1",1.0,0.010216,0.0082,21.0,"",0.01,0.01,"X",2279446
264,"B0000301054907",16,"5/91704-0",4.0,1041.9972656,247.9256,21.0,"",299.99,1199.96,"X",2279446
264,"B0000301054907",17,"5/91710-5",1.0,260.4993164,247.9256,21.0,"",299.99,299.99,"X",2279446
275,"B0000301054918",1,"1/100657-4",2.0,490.3516544,247.9256,21.0,"",299.99,599.98,"X",2282946
275,"B0000301054918",2,"1/100673-4",1.0,449.4958272,454.5371,21.0,"",549.99,549.99,"X",2282946
275,"B0000301054918",3,"1/100842-6",2.0,572.0796544,289.2479,21.0,"",349.99,699.98,"X",2282946
275,"B0000301054918",4,"1/100872-1",1.0,384.1134272,388.4214,21.0,"",469.99,469.99,"X",2282946
275,"B0000301054918",5,"1/100876-9",1.0,187.9662272,190.0743,21.0,"",229.99,229.99,"X",2282946
275,"B0000301054918",6,"4/263-0",2.0,0.020432,0.0082,21.0,"",0.01,0.02,"X",2282946
275,"B0000301054918",7,"5/403260-1",1.0,147.1012056,132.2231,21.0,"",159.99,159.99,"X",2282946
275,"B0000301054918",8,"5/403725-9",2.0,349.3688112,157.0165,21.0,"",189.99,379.98,"X",2282946
275,"B0000301054918",9,"5/403752-6",1.0,303.4060056,272.719,21.0,"",329.99,329.99,"X",2282946
275,"B0000301054918",10,"5/403753-8",1.0,459.7108056,413.2148,21.0,"",499.99,499.99,"X",2282946
275,"B0000301054918",11,"4/650244-1",1.0,0.010216,0.0082,21.0,"",0.01,0.01,"X",2282946
275,"B0000301054918",12,"4/8263-0",1.0,0.010216,0.0082,21.0,"",0.01,0.01,"X",2282946
275,"B0000301054918",13,"4/900062-0",1.0,0.010216,0.0082,21.0,"",0.01,0.01,"X",2282946
276,"B0000301054919",1,"1/100050-6",2.0,500.5696976,289.2479,21.0,"",349.99,699.98,"X",2282960
276,"B0000301054919",2,"1/100746-6",3.0,1287.1945464,495.8595,21.0,"",599.99,1799.97,"X",2282960
276,"B0000301054919",3,"1/100804-3",2.0,357.5456976,206.6033,21.0,"",249.99,499.98,"X",2282960
276,"B0000301054919",4,"1/100932-1",6.0,2359.8530928,454.5371,21.0,"",549.99,3299.94,"X",2282960
276,"B0000301054919",5,"4/263-0",3.0,0.030648,0.0082,21.0,"",0.01,0.03,"X",2282960
276,"B0000301054919",6,"1/31116-2",3.0,600.6793464,231.3966,21.0,"",279.99,839.97,"X",2282960
276,"B0000301054919",7,"1/33116-2",1.0,178.7728488,206.6033,21.0,"",249.99,249.99,"X",2282960
276,"B0000301054919",8,"5/403751-4",3.0,703.3455492,223.1322,21.0,"",269.99,809.97,"X",2282960
276,"B0000301054919",9,"4/8263-0",1.0,0.010216,0.0082,21.0,"",0.01,0.01,"X",2282960
276,"B0000301054919",10,"4/900063-2",1.0,0.010216,0.0082,21.0,"",0.01,0.01,"X",2282960
282,"B0000301054925",1,"1/100062-5",1.0,336.0992488,388.4214,21.0,"",469.99,469.99,"X",2286259
282,"B0000301054925",2,"1/100237-0",1.0,250.2848488,289.2479,21.0,"",349.99,349.99,"X",2286259
282,"B0000301054925",3,"1/100238-2",1.0,250.2848488,289.2479,21.0,"",349.99,349.99,"X",2286259
282,"B0000301054925",4,"1/100239-5",1.0,250.2848488,289.2479,21.0,"",349.99,349.99,"X",2286259
282,"B0000301054925",5,"4/100289-7",1.0,0.010216,0.0082,21.0,"",0.01,0.01,"X",2286259
282,"B0000301054925",6,"1/100493-5",1.0,164.4704488,190.0743,21.0,"",229.99,229.99,"X",2286259
282,"B0000301054925",7,"1/100658-6",1.0,243.1336488,280.9834,21.0,"",339.99,339.99,"X",2286259
282,"B0000301054925",8,"1/100732-3",1.0,85.8072488,99.1652,21.0,"",119.99,119.99,"X",2286259
282,"B0000301054925",9,"1/100733-5",1.0,85.8072488,99.1652,21.0,"",119.99,119.99,"X",2286259
282,"B0000301054925",10,"1/100735-0",1.0,85.8072488,99.1652,21.0,"",119.99,119.99,"X",2286259
282,"B0000301054925",11,"1/100879-6",1.0,164.4704488,190.0743,21.0,"",229.99,229.99,"X",2286259
282,"B0000301054925",12,"1/100943-7",1.0,85.8072488,99.1652,21.0,"",119.99,119.99,"X",2286259
282,"B0000301054925",13,"1/100944-1",1.0,85.8072488,99.1652,21.0,"",119.99,119.99,"X",2286259
282,"B0000301054925",14,"1/100956-9",1.0,286.0408488,330.5702,21.0,"",399.99,399.99,"X",2286259
282,"B0000301054925",15,"4/263-0",2.0,0.020432,0.0082,21.0,"",0.01,0.02,"X",2286259
282,"B0000301054925",16,"1/32410-6",1.0,286.0408488,330.5702,21.0,"",399.99,399.99,"X",2286259
282,"B0000301054925",17,"5/400417-2",1.0,173.6633164,165.2809,21.0,"",199.99,199.99,"X",2286259
282,"B0000301054925",18,"5/400597-7",6.0,2084.0118984,330.5702,21.0,"",399.99,2399.94,"X",2286259
282,"B0000301054925",19,"5/401854-9",2.0,659.9362328,314.0413,21.0,"",379.99,759.98,"X",2286259
282,"B0000301054925",20,"5/402682-0",1.0,217.0813164,206.6033,21.0,"",249.99,249.99,"X",2286259
282,"B0000301054925",21,"5/402683-3",1.0,217.0813164,206.6033,21.0,"",249.99,249.99,"X",2286259
282,"B0000301054925",22,"5/403182-5",1.0,955.1873164,909.0826,21.0,"",1099.99,1099.99,"X",2286259
282,"B0000301054925",23,"5/403725-9",2.0,329.9594328,157.0165,21.0,"",189.99,379.98,"X",2286259
282,"B0000301054925",24,"5/403752-6",1.0,286.5501164,272.719,21.0,"",329.99,329.99,"X",2286259
282,"B0000301054925",25,"5/403753-8",1.0,434.1713164,413.2148,21.0,"",499.99,499.99,"X",2286259
282,"B0000301054925",26,"5/403761-8",1.0,199.7141164,190.0743,21.0,"",229.99,229.99,"X",2286259
282,"B0000301054925",27,"1/41317-4",1.0,429.0648488,495.8595,21.0,"",599.99,599.99,"X",2286259
282,"B0000301054925",28,"4/43155-0",1.0,0.010216,0.0082,21.0,"",0.01,0.01,"X",2286259
282,"B0000301054925",29,"4/500208-7",1.0,0.010216,0.0082,21.0,"",0.01,0.01,"X",2286259
282,"B0000301054925",30,"1/54430-9",1.0,214.5288488,247.9256,21.0,"",299.99,299.99,"X",2286259
282,"B0000301054925",31,"4/8263-0",1.0,0.010216,0.0082,21.0,"",0.01,0.01,"X",2286259
282,"B0000301054925",32,"4/900061-8",1.0,0.010216,0.0082,21.0,"",0.01,0.01,"X",2286259
298,"B0000301054941",1,"1/100045-3",1.0,286.0408488,330.5702,21.0,"",399.99,399.99,"X",2290824
298,"B0000301054941",2,"1/100050-6",1.0,250.2848488,289.2479,21.0,"",349.99,349.99,"X",2290824
298,"B0000301054941",3,"1/100239-5",1.0,250.2848488,289.2479,21.0,"",349.99,349.99,"X",2290824
298,"B0000301054941",4,"1/100289-7",1.0,286.0408488,330.5702,21.0,"",399.99,399.99,"X",2290824
298,"B0000301054941",5,"1/100391-2",2.0,1430.2256976,826.438,21.0,"",999.99,1999.98,"X",2290824
298,"B0000301054941",6,"4/100451-3",1.0,0.010216,0.0082,21.0,"",0.01,0.01,"X",2290824
298,"B0000301054941",7,"4/100537-7",1.0,0.010216,0.0082,21.0,"",0.01,0.01,"X",2290824
298,"B0000301054941",8,"1/100707-1",1.0,135.8656488,157.0165,21.0,"",189.99,189.99,"X",2290824
298,"B0000301054941",9,"1/100708-3",1.0,135.8656488,157.0165,21.0,"",189.99,189.99,"X",2290824
298,"B0000301054941",10,"1/100709-5",1.0,135.8656488,157.0165,21.0,"",189.99,189.99,"X",2290824
298,"B0000301054941",11,"1/100744-2",1.0,114.4120488,132.2231,21.0,"",159.99,159.99,"X",2290824
298,"B0000301054941",12,"1/100745-4",1.0,114.4120488,132.2231,21.0,"",159.99,159.99,"X",2290824
298,"B0000301054941",13,"1/100863-7",1.0,286.0408488,330.5702,21.0,"",399.99,399.99,"X",2290824
298,"B0000301054941",14,"1/100902-8",1.0,135.8656488,157.0165,21.0,"",189.99,189.99,"X",2290824
298,"B0000301054941",15,"1/100903-0",1.0,135.8656488,157.0165,21.0,"",189.99,189.99,"X",2290824
298,"B0000301054941",16,"1/100931-9",1.0,500.5768488,578.5041,21.0,"",699.99,699.99,"X",2290824
298,"B0000301054941",17,"1/100932-1",1.0,393.3088488,454.5371,21.0,"",549.99,549.99,"X",2290824
298,"B0000301054941",18,"1/100956-9",3.0,858.1225464,330.5702,21.0,"",399.99,1199.97,"X",2290824
298,"B0000301054941",19,"4/100973-2",1.0,0.010216,0.0082,21.0,"",0.01,0.01,"X",2290824
298,"B0000301054941",20,"5/202429-2",1.0,2865.5793164,2727.2644,21.0,"",3299.99,3299.99,"X",2290824
298,"B0000301054941",21,"1/23901-6",1.0,114.4120488,132.2231,21.0,"",159.99,159.99,"X",2290824
298,"B0000301054941",22,"1/23902-8",1.0,114.4120488,132.2231,21.0,"",159.99,159.99,"X",2290824
298,"B0000301054941",23,"1/23904-3",1.0,114.4120488,132.2231,21.0,"",159.99,159.99,"X",2290824
298,"B0000301054941",24,"1/23906-7",1.0,114.4120488,132.2231,21.0,"",159.99,159.99,"X",2290824
298,"B0000301054941",25,"1/23908-1",1.0,114.4120488,132.2231,21.0,"",159.99,159.99,"X",2290824
298,"B0000301054941",26,"4/263-0",3.0,0.030648,0.0082,21.0,"",0.01,0.03,"X",2290824
298,"B0000301054941",27,"3/300647-9",1.0,164.9797164,157.0165,21.0,"",189.99,189.99,"X",2290824
298,"B0000301054941",28,"3/300648-1",1.0,164.9797164,157.0165,21.0,"",189.99,189.99,"X",2290824
298,"B0000301054941",29,"3/300649-3",1.0,164.9797164,157.0165,21.0,"",189.99,189.99,"X",2290824
298,"B0000301054941",30,"3/300654-6",1.0,164.9797164,157.0165,21.0,"",189.99,189.99,"X",2290824
298,"B0000301054941",31,"5/300659-7",1.0,164.9797164,157.0165,21.0,"",189.99,189.99,"X",2290824
298,"B0000301054941",32,"5/301461-6",1.0,199.7141164,190.0743,21.0,"",229.99,229.99,"X",2290824
298,"B0000301054941",33,"5/301504-5",3.0,599.1423492,190.0743,21.0,"",229.99,689.97,"X",2290824
298,"B0000301054941",34,"5/301505-8",1.0,199.7141164,190.0743,21.0,"",229.99,229.99,"X",2290824
298,"B0000301054941",35,"3/301621-6",1.0,164.9797164,157.0165,21.0,"",189.99,189.99,"X",2290824
298,"B0000301054941",36,"3/301623-1",1.0,164.9797164,157.0165,21.0,"",189.99,189.99,"X",2290824
298,"B0000301054941",37,"3/301624-3",1.0,164.9797164,157.0165,21.0,"",189.99,189.99,"X",2290824
298,"B0000301054941",38,"3/301625-5",1.0,164.9797164,157.0165,21.0,"",189.99,189.99,"X",2290824
298,"B0000301054941",39,"3/301626-7",1.0,164.9797164,157.0165,21.0,"",189.99,189.99,"X",2290824
298,"B0000301054941",40,"3/301627-0",1.0,164.9797164,157.0165,21.0,"",189.99,189.99,"X",2290824
298,"B0000301054941",41,"5/301632-3",1.0,217.0813164,206.6033,21.0,"",249.99,249.99,"X",2290824
298,"B0000301054941",42,"5/400260-1",1.0,147.6125164,140.4876,21.0,"",169.99,169.99,"X",2290824
298,"B0000301054941",43,"5/400338-4",1.0,243.1321164,231.3966,21.0,"",279.99,279.99,"X",2290824
298,"B0000301054941",44,"5/400409-2",1.0,321.2845164,305.7768,21.0,"",369.99,369.99,"X",2290824
298,"B0000301054941",45,"5/403068-1",1.0,347.3353164,330.5702,21.0,"",399.99,399.99,"X",2290824
298,"B0000301054941",46,"5/402852-5",1.0,1128.8593164,1074.3719,21.0,"",1299.99,1299.99,"X",2290824
298,"B0000301054941",47,"5/403730-3",1.0,390.7533164,371.8925,21.0,"",449.99,449.99,"X",2290824
298,"B0000301054941",48,"5/403761-8",1.0,199.7141164,190.0743,21.0,"",229.99,229.99,"X",2290824
298,"B0000301054941",49,"5/403760-6",1.0,199.7141164,190.0743,21.0,"",229.99,229.99,"X",2290824
298,"B0000301054941",50,"5/403222-8",3.0,781.4979492,247.9256,21.0,"",299.99,899.97,"X",2290824
298,"B0000301054941",51,"5/403828-5",1.0,225.7649164,214.8677,21.0,"",259.99,259.99,"X",2290824
298,"B0000301054941",52,"5/402828-5",1.0,1128.8593164,1074.3719,21.0,"",1299.99,1299.99,"X",2290824
298,"B0000301054941",53,"5/403260-1",2.0,277.8578328,132.2231,21.0,"",159.99,319.98,"X",2290824
298,"B0000301054941",54,"5/403386-3",3.0,625.1931492,198.3388,21.0,"",239.99,719.97,"X",2290824
298,"B0000301054941",55,"5/403561-0",1.0,868.3513164,826.438,21.0,"",999.99,999.99,"X",2290824
298,"B0000301054941",56,"5/53013-1",1.0,243.1321164,231.3966,21.0,"",279.99,279.99,"X",2290824
298,"B0000301054941",57,"5/403385-0",3.0,677.2947492,214.8677,21.0,"",259.99,779.97,"X",2290824
298,"B0000301054941",58,"5/402807-4",1.0,347.3353164,330.5702,21.0,"",399.99,399.99,"X",2290824
298,"B0000301054941",59,"5/94846-1",2.0,1563.0306328,743.7933,21.0,"",899.99,1799.98,"X",2290824
298,"B0000301054941",60,"5/403437-2",1.0,434.1713164,413.2148,21.0,"",499.99,499.99,"X",2290824
298,"B0000301054941",61,"5/403829-7",1.0,225.7649164,214.8677,21.0,"",259.99,259.99,"X",2290824
298,"B0000301054941",62,"1/41329-3",1.0,429.0648488,495.8595,21.0,"",599.99,599.99,"X",2290824
298,"B0000301054941",63,"5/403725-9",12.0,1979.7565968,157.0165,21.0,"",189.99,2279.88,"X",2290824
298,"B0000301054941",64,"4/8263-0",1.0,0.010216,0.0082,21.0,"",0.01,0.01,"X",2290824
298,"B0000301054941",65,"5/403762-0",1.0,260.4993164,247.9256,21.0,"",299.99,299.99,"X",2290824
298,"B0000301054941",66,"5/400442-4",1.0,208.3977164,198.3388,21.0,"",239.99,239.99,"X",2290824
298,"B0000301054941",67,"1/42114-0",1.0,286.0408488,330.5702,21.0,"",399.99,399.99,"X",2290824
298,"B0000301054941",68,"5/403759-1",1.0,199.7141164,190.0743,21.0,"",229.99,229.99,"X",2290824
298,"B0000301054941",69,"5/402806-2",1.0,347.3353164,330.5702,21.0,"",399.99,399.99,"X",2290824
298,"B0000301054941",70,"4/900062-0",1.0,0.010216,0.0082,21.0,"",0.01,0.01,"X",2290824
298,"B0000301054941",71,"5/52426-8",2.0,347.3266328,165.2809,21.0,"",199.99,399.98,"X",2290824
298,"B0000301054941",72,"5/403674-0",1.0,225.7649164,214.8677,21.0,"",259.99,259.99,"X",2290824
298,"B0000301054941",73,"5/403827-2",1.0,225.7649164,214.8677,21.0,"",259.99,259.99,"X",2290824
298,"B0000301054941",74,"4/500387-9",1.0,0.010216,0.0082,21.0,"",0.01,0.01,"X",2290824
303,"B0000301054946",1,"1/100581-5",1.0,294.2126272,297.5123,21.0,"",359.99,359.99,"X",2294139
303,"B0000301054946",2,"1/100855-7",1.0,980.7278272,991.7272,21.0,"",1199.99,1199.99,"X",2294139
303,"B0000301054946",3,"1/100887-6",1.0,286.0398272,289.2479,21.0,"",349.99,349.99,"X",2294139
303,"B0000301054946",4,"1/100956-9",1.0,326.9038272,330.5702,21.0,"",399.99,399.99,"X",2294139
303,"B0000301054946",5,"1/100959-6",1.0,449.4958272,454.5371,21.0,"",549.99,549.99,"X",2294139
303,"B0000301054946",6,"4/263-0",1.0,0.010216,0.0082,21.0,"",0.01,0.01,"X",2294139
303,"B0000301054946",7,"1/32415-7",1.0,245.1758272,247.9256,21.0,"",299.99,299.99,"X",2294139
303,"B0000301054946",8,"5/403542-4",1.0,367.7668056,330.5702,21.0,"",399.99,399.99,"X",2294139
303,"B0000301054946",9,"5/403723-5",1.0,183.8788056,165.2809,21.0,"",199.99,199.99,"X",2294139
303,"B0000301054946",10,"1/41317-4",1.0,490.3598272,495.8595,21.0,"",599.99,599.99,"X",2294139
303,"B0000301054946",11,"1/54424-3",1.0,212.4846272,214.8677,21.0,"",259.99,259.99,"X",2294139
303,"B0000301054946",12,"4/8263-0",1.0,0.010216,0.0082,21.0,"",0.01,0.01,"X",2294139
303,"B0000301054946",13,"9/900391-7",1.0,255.389784,206.6033,21.0,"",249.99,249.99,"X",2294139
316,"B0000301054959",1,"1/100217-1",1.0,235.9824488,272.719,21.0,"",329.99,329.99,"X",2295230
316,"B0000301054959",2,"1/100391-2",1.0,715.1128488,826.438,21.0,"",999.99,999.99,"X",2295230
316,"B0000301054959",3,"1/100745-4",1.0,114.4120488,132.2231,21.0,"",159.99,159.99,"X",2295230
316,"B0000301054959",4,"1/100746-6",1.0,429.0648488,495.8595,21.0,"",599.99,599.99,"X",2295230
316,"B0000301054959",5,"1/100788-9",1.0,193.0752488,223.1322,21.0,"",269.99,269.99,"X",2295230
316,"B0000301054959",6,"1/100855-7",1.0,858.1368488,991.7272,21.0,"",1199.99,1199.99,"X",2295230
316,"B0000301054959",7,"1/100886-4",1.0,214.5298704,289.2479,21.0,"",349.99,349.99,"X",2295230
316,"B0000301054959",8,"1/100932-1",1.0,393.3088488,454.5371,21.0,"",549.99,549.99,"X",2295230
316,"B0000301054959",9,"1/100936-1",1.0,171.6216488,198.3388,21.0,"",239.99,239.99,"X",2295230
316,"B0000301054959",10,"1/100937-3",1.0,171.6216488,198.3388,21.0,"",239.99,239.99,"X",2295230
316,"B0000301054959",11,"1/100959-6",1.0,393.3088488,454.5371,21.0,"",549.99,549.99,"X",2295230
316,"B0000301054959",12,"1/13307-3",1.0,314.6456488,363.628,21.0,"",439.99,439.99,"X",2295230
316,"B0000301054959",13,"1/13362-9",1.0,429.0648488,495.8595,21.0,"",599.99,599.99,"X",2295230
316,"B0000301054959",14,"1/23900-4",2.0,228.8240976,132.2231,21.0,"",159.99,319.98,"X",2295230
316,"B0000301054959",15,"1/23902-8",1.0,114.4120488,132.2231,21.0,"",159.99,159.99,"X",2295230
316,"B0000301054959",16,"1/23907-9",1.0,114.4120488,132.2231,21.0,"",159.99,159.99,"X",2295230
316,"B0000301054959",17,"1/23908-1",1.0,114.4120488,132.2231,21.0,"",159.99,159.99,"X",2295230
316,"B0000301054959",18,"4/263-0",1.0,0.010216,0.0082,21.0,"",0.01,0.01,"X",2295230
316,"B0000301054959",19,"5/300920-1",1.0,303.9173164,289.2479,21.0,"",349.99,349.99,"X",2295230
316,"B0000301054959",20,"5/301154-2",1.0,260.4993164,247.9256,21.0,"",299.99,299.99,"X",2295230
316,"B0000301054959",21,"1/31116-2",2.0,400.4528976,231.3966,21.0,"",279.99,559.98,"X",2295230
316,"B0000301054959",22,"1/32415-7",1.0,214.5288488,247.9256,21.0,"",299.99,299.99,"X",2295230
316,"B0000301054959",23,"4/33000-6",1.0,0.010216,0.0082,21.0,"",0.01,0.01,"X",2295230
316,"B0000301054959",24,"5/400337-2",1.0,243.1321164,231.3966,21.0,"",279.99,279.99,"X",2295230
316,"B0000301054959",25,"5/400338-4",1.0,243.1321164,231.3966,21.0,"",279.99,279.99,"X",2295230
316,"B0000301054959",26,"5/401103-2",1.0,243.1321164,231.3966,21.0,"",279.99,279.99,"X",2295230
316,"B0000301054959",27,"5/401854-9",1.0,329.9681164,314.0413,21.0,"",379.99,379.99,"X",2295230
316,"B0000301054959",28,"5/402807-4",1.0,347.3353164,330.5702,21.0,"",399.99,399.99,"X",2295230
316,"B0000301054959",29,"5/403068-1",1.0,347.3353164,330.5702,21.0,"",399.99,399.99,"X",2295230
316,"B0000301054959",30,"5/403142-8",1.0,329.9681164,314.0413,21.0,"",379.99,379.99,"X",2295230
316,"B0000301054959",31,"5/403145-4",1.0,329.9681164,314.0413,21.0,"",379.99,379.99,"X",2295230
316,"B0000301054959",32,"5/403261-3",1.0,173.6633164,165.2809,21.0,"",199.99,199.99,"X",2295230
316,"B0000301054959",33,"5/403674-0",1.0,225.7649164,214.8677,21.0,"",259.99,259.99,"X",2295230
316,"B0000301054959",34,"5/403723-5",7.0,1215.6432148,165.2809,21.0,"",199.99,1399.93,"X",2295230
316,"B0000301054959",35,"5/403725-9",11.0,1814.7768804,157.0165,21.0,"",189.99,2089.89,"X",2295230
316,"B0000301054959",36,"5/403794-8",1.0,130.2453164,123.9586,21.0,"",149.99,149.99,"X",2295230
316,"B0000301054959",37,"5/403827-2",1.0,225.7649164,214.8677,21.0,"",259.99,259.99,"X",2295230
316,"B0000301054959",38,"5/403828-5",1.0,225.7649164,214.8677,21.0,"",259.99,259.99,"X",2295230
316,"B0000301054959",39,"5/403829-7",3.0,677.2947492,214.8677,21.0,"",259.99,779.97,"X",2295230
316,"B0000301054959",40,"1/41317-4",1.0,429.0648488,495.8595,21.0,"",599.99,599.99,"X",2295230
316,"B0000301054959",41,"1/41329-3",1.0,429.0648488,495.8595,21.0,"",599.99,599.99,"X",2295230
316,"B0000301054959",42,"1/41330-8",1.0,429.0648488,495.8595,21.0,"",599.99,599.99,"X",2295230
316,"B0000301054959",43,"1/43272-1",1.0,1287.2088488,1487.595,21.0,"",1799.99,1799.99,"X",2295230
316,"B0000301054959",44,"4/500156-6",1.0,0.010216,0.0082,21.0,"",0.01,0.01,"X",2295230
316,"B0000301054959",45,"1/54424-3",2.0,371.8480976,214.8677,21.0,"",259.99,519.98,"X",2295230
316,"B0000301054959",46,"9/900391-7",1.0,255.4,206.6115,21.0,"",250.0,250.0,"X",2295230
316,"B0000301054959",47,"5/53013-1",1.0,243.1321164,231.3966,21.0,"",279.99,279.99,"X",2295230
316,"B0000301054959",48,"4/8263-0",1.0,0.010216,0.0082,21.0,"",0.01,0.01,"X",2295230
316,"B0000301054959",49,"1/54426-7",1.0,193.0752488,223.1322,21.0,"",269.99,269.99,"X",2295230
316,"B0000301054959",50,"4/900460-1",1.0,0.010216,0.0082,21.0,"",0.01,0.01,"X",2295230
316,"B0000301054959",51,"5/52426-8",2.0,347.3266328,165.2809,21.0,"",199.99,399.98,"X",2295230
316,"B0000301054959",52,"1/54430-9",1.0,214.5288488,247.9256,21.0,"",299.99,299.99,"X",2295230
317,"B0000301054960",1,"1/100590-8",4.0,715.0913952,206.6033,21.0,"",249.99,999.96,"X",2295231
317,"B0000301054960",2,"1/100804-3",2.0,357.5456976,206.6033,21.0,"",249.99,499.98,"X",2295231
317,"B0000301054960",3,"1/100897-0",1.0,178.7728488,206.6033,21.0,"",249.99,249.99,"X",2295231
317,"B0000301054960",4,"1/100932-1",4.0,1573.2353952,454.5371,21.0,"",549.99,2199.96,"X",2295231
317,"B0000301054960",5,"4/263-0",2.0,0.020432,0.0082,21.0,"",0.01,0.02,"X",2295231
317,"B0000301054960",6,"4/33000-6",1.0,0.010216,0.0082,21.0,"",0.01,0.01,"X",2295231
317,"B0000301054960",7,"1/33116-2",1.0,178.7728488,206.6033,21.0,"",249.99,249.99,"X",2295231
317,"B0000301054960",8,"3/400757-7",2.0,573.1002328,272.719,21.0,"",329.99,659.98,"X",2295231
317,"B0000301054960",9,"5/403260-1",2.0,277.8578328,132.2231,21.0,"",159.99,319.98,"X",2295231
317,"B0000301054960",10,"5/403725-9",3.0,494.9391492,157.0165,21.0,"",189.99,569.97,"X",2295231
317,"B0000301054960",11,"1/41329-3",1.0,429.0648488,495.8595,21.0,"",599.99,599.99,"X",2295231
317,"B0000301054960",12,"4/500156-6",1.0,0.010216,0.0082,21.0,"",0.01,0.01,"X",2295231
317,"B0000301054960",13,"4/8263-0",1.0,0.010216,0.0082,21.0,"",0.01,0.01,"X",2295231
317,"B0000301054960",14,"4/900061-8",1.0,0.010216,0.0082,21.0,"",0.01,0.01,"X",2295231
317,"B0000301054960",15,"9/900391-7",1.0,255.389784,206.6033,21.0,"",249.99,249.99,"X",2295231
318,"B0000301054961",1,"1/100313-1",1.0,164.4704488,190.0743,21.0,"",229.99,229.99,"X",2295360
318,"B0000301054961",2,"1/100590-8",1.0,178.7728488,206.6033,21.0,"",249.99,249.99,"X",2295360
318,"B0000301054961",3,"1/100677-3",1.0,164.4704488,190.0743,21.0,"",229.99,229.99,"X",2295360
318,"B0000301054961",4,"1/100705-7",1.0,135.8656488,157.0165,21.0,"",189.99,189.99,"X",2295360
318,"B0000301054961",5,"1/100798-4",1.0,164.4704488,190.0743,21.0,"",229.99,229.99,"X",2295360
318,"B0000301054961",6,"1/100804-3",1.0,178.7728488,206.6033,21.0,"",249.99,249.99,"X",2295360
318,"B0000301054961",7,"1/100897-0",1.0,178.7728488,206.6033,21.0,"",249.99,249.99,"X",2295360
318,"B0000301054961",8,"1/100903-0",1.0,135.8656488,157.0165,21.0,"",189.99,189.99,"X",2295360
318,"B0000301054961",9,"1/100906-6",1.0,135.8656488,157.0165,21.0,"",189.99,189.99,"X",2295360
318,"B0000301054961",10,"1/100933-3",1.0,393.3088488,454.5371,21.0,"",549.99,549.99,"X",2295360
318,"B0000301054961",11,"1/100959-6",1.0,393.3088488,454.5371,21.0,"",549.99,549.99,"X",2295360
318,"B0000301054961",12,"4/263-0",2.0,0.020432,0.0082,21.0,"",0.01,0.02,"X",2295360
318,"B0000301054961",13,"4/33000-6",1.0,0.010216,0.0082,21.0,"",0.01,0.01,"X",2295360
318,"B0000301054961",14,"1/33116-2",1.0,178.7728488,206.6033,21.0,"",249.99,249.99,"X",2295360
318,"B0000301054961",15,"5/400442-4",1.0,208.3977164,198.3388,21.0,"",239.99,239.99,"X",2295360
318,"B0000301054961",16,"5/402710-3",1.0,1042.0233164,991.7272,21.0,"",1199.99,1199.99,"X",2295360
318,"B0000301054961",17,"5/403261-3",2.0,347.3266328,165.2809,21.0,"",199.99,399.98,"X",2295360
318,"B0000301054961",18,"5/403723-5",2.0,347.3266328,165.2809,21.0,"",199.99,399.98,"X",2295360
318,"B0000301054961",19,"4/500156-6",1.0,0.010216,0.0082,21.0,"",0.01,0.01,"X",2295360
318,"B0000301054961",20,"5/52426-8",1.0,173.6633164,165.2809,21.0,"",199.99,199.99,"X",2295360
318,"B0000301054961",21,"5/53013-1",1.0,243.1321164,231.3966,21.0,"",279.99,279.99,"X",2295360
318,"B0000301054961",22,"4/8263-0",1.0,0.010216,0.0082,21.0,"",0.01,0.01,"X",2295360
318,"B0000301054961",23,"9/900391-7",1.0,255.389784,206.6033,21.0,"",249.99,249.99,"X",2295360
318,"B0000301054961",24,"4/900460-1",1.0,0.010216,0.0082,21.0,"",0.01,0.01,"X",2295360
319,"B0000301054962",1,"1/100746-6",2.0,858.1296976,495.8595,21.0,"",599.99,1199.98,"X",2295365
319,"B0000301054962",2,"1/100842-6",2.0,500.5696976,289.2479,21.0,"",349.99,699.98,"X",2295365
319,"B0000301054962",3,"1/100876-9",1.0,164.4704488,190.0743,21.0,"",229.99,229.99,"X",2295365
319,"B0000301054962",4,"1/100932-1",6.0,2359.8530928,454.5371,21.0,"",549.99,3299.94,"X",2295365
319,"B0000301054962",5,"1/100956-9",2.0,572.0816976,330.5702,21.0,"",399.99,799.98,"X",2295365
319,"B0000301054962",6,"5/202744-7",1.0,303.9173164,289.2479,21.0,"",349.99,349.99,"X",2295365
319,"B0000301054962",7,"5/202745-9",1.0,303.9173164,289.2479,21.0,"",349.99,349.99,"X",2295365
319,"B0000301054962",8,"5/202746-2",1.0,303.9173164,289.2479,21.0,"",349.99,349.99,"X",2295365
319,"B0000301054962",9,"4/263-0",2.0,0.020432,0.0082,21.0,"",0.01,0.02,"X",2295365
319,"B0000301054962",10,"4/33000-6",1.0,0.010216,0.0082,21.0,"",0.01,0.01,"X",2295365
319,"B0000301054962",11,"5/402895-9",1.0,1128.8593164,1074.3719,21.0,"",1299.99,1299.99,"X",2295365
319,"B0000301054962",12,"5/403261-3",1.0,173.6633164,165.2809,21.0,"",199.99,199.99,"X",2295365
319,"B0000301054962",13,"5/403393-0",1.0,191.0305164,181.8099,21.0,"",219.99,219.99,"X",2295365
319,"B0000301054962",14,"1/41317-4",2.0,858.1296976,495.8595,21.0,"",599.99,1199.98,"X",2295365
319,"B0000301054962",15,"1/41329-3",2.0,858.1296976,495.8595,21.0,"",599.99,1199.98,"X",2295365
319,"B0000301054962",16,"1/41330-8",2.0,858.1296976,495.8595,21.0,"",599.99,1199.98,"X",2295365
319,"B0000301054962",17,"4/500156-6",1.0,0.010216,0.0082,21.0,"",0.01,0.01,"X",2295365
319,"B0000301054962",18,"4/8263-0",1.0,0.010216,0.0082,21.0,"",0.01,0.01,"X",2295365
319,"B0000301054962",19,"4/900061-8",1.0,0.010216,0.0082,21.0,"",0.01,0.01,"X",2295365
319,"B0000301054962",20,"9/900391-7",1.0,255.4,206.6115,21.0,"",250.0,250.0,"X",2295365
325,"B0000301054968",1,"1/100050-6",4.0,1001.1393952,289.2479,21.0,"",349.99,1399.96,"X",2295590
325,"B0000301054968",2,"1/100788-9",3.0,579.2257464,223.1322,21.0,"",269.99,809.97,"X",2295590
325,"B0000301054968",3,"1/100872-1",2.0,672.1984976,388.4214,21.0,"",469.99,939.98,"X",2295590
325,"B0000301054968",4,"1/100897-0",2.0,357.5456976,206.6033,21.0,"",249.99,499.98,"X",2295590
325,"B0000301054968",5,"1/13362-9",1.0,429.0648488,495.8595,21.0,"",599.99,599.99,"X",2295590
325,"B0000301054968",6,"4/263-0",2.0,0.020432,0.0082,21.0,"",0.01,0.02,"X",2295590
325,"B0000301054968",7,"1/31116-2",4.0,800.9057952,231.3966,21.0,"",279.99,1119.96,"X",2295590
325,"B0000301054968",8,"1/32299-3",2.0,715.1056976,413.2148,21.0,"",499.99,999.98,"X",2295590
325,"B0000301054968",9,"4/33000-6",1.0,0.010216,0.0082,21.0,"",0.01,0.01,"X",2295590
325,"B0000301054968",10,"1/33116-2",2.0,357.5456976,206.6033,21.0,"",249.99,499.98,"X",2295590
325,"B0000301054968",11,"5/400337-2",1.0,243.1321164,231.3966,21.0,"",279.99,279.99,"X",2295590
325,"B0000301054968",12,"5/400338-4",1.0,243.1321164,231.3966,21.0,"",279.99,279.99,"X",2295590
325,"B0000301054968",13,"3/400593-7",1.0,286.5501164,272.719,21.0,"",329.99,329.99,"X",2295590
325,"B0000301054968",14,"3/400757-7",1.0,286.5501164,272.719,21.0,"",329.99,329.99,"X",2295590
325,"B0000301054968",15,"5/401103-2",1.0,243.1321164,231.3966,21.0,"",279.99,279.99,"X",2295590
325,"B0000301054968",16,"4/500156-6",1.0,0.010216,0.0082,21.0,"",0.01,0.01,"X",2295590
325,"B0000301054968",17,"5/53013-1",1.0,243.1321164,231.3966,21.0,"",279.99,279.99,"X",2295590
325,"B0000301054968",18,"1/54424-3",2.0,371.8480976,214.8677,21.0,"",259.99,519.98,"X",2295590
325,"B0000301054968",19,"1/54426-7",2.0,386.1504976,223.1322,21.0,"",269.99,539.98,"X",2295590
325,"B0000301054968",20,"4/650244-1",2.0,0.020432,0.0082,21.0,"",0.01,0.02,"X",2295590
325,"B0000301054968",21,"4/8263-0",1.0,0.010216,0.0082,21.0,"",0.01,0.01,"X",2295590
325,"B0000301054968",22,"4/900061-8",1.0,0.010216,0.0082,21.0,"",0.01,0.01,"X",2295590
325,"B0000301054968",23,"9/900391-7",1.0,255.4,206.6115,21.0,"",250.0,250.0,"X",2295590
338,"B0000301054981",1,"1/100050-6",2.0,500.5696976,289.2479,21.0,"",349.99,699.98,"X",2298547
338,"B0000301054981",2,"1/100560-4",1.0,214.5288488,247.9256,21.0,"",299.99,299.99,"X",2298547
338,"B0000301054981",3,"1/100561-7",1.0,214.5288488,247.9256,21.0,"",299.99,299.99,"X",2298547
338,"B0000301054981",4,"1/100562-9",1.0,214.5288488,247.9256,21.0,"",299.99,299.99,"X",2298547
338,"B0000301054981",5,"4/100811-1",1.0,0.010216,0.0082,21.0,"",0.01,0.01,"X",2298547
338,"B0000301054981",6,"1/100932-1",1.0,393.3088488,454.5371,21.0,"",549.99,549.99,"X",2298547
338,"B0000301054981",7,"1/100935-7",1.0,250.2848488,289.2479,21.0,"",349.99,349.99,"X",2298547
338,"B0000301054981",8,"1/100937-3",1.0,171.6216488,198.3388,21.0,"",239.99,239.99,"X",2298547
338,"B0000301054981",9,"1/100959-6",1.0,393.3088488,454.5371,21.0,"",549.99,549.99,"X",2298547
338,"B0000301054981",10,"1/13362-9",1.0,429.0648488,495.8595,21.0,"",599.99,599.99,"X",2298547
338,"B0000301054981",11,"1/24677-4",1.0,143.0168488,165.2809,21.0,"",199.99,199.99,"X",2298547
338,"B0000301054981",12,"4/262-8",1.0,0.010216,0.0082,21.0,"",0.01,0.01,"X",2298547
338,"B0000301054981",13,"4/263-0",3.0,0.030648,0.0082,21.0,"",0.01,0.03,"X",2298547
338,"B0000301054981",14,"1/31116-2",1.0,200.2264488,231.3966,21.0,"",279.99,279.99,"X",2298547
338,"B0000301054981",15,"1/32410-6",1.0,286.0408488,330.5702,21.0,"",399.99,399.99,"X",2298547
338,"B0000301054981",16,"5/400593-7",1.0,347.3353164,330.5702,21.0,"",399.99,399.99,"X",2298547
338,"B0000301054981",17,"5/402806-2",4.0,1389.3412656,330.5702,21.0,"",399.99,1599.96,"X",2298547
338,"B0000301054981",18,"5/402807-4",1.0,347.3353164,330.5702,21.0,"",399.99,399.99,"X",2298547
338,"B0000301054981",19,"5/403222-8",2.0,520.9986328,247.9256,21.0,"",299.99,599.98,"X",2298547
338,"B0000301054981",20,"5/403260-1",6.0,833.5734984,132.2231,21.0,"",159.99,959.94,"X",2298547
338,"B0000301054981",21,"5/403261-3",5.0,868.316582,165.2809,21.0,"",199.99,999.95,"X",2298547
338,"B0000301054981",22,"5/403393-0",1.0,191.0305164,181.8099,21.0,"",219.99,219.99,"X",2298547
338,"B0000301054981",23,"5/403500-1",1.0,147.6125164,140.4876,21.0,"",169.99,169.99,"X",2298547
338,"B0000301054981",24,"5/403674-0",3.0,677.2947492,214.8677,21.0,"",259.99,779.97,"X",2298547
338,"B0000301054981",25,"5/403724-7",4.0,798.8564656,190.0743,21.0,"",229.99,919.96,"X",2298547
338,"B0000301054981",26,"5/403725-9",11.0,1814.7768804,157.0165,21.0,"",189.99,2089.89,"X",2298547
338,"B0000301054981",27,"5/403728-6",1.0,277.8665164,264.4545,21.0,"",319.99,319.99,"X",2298547
338,"B0000301054981",28,"5/403751-4",3.0,703.3455492,223.1322,21.0,"",269.99,809.97,"X",2298547
338,"B0000301054981",29,"5/403759-1",2.0,399.4282328,190.0743,21.0,"",229.99,459.98,"X",2298547
338,"B0000301054981",30,"5/403760-6",2.0,399.4282328,190.0743,21.0,"",229.99,459.98,"X",2298547
338,"B0000301054981",31,"5/403761-8",1.0,199.7141164,190.0743,21.0,"",229.99,229.99,"X",2298547
338,"B0000301054981",32,"5/403827-2",3.0,677.2947492,214.8677,21.0,"",259.99,779.97,"X",2298547
338,"B0000301054981",33,"5/403828-5",3.0,677.2947492,214.8677,21.0,"",259.99,779.97,"X",2298547
338,"B0000301054981",34,"5/403829-7",3.0,677.2947492,214.8677,21.0,"",259.99,779.97,"X",2298547
338,"B0000301054981",35,"4/500375-0",1.0,0.010216,0.0082,21.0,"",0.01,0.01,"X",2298547
338,"B0000301054981",36,"4/550194-0",1.0,0.010216,0.0082,21.0,"",0.01,0.01,"X",2298547
338,"B0000301054981",37,"4/650244-1",2.0,0.020432,0.0082,21.0,"",0.01,0.02,"X",2298547
338,"B0000301054981",38,"4/8263-0",1.0,0.010216,0.0082,21.0,"",0.01,0.01,"X",2298547
338,"B0000301054981",39,"4/500391-0",1.0,0.010216,0.0082,21.0,"",0.01,0.01,"X",2298547
338,"B0000301054981",40,"4/500384-2",1.0,0.010216,0.0082,21.0,"",0.01,0.01,"X",2298547
338,"B0000301054981",41,"1/56321-7",1.0,214.5288488,247.9256,21.0,"",299.99,299.99,"X",2298547
338,"B0000301054981",42,"9/900365-3",1.0,255.4,206.6115,21.0,"",250.0,250.0,"X",2298547
338,"B0000301054981",43,"4/500393-4",1.0,0.010216,0.0082,21.0,"",0.01,0.01,"X",2298547
